Division,WeightClassKg,Place,Name,Team,BodyweightKg,Best3SquatKg,Best3BenchKg,Best3DeadliftKg,TotalKg,Equipment,Event,Sex
Boys,51.71,1,Cole Terry,Skidmore-Tynan,50.8,136.08,79.38,136.08,351.53,Single-ply,SBD,M
Boys,51.71,2,Adrian Campos,Freer,51.26,124.74,88.45,129.27,342.46,Single-ply,SBD,M
Boys,51.71,3,Jose Hernandez,Corpus Christi West Oso,51.71,129.27,65.77,136.08,331.12,Single-ply,SBD,M
Boys,51.71,4,Ethan Bass,Ingleside,50.8,122.47,61.23,129.27,312.98,Single-ply,SBD,M
Boys,51.71,5,Isaac Martinez,Sinton,50.89,102.06,61.23,124.74,288.03,Single-ply,SBD,M
Boys,51.71,6,Andrew Rosas,Corpus Christi Calallen,50.98,92.99,52.16,108.86,254.01,Single-ply,SBD,M
Boys,51.71,7,Caleb Edwards,Goliad,47.26,90.72,49.9,92.99,233.6,Single-ply,SBD,M
Boys,55.79,1,Kyle Bailey,Karnes City,55.43,151.95,92.99,154.22,399.16,Single-ply,SBD,M
Boys,55.79,2,Natanael Salinas,Bloomington,55.52,149.69,52.16,151.95,353.8,Single-ply,SBD,M
Boys,55.79,3,Austin Castillo,Sinton,54.88,115.67,72.57,151.95,340.19,Single-ply,SBD,M
Boys,55.79,4,Brendon Batteau,Rockport-Fulton,53.61,115.67,70.31,131.54,317.51,Single-ply,SBD,M
Boys,55.79,5,Juan Vasquez,Corpus Christi Calallen,53.71,122.47,58.97,127.01,308.44,Single-ply,SBD,M
Boys,55.79,6,Eloy Ybarra,Corpus Christi West Oso,54.52,88.45,56.7,120.2,265.35,Single-ply,SBD,M
Boys,55.79,DQ,Tino Reyes,Goliad,55.07,,,,,Single-ply,SBD,M
Boys,55.79,DQ,Marcus Schuessler,Freer,55.43,,,,,Single-ply,SBD,M
Boys,59.87,1,Andres Ramos,Ingleside,58.51,204.12,108.86,197.31,510.29,Single-ply,SBD,M
Boys,59.87,2,Anthony Perez,Ben Bolt-Palito Blanco,58.06,174.63,115.67,185.97,476.27,Single-ply,SBD,M
Boys,59.87,3,Samuel Moczygemba,Poth,58.97,149.69,97.52,158.76,405.97,Single-ply,SBD,M
Boys,59.87,4,Noe Herrera,Kingsville King,58.79,140.61,83.91,161.03,385.55,Single-ply,SBD,M
Boys,59.87,5,Chris Anderson,Ingleside,57.33,136.08,79.38,161.03,376.48,Single-ply,SBD,M
Boys,59.87,6,Tyler Harris,Skidmore-Tynan,58.97,142.88,72.57,158.76,374.21,Single-ply,SBD,M
Boys,59.87,7,Devin Cowen,Rockport-Fulton,58.97,129.27,72.57,170.1,371.95,Single-ply,SBD,M
Boys,59.87,8,Josue Tortu,Corpus Christi West Oso,58.06,140.61,74.84,142.88,358.34,Single-ply,SBD,M
Boys,59.87,9,Jeremiah Pena,Corpus Christi Calallen,58.24,127.01,77.11,154.22,358.34,Single-ply,SBD,M
Boys,59.87,10,Gabriel Gonzales,Goliad,59.87,142.88,81.65,133.81,358.34,Single-ply,SBD,M
Boys,59.87,11,Isaiiah Collums,Goliad,59.6,147.42,61.23,145.15,353.8,Single-ply,SBD,M
Boys,59.87,12,Garrette Renfro,Stockdale,59.42,88.45,56.7,79.38,224.53,Single-ply,SBD,M
Boys,59.87,DQ,David Padilla,Bloomington,56.34,,,,,Single-ply,SBD,M
Boys,59.87,DQ,Dylan Breland,Corpus Christi Calallen,58.97,,,,,Single-ply,SBD,M
Boys,59.87,DQ,Jesus Rojas,Banquete,55.97,,,,,Single-ply,SBD,M
Boys,67.13,1,Daniel Tortu,Corpus Christi West Oso,63.14,181.44,111.13,170.1,462.66,Single-ply,SBD,M
Boys,67.13,2,Tyrese Martinez,Stockdale,62.51,149.69,99.79,165.56,415.04,Single-ply,SBD,M
Boys,67.13,3,Logan Schanan,Skidmore-Tynan,66.68,170.1,81.65,158.76,410.5,Single-ply,SBD,M
Boys,67.13,4,Javier Galvan,Aransas Pass,65.59,149.69,90.72,154.22,394.63,Single-ply,SBD,M
Boys,67.13,5,Daniel Pena,Aransas Pass,66.22,149.69,77.11,156.49,383.29,Single-ply,SBD,M
Boys,67.13,6,Ozzy Ayarzagoitia,Kingsville King,65.05,151.95,77.11,147.42,376.48,Single-ply,SBD,M
Boys,67.13,7,Carlos Alvizo,Poth,60.33,136.08,92.99,142.88,371.95,Single-ply,SBD,M
Boys,67.13,8,Gabriel Guajardo,Skidmore-Tynan,66.95,136.08,74.84,142.88,353.8,Single-ply,SBD,M
Boys,67.13,9,Albert Lopez,Kingsville King,61.23,113.4,77.11,136.08,326.59,Single-ply,SBD,M
Boys,67.13,10,Anthony Lerma,Banquete,64.86,127.01,74.84,124.74,326.59,Single-ply,SBD,M
Boys,67.13,11,Izaiah Garcia,Skidmore-Tynan,63.23,113.4,72.57,131.54,317.51,Single-ply,SBD,M
Boys,67.13,12,Aaron Saenz,Kingsville King,66.95,113.4,72.57,120.2,306.17,Single-ply,SBD,M
Boys,67.13,13,Trevor McClendon,Three Rivers,65.23,106.59,61.23,131.54,299.37,Single-ply,SBD,M
Boys,67.13,14,Gio Savedra,Taft,66.5,111.13,74.84,113.4,299.37,Single-ply,SBD,M
Boys,67.13,15,Sebastian Jimenez,Karnes City,66.04,92.99,70.31,113.4,276.69,Single-ply,SBD,M
Boys,67.13,16,Devon Garrett,Pettus,63.68,81.65,58.97,102.06,242.67,Single-ply,SBD,M
Boys,67.13,DQ,Ernie Ramirez,Sinton,65.86,154.22,,,,Single-ply,SBD,M
Boys,67.13,DQ,Adrian Fuentes,George West,66.68,136.08,,,,Single-ply,SBD,M
Boys,67.13,DQ,Cristian Alvarado,Corpus Christi Calallen,66.22,179.17,95.25,,,Single-ply,SBD,M
Boys,74.84,1,Matthew Valadez,Corpus Christi Calallen,74.39,183.7,120.2,195.04,498.95,Single-ply,SBD,M
Boys,74.84,2,Joel Garza,Corpus Christi Calallen,71.21,183.7,106.59,183.7,474,Single-ply,SBD,M
Boys,74.84,3,Arin Saenz,Freer,72.12,188.24,102.06,183.7,474,Single-ply,SBD,M
Boys,74.84,4,Chris Ceballos,Rockport-Fulton,69.76,170.1,102.06,181.44,453.59,Single-ply,SBD,M
Boys,74.84,5,Dylan Sharp,Sinton,70.03,136.08,102.06,176.9,415.04,Single-ply,SBD,M
Boys,74.84,6,Kaden Crouch,Stockdale,72.48,158.76,102.06,154.22,415.04,Single-ply,SBD,M
Boys,74.84,7,Trevor Moczygemba,Poth,74.84,154.22,92.99,158.76,405.97,Single-ply,SBD,M
Boys,74.84,8,Diego Martinez,Stockdale,69.22,151.95,95.25,156.49,403.7,Single-ply,SBD,M
Boys,74.84,9,Tyler Talley,Stockdale,74.66,136.08,106.59,158.76,401.43,Single-ply,SBD,M
Boys,74.84,10,Ryan Garcia,Skidmore-Tynan,70.31,136.08,90.72,158.76,385.55,Single-ply,SBD,M
Boys,74.84,11,Nolan Perry,Rockport-Fulton,72.12,129.27,83.91,156.49,369.68,Single-ply,SBD,M
Boys,74.84,12,Jaron Denson,Karnes City,69.22,136.08,83.91,145.15,365.14,Single-ply,SBD,M
Boys,74.84,13,Ethan Almendarez,Three Rivers,73.12,145.15,74.84,145.15,365.14,Single-ply,SBD,M
Boys,74.84,14,Matthew Garza,Corpus Christi West Oso,73.48,140.61,70.31,142.88,353.8,Single-ply,SBD,M
Boys,74.84,15,William Ramizinski,Stockdale,72.3,142.88,77.11,124.74,344.73,Single-ply,SBD,M
Boys,74.84,16,Jacob Brake,Rockport-Fulton,74.12,115.67,83.91,142.88,342.46,Single-ply,SBD,M
Boys,74.84,17,Austin Longoria,Taft,69.4,102.06,92.99,142.88,337.93,Single-ply,SBD,M
Boys,74.84,18,Robert Lerma,Banquete,69.94,115.67,79.38,127.01,322.05,Single-ply,SBD,M
Boys,74.84,19,Wylan Ranzinski,Stockdale,68.04,127.01,70.31,108.86,306.17,Single-ply,SBD,M
Boys,74.84,20,Jerry Edlin,George West,68.49,117.93,61.23,127.01,306.17,Single-ply,SBD,M
Boys,74.84,21,Cody Prather #1,Ben Bolt-Palito Blanco,67.59,92.99,68.04,136.08,297.1,Single-ply,SBD,M
Boys,74.84,22,Chris Montemayor,Taft,74.84,83.91,79.38,97.52,260.82,Single-ply,SBD,M
Boys,74.84,DQ,Zach Pulido,Rockport-Fulton,74.39,,,,,Single-ply,SBD,M
Boys,74.84,DQ,Trey Torres,Poth,74.57,,,,,Single-ply,SBD,M
Boys,74.84,DQ,Isaiah Enriquez,Karnes City,74.84,161.03,,,,Single-ply,SBD,M
Boys,74.84,DQ,Adrian Rojas,Bloomington,74.39,,,,,Single-ply,SBD,M
Boys,82.1,1,Gabriel Cantu,Corpus Christi Calallen,78.56,242.67,133.81,272.16,648.64,Single-ply,SBD,M
Boys,82.1,2,John Hodge,Pettus,80.01,192.78,102.06,210.92,505.76,Single-ply,SBD,M
Boys,82.1,3,Chance Guidry,Rockport-Fulton,81.01,188.24,106.59,199.58,494.42,Single-ply,SBD,M
Boys,82.1,4,Oscar Perez,Ben Bolt-Palito Blanco,76.66,183.7,120.2,183.7,487.61,Single-ply,SBD,M
Boys,82.1,5,Brent Gisler,Karnes City,78.02,181.44,124.74,176.9,483.08,Single-ply,SBD,M
Boys,82.1,6,Marcus Almeida,Stockdale,77.47,170.1,104.33,181.44,455.86,Single-ply,SBD,M
Boys,82.1,7,Luis Trujillo,Rockport-Fulton,79.2,161.03,97.52,183.7,442.25,Single-ply,SBD,M
Boys,82.1,8,Trey Ingram,Goliad,76.11,165.56,90.72,167.83,424.11,Single-ply,SBD,M
Boys,82.1,9,Lucas Lopez,Odem,82.1,151.95,92.99,156.49,401.43,Single-ply,SBD,M
Boys,82.1,10,Sebastian Segura,Karnes City,80.74,161.03,88.45,145.15,394.63,Single-ply,SBD,M
Boys,82.1,11,Tristian Perez,Ben Bolt-Palito Blanco,75.75,145.15,102.06,142.88,390.09,Single-ply,SBD,M
Boys,82.1,12,Joseph Dominguez,Taft,81.65,97.52,161.03,113.4,371.95,Single-ply,SBD,M
Boys,82.1,13,Gus Rodriguez,Banquete,82.01,122.47,72.57,129.27,324.32,Single-ply,SBD,M
Boys,82.1,DQ,Jesus Martinez,Freer,76.93,183.7,,,,Single-ply,SBD,M
Boys,82.1,DQ,Everet Power,George West,79.92,151.95,,,,Single-ply,SBD,M
Boys,82.1,DQ,Ilias Rodriguez,Three Rivers,76.66,179.17,,,,Single-ply,SBD,M
Boys,89.81,1,Mitchell Rees,Karnes City,85.64,272.16,147.42,242.67,662.24,Single-ply,SBD,M
Boys,89.81,2,Barry Hernandez,Corpus Christi West Oso,88.81,256.28,158.76,226.8,641.83,Single-ply,SBD,M
Boys,89.81,3,Federico Ruiz Jr,Corpus Christi John Paul II High School,89.45,235.87,122.47,231.33,589.67,Single-ply,SBD,M
Boys,89.81,4,Elijah Holifield,Skidmore-Tynan,85.28,206.38,136.08,235.87,578.33,Single-ply,SBD,M
Boys,89.81,5,Tevin Moreno,Odem,87.27,206.38,106.59,188.24,501.22,Single-ply,SBD,M
Boys,89.81,6,Orlando Gonzalez,Odem,89.63,179.17,131.54,151.95,462.66,Single-ply,SBD,M
Boys,89.81,7,Gilbert Arriaga,Kingsville King,83.37,174.63,97.52,181.44,453.59,Single-ply,SBD,M
Boys,89.81,8,Tony Turrubiartes,Karnes City,88,158.76,106.59,163.29,428.64,Single-ply,SBD,M
Boys,89.81,9,Alfonso Hernandez,Goliad,82.74,161.03,88.45,149.69,399.16,Single-ply,SBD,M
Boys,89.81,10,Daniel Ramos,Ben Bolt-Palito Blanco,85.46,124.74,86.18,170.1,381.02,Single-ply,SBD,M
Boys,89.81,11,Alex Salas,Goliad,89.45,142.88,74.84,151.95,369.68,Single-ply,SBD,M
Boys,89.81,12,Marcos Espinoza,Kingsville King,89.27,129.27,97.52,140.61,367.41,Single-ply,SBD,M
Boys,89.81,13,Johnathan Gonzales,Taft,89.54,115.67,77.11,142.88,335.66,Single-ply,SBD,M
Boys,89.81,14,Paul Trevino,Taft,84.37,115.67,70.31,115.67,301.64,Single-ply,SBD,M
Boys,89.81,15,Aaron Casarez,Three Rivers,89.63,97.52,61.23,108.86,267.62,Single-ply,SBD,M
Boys,89.81,DQ,Enrique Barron,Ingleside,85.73,,,,,Single-ply,SBD,M
Boys,99.79,1,Bailey Trevino,George West,97.52,272.16,149.69,263.08,684.92,Single-ply,SBD,M
Boys,99.79,2,Roland Rivas,Aransas Pass,92.44,226.8,138.35,179.17,544.31,Single-ply,SBD,M
Boys,99.79,3,Thomas Puentes,Skidmore-Tynan,97.52,244.94,131.54,161.03,537.51,Single-ply,SBD,M
Boys,99.79,4,Joseph Benavidez,Pettus,94.71,190.51,136.08,192.78,519.36,Single-ply,SBD,M
Boys,99.79,5,Angel Hernandez,Goliad,97.7,210.92,122.47,183.7,517.1,Single-ply,SBD,M
Boys,99.79,6,Ismael Gonzalez,Kingsville King,99.79,208.65,124.74,179.17,512.56,Single-ply,SBD,M
Boys,99.79,7,Sean Allen,Poth,94.98,183.7,131.54,183.7,498.95,Single-ply,SBD,M
Boys,99.79,8,Kevin Herrera,Poth,90.26,204.12,115.67,163.29,483.08,Single-ply,SBD,M
Boys,99.79,9,Saulo Ramos,Kingsville King,93.62,190.51,102.06,190.51,483.08,Single-ply,SBD,M
Boys,99.79,10,Luke Michael,Rockport-Fulton,91.17,183.7,129.27,158.76,471.74,Single-ply,SBD,M
Boys,99.79,11,Marcus Hinojosa,Skidmore-Tynan,91.63,181.44,90.72,181.44,453.59,Single-ply,SBD,M
Boys,99.79,12,Dylan Hofstetter,Corpus Christi Calallen,97.89,188.24,97.52,154.22,439.98,Single-ply,SBD,M
Boys,99.79,13,Victor Vera,Sinton,96.25,149.69,111.13,161.03,421.84,Single-ply,SBD,M
Boys,99.79,14,Luke Snodgrass,Ingleside,97.61,158.76,99.79,163.29,421.84,Single-ply,SBD,M
Boys,99.79,15,Jonathon Vega,Kingsville King,91.99,145.15,106.59,145.15,396.89,Single-ply,SBD,M
Boys,99.79,16,Seth Colsa,Corpus Christi Calallen,96.98,140.61,104.33,151.95,396.89,Single-ply,SBD,M
Boys,99.79,17,Fred De La Rosa,Sinton,95.98,136.08,115.67,142.88,394.63,Single-ply,SBD,M
Boys,99.79,18,Caleb Wilson,Skidmore-Tynan,95.25,149.69,104.33,136.08,390.09,Single-ply,SBD,M
Boys,99.79,19,Nathaniel Gomez,Karnes City,97.07,138.35,90.72,158.76,387.82,Single-ply,SBD,M
Boys,99.79,20,Trevor Zimmerman,Ingleside,99.79,145.15,92.99,127.01,365.14,Single-ply,SBD,M
Boys,99.79,21,Angel Hernandez,Ben Bolt-Palito Blanco,90.72,113.4,88.45,158.76,360.61,Single-ply,SBD,M
Boys,99.79,22,Logan Hubert,Stockdale,94.89,147.42,88.45,124.74,360.61,Single-ply,SBD,M
Boys,99.79,23,Mathew Valdez,Ingleside,92.99,136.08,90.72,129.27,356.07,Single-ply,SBD,M
Boys,99.79,24,Richard Alvarado,Aransas Pass,99.7,124.74,95.25,136.08,356.07,Single-ply,SBD,M
Boys,99.79,25,Adrian Salinas,Three Rivers,91.17,120.2,65.77,111.13,297.1,Single-ply,SBD,M
Boys,99.79,DQ,Samual Martinez,Pettus,95.44,136.08,,,,Single-ply,SBD,M
Boys,109.77,1,Joey Rodriguez,Corpus Christi West Oso,107.95,281.23,151.95,251.74,684.92,Single-ply,SBD,M
Boys,109.77,2,Adam Gonzalez,Kingsville King,108.95,201.85,133.81,215.46,551.11,Single-ply,SBD,M
Boys,109.77,3,Marcus Avitia,Ingleside,107.5,188.24,124.74,174.63,487.61,Single-ply,SBD,M
Boys,109.77,4,Jacob Hernandez,Stockdale,108.86,181.44,124.74,181.44,487.61,Single-ply,SBD,M
Boys,109.77,5,Michael Moralez,Aransas Pass,105.41,190.51,111.13,172.37,474,Single-ply,SBD,M
Boys,109.77,6,Shayne Shusta,Ingleside,105.6,170.1,111.13,174.63,455.86,Single-ply,SBD,M
Boys,109.77,7,Julian Beltran,Corpus Christi Calallen,109.59,163.29,115.67,172.37,451.32,Single-ply,SBD,M
Boys,109.77,8,Jakob Encinia,Sinton,103.69,145.15,104.33,158.76,408.23,Single-ply,SBD,M
Boys,109.77,9,Francisco Gonzales,Sinton,108.5,142.88,102.06,142.88,387.82,Single-ply,SBD,M
Boys,109.77,10,Daniel Silvas,Taft,107.5,106.59,83.91,147.42,337.93,Single-ply,SBD,M
Boys,109.77,11,Jamie Gonzales,Taft,104.87,113.4,79.38,113.4,306.17,Single-ply,SBD,M
Boys,124.74,1,Trace Mascorro,Refugio,118.02,226.8,181.44,226.8,635.03,Single-ply,SBD,M
Boys,124.74,2,Luis Sanchez,Three Rivers,123.83,233.6,140.61,222.26,596.47,Single-ply,SBD,M
Boys,124.74,3,David Mendez,Taft,122.74,208.65,124.74,199.58,532.97,Single-ply,SBD,M
Boys,124.74,4,Ezekiel Palacios,Goliad,124.47,208.65,122.47,188.24,519.36,Single-ply,SBD,M
Boys,124.74,5,Luis Garcia,Odem,118.57,183.7,142.88,188.24,514.83,Single-ply,SBD,M
Boys,124.74,6,Kyle Zaiontz,Poth,123.01,210.92,106.59,192.78,510.29,Single-ply,SBD,M
Boys,124.74,7,Jace Gonzales,Karnes City,114.31,188.24,102.06,170.1,460.4,Single-ply,SBD,M
Boys,124.74,8,Ethan Dreyer,Rockport-Fulton,113.4,165.56,92.99,170.1,428.64,Single-ply,SBD,M
Boys,124.74,9,Rudy Orosco,Woodsboro,116.75,181.44,88.45,147.42,417.3,Single-ply,SBD,M
Boys,124.74,10,Ezra Naranjo,Odem,122.02,170.1,102.06,142.88,415.04,Single-ply,SBD,M
Boys,124.74,11,Arthur Morales,Refugio,121.83,115.67,106.59,142.88,365.14,Single-ply,SBD,M
Boys,124.74,12,Jaedon Segura,Goliad,120.75,129.27,88.45,140.61,358.34,Single-ply,SBD,M
Boys,124.74,13,Darrion Wills,Refugio,110.95,124.74,86.18,142.88,353.8,Single-ply,SBD,M
Boys,124.74,DQ,Jonathan DeLeon,Sinton,116.57,181.44,,,,Single-ply,SBD,M
Boys,124.74,DQ,Cade Schwandner,Poth,112.31,197.31,,,,Single-ply,SBD,M
Boys,124.74+,1,Kaleb Pogue,Rockport-Fulton,126.55,283.5,161.03,224.53,669.05,Single-ply,SBD,M
Boys,124.74+,2,Joshua Leal,Karnes City,132.81,244.94,170.1,249.48,664.51,Single-ply,SBD,M
Boys,124.74+,3,Marcos Romero,Odem,140.7,206.38,142.88,206.38,555.65,Single-ply,SBD,M
Boys,124.74+,4,Wyatt Diaz,Stockdale,133.54,208.65,158.76,183.7,551.11,Single-ply,SBD,M
Boys,124.74+,5,Christrian Dickey,Aransas Pass,170.01,188.24,145.15,181.44,514.83,Single-ply,SBD,M
Boys,124.74+,6,Kris Campos,Refugio,162.48,174.63,129.27,204.12,508.02,Single-ply,SBD,M
Boys,124.74+,7,Ej Carrera,Taft,127.64,192.78,115.67,183.7,492.15,Single-ply,SBD,M
Boys,124.74+,8,Xavier Perry,Goliad,125.65,149.69,83.91,138.35,371.95,Single-ply,SBD,M
Boys,124.74+,9,Jason Galvan,Corpus Christi West Oso,136.89,136.08,56.7,151.95,344.73,Single-ply,SBD,M
Boys,124.74+,10,Jett Hill,Banquete,132.45,108.86,61.23,136.08,306.17,Single-ply,SBD,M
Boys,124.74+,11,Ryan Rivas,Poth,129.09,79.38,52.16,115.67,247.21,Single-ply,SBD,M
