Division,WeightClassKg,Place,Name,Team,BodyweightKg,Best3SquatKg,Best3BenchKg,Best3DeadliftKg,TotalKg,Equipment,Event,Sex
Boys,51.71,1,Junior Chavez,Waxahachie,47.63,83.91,54.43,102.06,240.4,Single-ply,SBD,M
Boys,51.71,DQ,Caden Gilcrease,Garland Rowlett,48.17,79.38,,,,Single-ply,SBD,M
Boys,55.79,1,Joseph Rico,Forney,55.79,163.29,111.13,167.83,442.25,Single-ply,SBD,M
Boys,55.79,2,Nick Henderson,Waxahachie,52.16,113.4,52.16,136.08,301.64,Single-ply,SBD,M
Boys,59.87,1,Isaiah Payne,Crandall,58.97,167.83,88.45,181.44,437.72,Single-ply,SBD,M
Boys,59.87,2,Jeffery Cuellar,Corsicana,58.51,142.88,79.38,145.15,367.41,Single-ply,SBD,M
Boys,59.87,3,Jakel Davis,Garland Rowlett,57.88,136.08,61.23,115.67,312.98,Single-ply,SBD,M
Boys,59.87,4,Gabe Alexander,Waxahachie,59.24,111.13,63.5,124.74,299.37,Single-ply,SBD,M
Boys,67.13,5,Chris Hernandez,Kaufman,59.96,88.45,52.16,102.06,242.67,Single-ply,SBD,M
Boys,67.13,1,Sean Pobst,Quinlan Ford,66.41,176.9,102.06,213.19,492.15,Single-ply,SBD,M
Boys,67.13,2,Jackie Dang,Garland Rowlett,62.87,161.03,97.52,183.7,442.25,Single-ply,SBD,M
Boys,67.13,3,Luke Elkins,Corsicana,63.5,156.49,97.52,165.56,419.57,Single-ply,SBD,M
Boys,67.13,4,Victor Ejiasi,North Forney,64.14,149.69,90.72,167.83,408.23,Single-ply,SBD,M
Boys,67.13,5,Gilberto Torres,Forney,66.22,145.15,83.91,158.76,387.82,Single-ply,SBD,M
Boys,74.84,6,Brandon Ruiz,Forney,67.31,142.88,88.45,142.88,374.21,Single-ply,SBD,M
Boys,67.13,7,Wrangler Welch,Quinlan Ford,61.51,129.27,61.23,147.42,337.93,Single-ply,SBD,M
Boys,67.13,8,Garret Gilcrease,Crandall,65.14,124.74,74.84,117.93,317.51,Single-ply,SBD,M
Boys,74.84,1,Angel Perez,Red Oak,73.39,192.78,172.37,206.38,571.53,Single-ply,SBD,M
Boys,74.84,2,Garrett David,Waxahachie,71.3,190.51,92.99,226.8,510.29,Single-ply,SBD,M
Boys,74.84,3,Ben Walzel,Dallas Highland Park,74.21,185.97,124.74,195.04,505.76,Single-ply,SBD,M
Boys,74.84,4,Charles Willman,Quinlan Ford,74.84,165.56,138.35,176.9,480.81,Single-ply,SBD,M
Boys,82.1,5,Gavin Pringle,Waxahachie,75.02,183.7,104.33,183.7,471.74,Single-ply,SBD,M
Boys,74.84,6,Darius Campbell,Red Oak,67.77,165.56,111.13,181.44,458.13,Single-ply,SBD,M
Boys,74.84,7,Demark Henry,Corsicana,71.49,165.56,111.13,181.44,458.13,Single-ply,SBD,M
Boys,74.84,8,Garrett Pringle,Waxahachie,70.13,172.37,108.86,172.37,453.59,Single-ply,SBD,M
Boys,82.1,9,Calvin Olsen,Quinlan Ford,75.02,181.44,102.06,154.22,437.72,Single-ply,SBD,M
Boys,82.1,10,Hayden O'Pry,Forney,74.93,158.76,106.59,163.29,428.64,Single-ply,SBD,M
Boys,74.84,11,Langston Madison,Corsicana,70.76,142.88,90.72,165.56,399.16,Single-ply,SBD,M
Boys,74.84,12,Tanner Little,Red Oak,69.58,142.88,99.79,151.95,394.63,Single-ply,SBD,M
Boys,74.84,13,Matt Hargis,Rockwall-Heath,72.94,142.88,95.25,151.95,390.09,Single-ply,SBD,M
Boys,74.84,14,Calvin Ribera,North Forney,70.22,140.61,70.31,176.9,387.82,Single-ply,SBD,M
Boys,74.84,15,Brandon Mims,Forney,74.39,117.93,81.65,142.88,342.46,Single-ply,SBD,M
Boys,74.84,16,Spencer Harrison,Forney,71.85,113.4,65.77,136.08,315.25,Single-ply,SBD,M
Boys,74.84,17,Angel Velazquez,Kaufman,73.21,102.06,54.43,106.59,263.08,Single-ply,SBD,M
Boys,74.84,DQ,Emmanuel Karimi,Forney,72.94,,,,,Single-ply,SBD,M
Boys,82.1,1,Josh Scott,Rockwall-Heath,80.74,226.8,145.15,217.72,589.67,Single-ply,SBD,M
Boys,82.1,2,Quentin Wooten,Rockwall-Heath,80.38,204.12,117.93,226.8,548.85,Single-ply,SBD,M
Boys,82.1,3,Daniel Salguero,Red Oak,78.93,201.85,140.61,199.58,542.04,Single-ply,SBD,M
Boys,82.1,4,Brett Mallon,Crandall,80.65,185.97,113.4,206.38,505.76,Single-ply,SBD,M
Boys,82.1,5,Rigo Villareal,Rockwall-Heath,80.65,188.24,115.67,170.1,474,Single-ply,SBD,M
Boys,82.1,6,Sir Charles Miles-Frost,Lancaster,79.83,174.63,113.4,172.37,460.4,Single-ply,SBD,M
Boys,82.1,7,Kyle Fortenberry,Italy,80.92,163.29,99.79,161.03,424.11,Single-ply,SBD,M
Boys,89.81,8,Ladarius Dickens,Garland Rowlett,82.28,163.29,79.38,181.44,424.11,Single-ply,SBD,M
Boys,82.1,9,Justin Wilson,Nevada Community,80.29,154.22,104.33,161.03,419.57,Single-ply,SBD,M
Boys,82.1,10,Alexander Rollins,Lancaster,79.29,136.08,106.59,158.76,401.43,Single-ply,SBD,M
Boys,82.1,11,Jonathan Wright,Lancaster,77.02,129.27,90.72,172.37,392.36,Single-ply,SBD,M
Boys,82.1,12,Jahovvany San Juan,Kaufman,76.43,142.88,83.91,145.15,371.95,Single-ply,SBD,M
Boys,89.81,13,Jonathan Hines,Red Oak,82.28,136.08,83.91,151.95,371.95,Single-ply,SBD,M
Boys,82.1,14,Noah Yeldell,Kaufman,80.01,133.81,79.38,129.27,342.46,Single-ply,SBD,M
Boys,82.1,15,Hayden Harrison,Quinlan Ford,81.19,83.91,52.16,74.84,210.92,Single-ply,SBD,M
Boys,89.81,1,Leonardo Zavala,Waxahachie,86.91,215.46,111.13,226.8,553.38,Single-ply,SBD,M
Boys,89.81,2,Brandon Melton,Quinlan Ford,89.09,229.06,124.74,199.58,553.38,Single-ply,SBD,M
Boys,89.81,3,Tristen Carstarphen,Rockwall-Heath,86.73,199.58,127.01,213.19,539.77,Single-ply,SBD,M
Boys,89.81,4,Chris Clark,Waxahachie,83.28,167.83,122.47,235.87,526.17,Single-ply,SBD,M
Boys,89.81,5,Caleb High,Waxahachie,83.19,204.12,117.93,190.51,512.56,Single-ply,SBD,M
Boys,89.81,6,Brenden Blunt,Crandall,85.73,192.78,124.74,183.7,501.22,Single-ply,SBD,M
Boys,89.81,7,Link Jared,Dallas Highland Park,89.36,183.7,111.13,195.04,489.88,Single-ply,SBD,M
Boys,89.81,8,Drew Coleman,Forney,89.81,176.9,120.2,181.44,478.54,Single-ply,SBD,M
Boys,89.81,9,David Matthews,Garland Rowlett,85.28,174.63,108.86,192.78,476.27,Single-ply,SBD,M
Boys,89.81,10,Dalton Bramhall,Crandall,88.72,183.7,108.86,172.37,464.93,Single-ply,SBD,M
Boys,89.81,11,Jacob Ghormley,Crandall,84.1,165.56,106.59,183.7,455.86,Single-ply,SBD,M
Boys,99.79,12,Brendan Vaughn,Forney,89.95,165.56,97.52,172.37,435.45,Single-ply,SBD,M
Boys,89.81,13,Tyler Rudolph,Kaufman,88.45,147.42,106.59,174.63,428.64,Single-ply,SBD,M
Boys,89.81,14,Caleb Cisneros,Garland Rowlett,87.36,165.56,115.67,142.88,424.11,Single-ply,SBD,M
Boys,89.81,15,Zac Eskridge,Crandall,89.13,165.56,99.79,156.49,421.84,Single-ply,SBD,M
Boys,89.81,16,Sam Coltharp,Forney,84.82,147.42,92.99,156.49,396.89,Single-ply,SBD,M
Boys,89.81,17,Harrison Murski,Dallas Highland Park,86.73,147.42,90.72,158.76,396.89,Single-ply,SBD,M
Boys,89.81,18,Will Esquivel,Dallas Highland Park,88.18,149.69,83.91,158.76,392.36,Single-ply,SBD,M
Boys,89.81,19,Marco Reyes #1,Quinlan Ford,83.64,106.59,63.5,127.01,297.1,Single-ply,SBD,M
Boys,89.81,20,William Cotton,Quinlan Ford,87.82,83.91,58.97,108.86,251.74,Single-ply,SBD,M
Boys,89.81,DQ,Matthew Barge,Dallas Highland Park,86.55,181.44,,,,Single-ply,SBD,M
Boys,89.81,DQ,Christian Smalls,Lancaster,82.74,142.88,,,,Single-ply,SBD,M
Boys,109.77,1,Adam Arredondo,Waxahachie,99.97,276.69,149.69,247.21,673.58,Single-ply,SBD,M
Boys,109.77,2,Taner Renfro,Quinlan Ford,99.88,294.84,142.88,233.6,671.32,Single-ply,SBD,M
Boys,99.79,3,Carson Yeager,Dallas Highland Park,98.43,192.78,115.67,208.65,517.1,Single-ply,SBD,M
Boys,99.79,4,David Brown,Crandall,99.52,199.58,124.74,190.51,514.83,Single-ply,SBD,M
Boys,109.77,5,Trent Podleski,Rockwall-Heath,99.88,174.63,117.93,188.24,480.81,Single-ply,SBD,M
Boys,99.79,6,Zac Snelling,Dallas Highland Park,98.43,181.44,115.67,181.44,478.54,Single-ply,SBD,M
Boys,99.79,7,Bronson Lincks,Red Oak,96.98,188.24,97.52,190.51,476.27,Single-ply,SBD,M
Boys,99.79,8,Jonathan Sackett,Red Oak,98.34,147.42,136.08,181.44,464.93,Single-ply,SBD,M
Boys,99.79,9,Billy Pritchett,Quinlan Ford,98.97,174.63,88.45,188.24,451.32,Single-ply,SBD,M
Boys,99.79,10,Demitri Lunsford,Corsicana,97.79,142.88,113.4,170.1,426.38,Single-ply,SBD,M
Boys,99.79,11,Ty Tidwell,Corsicana,99.7,142.88,104.33,176.9,424.11,Single-ply,SBD,M
Boys,109.77,12,Hunter Hays,Kaufman,99.97,163.29,95.25,158.76,417.3,Single-ply,SBD,M
Boys,99.79,13,Cesar Rivera,North Forney,93.26,151.95,90.72,163.29,405.97,Single-ply,SBD,M
Boys,99.79,14,Christian Hoover,Forney,99.61,156.49,97.52,142.88,396.89,Single-ply,SBD,M
Boys,99.79,15,William Kraft,Dallas Highland Park,92.26,140.61,90.72,161.03,392.36,Single-ply,SBD,M
Boys,99.79,16,Braxton Tipton,Forney,98.43,156.49,70.31,147.42,374.21,Single-ply,SBD,M
Boys,99.79,17,Seth White,Corsicana,98.61,142.88,79.38,142.88,365.14,Single-ply,SBD,M
Boys,99.79,18,Sherman Bowen,Lancaster,94.71,102.06,61.23,158.76,322.05,Single-ply,SBD,M
Boys,109.77,19,Jd Beverly,Dallas Highland Park,99.97,102.06,72.57,142.88,317.51,Single-ply,SBD,M
Boys,99.79,DQ,Tyler Copeland #2,Forney,99.61,136.08,,,,Single-ply,SBD,M
Boys,109.77,1,William Neely,Dallas Highland Park,101.15,204.12,131.54,181.44,517.1,Single-ply,SBD,M
Boys,124.74,2,Javier Utrera,Quinlan Ford,109.95,210.92,120.2,163.29,494.42,Single-ply,SBD,M
Boys,109.77,3,Jake Sorrels,Dallas Highland Park,103.42,176.9,106.59,167.83,451.32,Single-ply,SBD,M
Boys,109.77,4,Corey Mullican,Kaufman,105.87,174.63,95.25,179.17,449.06,Single-ply,SBD,M
Boys,109.77,5,Trevor Dyson,Lancaster,107.14,147.42,111.13,181.44,439.98,Single-ply,SBD,M
Boys,109.77,6,Grant Fischer,North Forney,104.78,154.22,95.25,181.44,430.91,Single-ply,SBD,M
Boys,109.77,7,Nathan Manure,Corsicana,107.32,142.88,115.67,147.42,405.97,Single-ply,SBD,M
Boys,109.77,8,Austin Norton,Nevada Community,106.14,147.42,97.52,145.15,390.09,Single-ply,SBD,M
Boys,109.77,9,Kage Forrest,Dallas Highland Park,107.41,142.88,88.45,151.95,383.29,Single-ply,SBD,M
Boys,109.77,DQ,Derrick Dollas,Lancaster,109.32,,,,,Single-ply,SBD,M
Boys,124.74,1,Jack Sides,Dallas Highland Park,122.02,226.8,147.42,215.46,589.67,Single-ply,SBD,M
Boys,124.74,2,Armando Martinez,Red Oak,118.57,229.06,133.81,215.46,578.33,Single-ply,SBD,M
Boys,124.74,3,Austin Tynes,Garland Rowlett,115.21,192.78,142.88,204.12,539.77,Single-ply,SBD,M
Boys,124.74,4,Grant Farley,Quinlan Boles,111.4,204.12,115.67,204.12,523.9,Single-ply,SBD,M
Boys,124.74,5,Caleb Hall-Abbott,Waxahachie,115.67,172.37,131.54,192.78,496.68,Single-ply,SBD,M
Boys,124.74,6,Jonathon Seaton,Corsicana,115.3,142.88,106.59,197.31,446.79,Single-ply,SBD,M
Boys,124.74,7,Cody Lambert,Forney,117.48,172.37,97.52,154.22,424.11,Single-ply,SBD,M
Boys,124.74,8,Ryan Collinsworth,Red Oak,112.4,151.95,102.06,156.49,410.5,Single-ply,SBD,M
Boys,124.74,9,Ceasan Gomel,Corsicana,117.03,145.15,81.65,151.95,378.75,Single-ply,SBD,M
Boys,124.74,10,Devin Beamon,North Forney,115.3,113.4,97.52,158.76,369.68,Single-ply,SBD,M
Boys,124.74,11,Adam Friesen,North Forney,113.94,136.08,74.84,156.49,367.41,Single-ply,SBD,M
Boys,124.74,12,Ray Yates,North Forney,113.76,136.08,68.04,142.88,347,Single-ply,SBD,M
Boys,124.74,13,Austin Patricia,North Forney,118.48,97.52,61.23,161.03,319.78,Single-ply,SBD,M
Boys,124.74,14,Justin Cook,Lancaster,116.12,156.49,,,156.49,Single-ply,S,M
Boys,124.74+,1,Jorge Guerrero,Rockwall-Heath,150.68,229.06,154.22,213.19,596.47,Single-ply,SBD,M
Boys,124.74+,2,Norris Floyd,North Forney,136.08,226.8,124.74,217.72,569.26,Single-ply,SBD,M
Boys,124.74+,3,JC Bennett,Rockwall-Heath,138.62,188.24,117.93,229.06,535.24,Single-ply,SBD,M
Boys,124.74+,4,Larry Davis,Corsicana,152.23,181.44,136.08,192.78,510.29,Single-ply,SBD,M
Boys,124.74+,5,Raiquan Bennett,Lancaster,127.46,170.1,129.27,192.78,492.15,Single-ply,SBD,M
Boys,124.74+,6,Treston Price,Lancaster,128.91,161.03,106.59,183.7,451.32,Single-ply,SBD,M
Boys,124.74+,7,Julo Fanto,Corsicana,127.46,151.95,90.72,151.95,394.63,Single-ply,SBD,M
Boys,124.74+,8,Daniel Smith,Quinlan Boles,145.6,131.54,79.38,142.88,353.8,Single-ply,SBD,M
Boys,124.74+,DQ,Andre Henderson,Garland Rowlett,130.36,,,,,Single-ply,SBD,M
