Name,WeightClassKg,Division,Sex,Best3SquatKg,Best3BenchKg,Best3DeadliftKg,TotalKg,Event,Equipment,Place
Gayle Sampson,48,Open,F,105,47.5,102.5,255,SBD,Single-ply,1
April Marlatt,56,Open,F,105,60,125,290,SBD,Single-ply,1
Angie Overdeer,60,Open,F,170,97.5,190.5,457.5,SBD,Single-ply,1
Erin Walterman,60,Open,F,120,65,142.5,327.5,SBD,Single-ply,2
Sarah Nettis,60,Open,F,70,65,130,265,SBD,Single-ply,3
Ruth Welding,67.5,Open,F,142.5,82.5,170,395,SBD,Single-ply,1
Shelly Murawski,67.5,Open,F,140,70,150,360,SBD,Single-ply,2
Amy Hasner,67.5,Open,F,135,55,137.5,327.5,SBD,Single-ply,3
Devon Doan,67.5,Open,F,122.5,75,127.5,325,SBD,Single-ply,4
Emily Hasner,67.5,Open,F,122.5,42.5,130,295,SBD,Single-ply,5
Adrian Potter,67.5,Open,F,97.5,52.5,132.5,282.5,SBD,Single-ply,6
Rebecca Haas,75,Open,F,100,57.5,100,257.5,SBD,Single-ply,1
Sue Hallen,90+,Open,F,170,125,150,445,SBD,Single-ply,1
Jeremy Meyer,52,Open,M,,,,,SBD,Single-ply,DQ
Dan Niteken,52,Teen 14-15,M,100,55,112.5,267.5,SBD,Single-ply,1
Jeremy Meyer,52,Teen 14-15,M,,,,,SBD,Single-ply,DQ
Sam Meadows,56,Open,M,165,107.5,210,482.5,SBD,Single-ply,1
Brandon Hatfield,56,Teen 14-15,M,135,65,160,360,SBD,Single-ply,1
Nick Trzaskas,56,Teen 16-17,M,150,80,167.5,397.5,SBD,Single-ply,1
David Norris,60,Teen 14-15,M,130,70,135,335,SBD,Single-ply,1
Charles Blesinger,60,Teen 16-17,M,142.5,82.5,160,385,SBD,Single-ply,1
Christian Carter,67.5,Open,M,175,100,167.5,442.5,SBD,Single-ply,1
Steve Wielgos,67.5,Open,M,145,105,170,420,SBD,Single-ply,2
Andrew Shuarksman,67.5,Teen 16-17,M,155,90,182.5,427.5,SBD,Single-ply,1
Christian Carter,67.5,Teen 18-19,M,175,100,167.5,442.5,SBD,Single-ply,1
John Loftus,67.5,Masters 50+,M,110,70,115,295,SBD,Single-ply,1
Eriek Nickson,75,Open,M,252.5,172.5,287.5,712.5,SBD,Single-ply,1
Manuel Rivera,75,Open,M,210,155,215,580,SBD,Single-ply,2
Alejandro Maldonado #3,75,Open,M,170,107.5,190,467.5,SBD,Single-ply,3
Chris Ranzy,75,Open,M,137.5,85,170,392.5,SBD,Single-ply,4
Blake Dedas,75,Teen 16-17,M,175,110,200,485,SBD,Single-ply,1
Alejandro Maldonado #3,75,Teen 18-19,M,170,107.5,190,467.5,SBD,Single-ply,1
Tad Metzger,75,Juniors,M,175,97.5,230,502.5,SBD,Single-ply,1
Nicholas DeLuise,75,Juniors,M,40,167.5,40,247.5,SBD,Single-ply,2
Manuel Rivera,75,Masters 40-49,M,210,155,215,580,SBD,Single-ply,1
Duane Young,75,Masters 40-49,M,205,112.5,215,532.5,SBD,Single-ply,2
Bernie O'Connell,75,Masters 40-49,M,192.5,145,185,522.5,SBD,Single-ply,3
Michael Tetrick,75,Masters 40-49,M,65,132.5,65,262.5,SBD,Single-ply,4
Dan Zager,75,Masters 50+,M,142.5,105,200,447.5,SBD,Single-ply,1
David Wiley,82.5,Open,M,280,152.5,242.5,675,SBD,Single-ply,1
Troy Crigger,82.5,Open,M,232.5,152.5,272.5,657.5,SBD,Single-ply,2
John Maccanelli,82.5,Open,M,222.5,150,227.5,600,SBD,Single-ply,3
John Figarelli,82.5,Open,M,142.5,102.5,150,395,SBD,Single-ply,4
Greg Zweig,82.5,Open,M,230,,,,SBD,Single-ply,DQ
Levi Jungbluth,82.5,Teen 14-15,M,182.5,112.5,222.5,517.5,SBD,Single-ply,1
Joseph Tronzo,82.5,Teen 14-15,M,167.5,107.5,182.5,457.5,SBD,Single-ply,2
Philip Whalen,82.5,Teen 14-15,M,125,72.5,160,357.5,SBD,Single-ply,3
Jeff Eberenz,82.5,Teen 16-17,M,187.5,115,197.5,500,SBD,Single-ply,1
Manuel Aponte,82.5,Teen 16-17,M,122.5,95,160,377.5,SBD,Single-ply,2
Louis Heimbrock,82.5,Teen 18-19,M,137.5,95,170,402.5,SBD,Single-ply,1
Dan Weingart,82.5,Juniors,M,197.5,140,217.5,555,SBD,Single-ply,1
David Wiley,82.5,Masters 40-49,M,280,152.5,242.5,675,SBD,Single-ply,1
Jim Morchlewitz,90,Open,M,267.5,185,250,702.5,SBD,Single-ply,1
Jim Prusha,90,Open,M,260,152.5,255,667.5,SBD,Single-ply,2
Tyrone Ward,90,Open,M,227.5,142.5,272.5,642.5,SBD,Single-ply,3
Brett Masouka,90,Open,M,192.5,140,215,547.5,SBD,Single-ply,4
Reggie Anglin,90,Open,M,205,125,215,545,SBD,Single-ply,5
Vincent Abrego,90,Teen 14-15,M,180,112.5,190,482.5,SBD,Single-ply,1
Ross Grady,90,Teen 18-19,M,267.5,145,267.5,680,SBD,Single-ply,1
Wayne Literal,90,Teen 18-19,M,220,150,227.5,597.5,SBD,Single-ply,2
Brett Ziebarth,90,Teen 18-19,M,197.5,132.5,215,545,SBD,Single-ply,3
Tyrone Ward,90,Masters 40-49,M,227.5,142.5,272.5,642.5,SBD,Single-ply,1
Jim Thompson,90,Masters 40-49,M,182.5,137.5,65,385,SBD,Single-ply,2
Jim Rouse,90,Masters 50+,M,217.5,157.5,240,615,SBD,Single-ply,1
Chad Crigger,100,Open,M,295,170,285,750,SBD,Single-ply,1
Miguel Salazar,100,Open,M,227.5,182.5,250,660,SBD,Single-ply,2
John Valpatic,100,Open,M,217.5,132.5,235,585,SBD,Single-ply,3
Alex Reid,100,Teen 14-15,M,160,102.5,180,442.5,SBD,Single-ply,1
Mark Tawfik,100,Teen 14-15,M,147.5,90,165,402.5,SBD,Single-ply,2
Joseph Mathy,100,Teen 16-17,M,230,155,207.5,592.5,SBD,Single-ply,1
Marcus Tabani,100,Teen 16-17,M,185,125,192.5,502.5,SBD,Single-ply,2
Lauren Cohen,100,Juniors,M,285,185,265,735,SBD,Single-ply,1
Jay Leinfelder,110,Open,M,312.5,197.5,295,805,SBD,Single-ply,1
Richard Auxer,110,Open,M,297.5,190,312.5,800,SBD,Single-ply,2
Pete Andrich,110,Open,M,287.5,185,287.5,760,SBD,Single-ply,3
Andy Nettis,110,Open,M,260,177.5,265,702.5,SBD,Single-ply,4
Ahmad Atef,110,Open,M,212.5,172.5,250,635,SBD,Single-ply,5
Emmanuel Buck,110,Teen 18-19,M,185,165,205,555,SBD,Single-ply,1
Scott Lade,125,Open,M,350,260,290,900,SBD,Single-ply,1
Abdul Weslowski,125,Open,M,320,177.5,320,817.5,SBD,Single-ply,2
Ernie Lilliebridge Sr,125,Open,M,272.5,187.5,282.5,742.5,SBD,Single-ply,3
Richard Haas,125,Open,M,265,195,227.5,687.5,SBD,Single-ply,4
Tommy Gleason,125,Teen 14-15,M,215,135,,,SBD,Single-ply,DQ
Ryan Benson,125,Juniors,M,250,152.5,250,652.5,SBD,Single-ply,1
Patrick Diggins,125,Masters 40-49,M,242.5,142.5,257.5,642.5,SBD,Single-ply,1
Rich Sadowski,125,Masters 50+,M,200,120,230,550,SBD,Single-ply,1
John Magee,125+,Open,M,250,210,200,660,SBD,Single-ply,1
Daniel Coyter,125+,Open,M,222.5,170,252.5,645,SBD,Single-ply,2
Nick Slusher,125+,Teen 18-19,M,227.5,107.5,200,535,SBD,Single-ply,1
Michael Norwood #1,125+,Juniors,M,222.5,170,267.5,660,SBD,Single-ply,1
Rob Keyes,125+,Masters 40-49,M,270,192.5,280,742.5,SBD,Single-ply,1
Kirth Vance,125+,Masters 40-49,M,227.5,142.5,272.5,642.5,SBD,Single-ply,2
John Magee,125+,Masters 50+,M,250,210,200,660,SBD,Single-ply,1
