Division,WeightClassKg,Place,Name,Team,BodyweightKg,Best3SquatKg,Best3BenchKg,Best3DeadliftKg,TotalKg,Equipment,Event,Sex
Boys,51.71,1,Patrick Herfurth,Orange Little Cypress-Mauriceville,51.44,136.08,68.04,176.9,381.02,Single-ply,SBD,M
Boys,55.79,1,Travis White,Orange Little Cypress-Mauriceville,55.66,136.08,65.77,145.15,347,Single-ply,SBD,M
Boys,59.87,1,Javier Garcia,Orange Little Cypress-Mauriceville,59.87,172.37,90.72,181.44,444.52,Single-ply,SBD,M
Boys,59.87,2,Michael Chen,Orange Little Cypress-Mauriceville,59.51,149.69,83.91,158.76,392.36,Single-ply,SBD,M
Boys,59.87,3,Reagan Ficken,Orangefield,58.97,154.22,86.18,142.88,383.29,Single-ply,SBD,M
Boys,67.13,1,Tremaine Anderson,West Orange-Stark,67.13,145.15,79.38,181.44,405.97,Single-ply,SBD,M
Boys,67.13,2,Kaleb Franklin,West Orange-Stark,67.13,149.69,88.45,151.95,390.09,Single-ply,SBD,M
Boys,67.13,3,Conner Jaynes,Orange Little Cypress-Mauriceville,63.41,138.35,79.38,151.95,369.68,Single-ply,SBD,M
Boys,67.13,4,Bryce Rambo,Orange Little Cypress-Mauriceville,64.86,129.27,70.31,163.29,362.87,Single-ply,SBD,M
Boys,67.13,5,Caleb Hussey,Orangefield,61.23,129.27,70.31,145.15,344.73,Single-ply,SBD,M
Boys,67.13,6,Rodrikson Cano,West Orange-Stark,67.13,115.67,70.31,142.88,328.85,Single-ply,SBD,M
Boys,67.13,7,Tate Hardy,Silsbee,63.5,145.15,65.77,115.67,326.59,Single-ply,SBD,M
Boys,74.84,1,Colin Janice,West Orange-Stark,74.84,179.17,115.67,201.85,496.68,Single-ply,SBD,M
Boys,74.84,2,Matthew Lackey,West Orange-Stark,74.84,156.49,104.33,204.12,464.93,Single-ply,SBD,M
Boys,74.84,3,Brad Bergeron,Orange Little Cypress-Mauriceville,73.3,185.97,90.72,170.1,446.79,Single-ply,SBD,M
Boys,74.84,4,Chris Smith,Orange Little Cypress-Mauriceville,73.48,154.22,97.52,154.22,405.97,Single-ply,SBD,M
Boys,74.84,5,Ryan Kirkendall,Silsbee,71.21,156.49,86.18,161.03,403.7,Single-ply,SBD,M
Boys,74.84,6,Julius Knolley,West Orange-Stark,74.84,138.35,79.38,183.7,401.43,Single-ply,SBD,M
Boys,74.84,7,Caleb Bickham,Orange Little Cypress-Mauriceville,72.3,142.88,97.52,158.76,399.16,Single-ply,SBD,M
Boys,82.1,1,Joe Lynch,West Orange-Stark,82.1,197.31,131.54,206.38,535.24,Single-ply,SBD,M
Boys,82.1,2,Kade Smith,Silsbee,79.83,174.63,120.2,210.92,505.76,Single-ply,SBD,M
Boys,82.1,3,Jhayllien Monette,West Orange-Stark,82.1,183.7,104.33,204.12,492.15,Single-ply,SBD,M
Boys,82.1,4,Troy Angelo,Orange Little Cypress-Mauriceville,78.93,183.7,106.59,199.58,489.88,Single-ply,SBD,M
Boys,82.1,5,Bryan Adams,Silsbee,81.65,170.1,113.4,188.24,471.74,Single-ply,SBD,M
Boys,82.1,6,Elvis Hubert,West Orange-Stark,82.1,142.88,88.45,170.1,401.43,Single-ply,SBD,M
Boys,82.1,7,Elijah Miller,Silsbee,79.38,136.08,88.45,151.95,376.48,Single-ply,SBD,M
Boys,82.1,8,Blake LeBlanc,Orange Little Cypress-Mauriceville,79.83,154.22,70.31,127.01,351.53,Single-ply,SBD,M
Boys,82.1,9,Beau Kibodeaux,Silsbee,76.2,117.93,68.04,117.93,303.91,Single-ply,SBD,M
Boys,89.81,1,Coleton Boudreaux,Orange Little Cypress-Mauriceville,86,235.87,138.35,215.46,589.67,Single-ply,SBD,M
Boys,89.81,2,Ian Putman,Orangefield,85.28,208.65,136.08,197.31,542.04,Single-ply,SBD,M
Boys,89.81,3,Austin Rutledge,West Orange-Stark,89.81,133.81,102.06,181.44,417.3,Single-ply,SBD,M
Boys,89.81,4,Dylan Brackens,West Orange-Stark,89.81,145.15,90.72,172.37,408.23,Single-ply,SBD,M
Boys,89.81,5,Andrew Daville,Orangefield,88,174.63,92.99,138.35,405.97,Single-ply,SBD,M
Boys,89.81,6,Trent Morgan,Silsbee,88,129.27,95.25,142.88,367.41,Single-ply,SBD,M
Boys,99.79,1,Lawrence Gilmore,West Orange-Stark,99.79,235.87,129.27,263.08,628.23,Single-ply,SBD,M
Boys,99.79,2,Mitchell Jennings,Orange Little Cypress-Mauriceville,95.25,226.8,165.56,210.92,603.28,Single-ply,SBD,M
Boys,99.79,3,Bryan Lopez,Orangefield,96.16,206.38,108.86,192.78,508.02,Single-ply,SBD,M
Boys,99.79,4,Tanner Humble,Silsbee,96.16,188.24,117.93,183.7,489.88,Single-ply,SBD,M
Boys,99.79,5,Daniel Woodson,West Orange-Stark,99.79,185.97,104.33,199.58,489.88,Single-ply,SBD,M
Boys,99.79,6,Taylor Hulsey,Orange Little Cypress-Mauriceville,95.07,181.44,111.13,195.04,487.61,Single-ply,SBD,M
Boys,99.79,7,Jerrod Watkins,Orangefield,97.52,183.7,111.13,172.37,467.2,Single-ply,SBD,M
Boys,99.79,8,Caleb Green,Orange Little Cypress-Mauriceville,98.25,127.01,117.93,183.7,428.64,Single-ply,SBD,M
Boys,99.79,9,Ross Gilchriest,Silsbee,94.8,161.03,122.47,142.88,426.38,Single-ply,SBD,M
Boys,99.79,10,LIgon David,Silsbee,94.8,136.08,83.91,170.1,390.09,Single-ply,SBD,M
Boys,99.79,11,Jose San Juan,Orangefield,95.71,147.42,88.45,154.22,390.09,Single-ply,SBD,M
Boys,99.79,12,Octavious Crosson,West Orange-Stark,99.79,131.54,92.99,136.08,360.61,Single-ply,SBD,M
Boys,109.77,1,Ian Jenkins,West Orange-Stark,109.77,217.72,165.56,244.94,628.23,Single-ply,SBD,M
Boys,109.77,2,David Hollyfield,Silsbee,104.78,229.06,151.95,229.06,610.08,Single-ply,SBD,M
Boys,109.77,3,Dylan Morgan,Silsbee,101.15,151.95,106.59,181.44,439.98,Single-ply,SBD,M
Boys,109.77,4,Stephen Sliter,Silsbee,107.95,147.42,97.52,165.56,410.5,Single-ply,SBD,M
Boys,109.77,5,Talon Weaver,Silsbee,105.69,124.74,106.59,129.27,360.61,Single-ply,SBD,M
Boys,124.74,1,Bret Treadway,Silsbee,112.94,258.55,170.1,254.01,682.66,Single-ply,SBD,M
Boys,124.74,2,Ryan Lebouef,Orangefield,120.66,201.85,106.59,208.65,517.1,Single-ply,SBD,M
Boys,124.74,3,Jerquis Beasley,West Orange-Stark,124.74,183.7,136.08,174.63,494.42,Single-ply,SBD,M
Boys,124.74,4,Stephen Gilbeaux,Orange Little Cypress-Mauriceville,116.75,170.1,145.15,174.63,489.88,Single-ply,SBD,M
Boys,124.74,5,Jonathan Judge,Orange Little Cypress-Mauriceville,115.94,172.37,120.2,176.9,469.47,Single-ply,SBD,M
Boys,124.74+,1,Ryan Allen #1,West Orange-Stark,127.01,290.3,185.97,312.98,789.25,Single-ply,SBD,M
Boys,124.74+,2,Doc Maricle,Silsbee,125.65,224.53,158.76,224.53,607.81,Single-ply,SBD,M
Boys,124.74+,3,Tyler Howlett,Orange Little Cypress-Mauriceville,132.63,192.78,120.2,204.12,517.1,Single-ply,SBD,M
