Division,WeightClassKg,Place,Name,Team,BodyweightKg,Best3SquatKg,Best3BenchKg,Best3DeadliftKg,TotalKg,Equipment,Event,Sex
Boys,51.71,1,Robert Barajas,Laredo Martin,51.35,170.1,81.65,188.24,439.98,Single-ply,SBD,M
Boys,51.71,2,Diego Pena,Roma,50.8,133.81,81.65,145.15,360.61,Single-ply,SBD,M
Boys,51.71,3,Martin Villareal,Laredo United South,51.53,124.74,68.04,154.22,347,Single-ply,SBD,M
Boys,51.71,4,Oscar Ramos,Laredo Alexander,47.63,113.4,68.04,145.15,326.59,Single-ply,SBD,M
Boys,51.71,5,Randy Castillo,Bruni,51.44,111.13,47.63,127.01,285.76,Single-ply,SBD,M
Boys,51.71,6,Jesse Maya,Laredo Cigarroa,48.35,83.91,38.56,102.06,224.53,Single-ply,SBD,M
Boys,55.79,1,Enrique Alvarez,Laredo Cigarroa,55.52,188.24,104.33,183.7,476.27,Single-ply,SBD,M
Boys,55.79,2,Enrique Gonzalez,Roma,55.16,133.81,95.25,179.17,408.23,Single-ply,SBD,M
Boys,55.79,3,Rafael Morales,Laredo Cigarroa,53.25,145.15,83.91,149.69,378.75,Single-ply,SBD,M
Boys,55.79,4,Angel Solano,Bruni,55.43,131.54,63.5,163.29,358.34,Single-ply,SBD,M
Boys,55.79,5,Jordy Silguero,Hebbronville,55.25,122.47,81.65,142.88,347,Single-ply,SBD,M
Boys,55.79,6,David Saenz,Hebbronville,55.16,120.2,72.57,138.35,331.12,Single-ply,SBD,M
Boys,55.79,7,Carlos Vedarte,Laredo United South,54.79,120.2,72.57,136.08,328.85,Single-ply,SBD,M
Boys,55.79,8,Mike Munoz,Bruni,55.52,102.06,58.97,129.27,290.3,Single-ply,SBD,M
Boys,67.13,1,Aj Dovalina,Laredo Alexander,60.1,179.17,97.52,190.51,467.2,Single-ply,SBD,M
Boys,59.87,2,Edgar Martinez,Laredo Cigarroa,59.78,183.7,90.72,188.24,462.66,Single-ply,SBD,M
Boys,59.87,3,Eduardo Porras,Roma,57.97,156.49,102.06,185.97,444.52,Single-ply,SBD,M
Boys,59.87,4,Marcos Ortiz,Laredo Alexander,59.69,147.42,102.06,174.63,424.11,Single-ply,SBD,M
Boys,59.87,5,Amado De La Fuente,Laredo United South,58.69,145.15,95.25,176.9,417.3,Single-ply,SBD,M
Boys,59.87,6,Leo Ibarra,Laredo Johnson,57.52,136.08,102.06,149.69,387.82,Single-ply,SBD,M
Boys,67.13,7,Jairo A Morales,Laredo Cigarroa,59.96,68.04,47.63,140.61,256.28,Single-ply,SBD,M
Boys,59.87,8,John Bojanski,Laredo Alexander,58.15,158.76,,,158.76,Single-ply,S,M
Boys,59.87,DQ,Jaime Vasquez,Bruni,59.87,,,,,Single-ply,S,M
Boys,59.87,DQ,Juan Ramos,Hebbronville,59.87,,,,,Single-ply,S,M
Boys,67.13,1,Ruben Salinas,Roma,65.59,192.78,117.93,188.24,498.95,Single-ply,SBD,M
Boys,67.13,2,Rene Molina,Hebbronville,66.95,192.78,102.06,181.44,476.27,Single-ply,SBD,M
Boys,67.13,3,Abram Ramirez,Hebbronville,65.86,181.44,102.06,179.17,462.66,Single-ply,SBD,M
Boys,67.13,4,Pedro Vargas,Roma,65.14,174.63,104.33,176.9,455.86,Single-ply,SBD,M
Boys,74.84,5,Felipe Gonzalez,Roma,67.31,165.56,99.79,188.24,453.59,Single-ply,SBD,M
Boys,67.13,6,Eliezer Gomez,Laredo United South,67.09,158.76,108.86,167.83,435.45,Single-ply,SBD,M
Boys,67.13,7,Frank Rubacava,Laredo Cigarroa,64.32,158.76,104.33,165.56,428.64,Single-ply,SBD,M
Boys,67.13,8,David Trinidad,Laredo United South,65.32,165.56,97.52,165.56,428.64,Single-ply,SBD,M
Boys,67.13,9,Jesus Sandoval,Laredo Martin,63.41,158.76,95.25,149.69,403.7,Single-ply,SBD,M
Boys,67.13,10,Alex Villareal,Laredo Nixon,65.05,133.81,83.91,145.15,362.87,Single-ply,SBD,M
Boys,67.13,11,Yoni Portillo,Laredo Nixon,61.14,133.81,72.57,138.35,344.73,Single-ply,SBD,M
Boys,67.13,12,Chris Chan,Laredo United,63.05,136.08,72.57,122.47,331.12,Single-ply,SBD,M
Boys,67.13,13,Jose G Hernandez,Laredo Cigarroa,63.96,124.74,61.23,133.81,319.78,Single-ply,SBD,M
Boys,67.13,14,Martin Benavides,Bruni,61.87,90.72,52.16,120.2,263.08,Single-ply,SBD,M
Boys,67.13,DQ,Aaron Hunter,Bruni,67.13,,,,,Single-ply,SBD,M
Boys,67.13,DQ,Alfonso Flores,Laredo Martin,65.68,,,,,Single-ply,SBD,M
Boys,82.1,1,Cesar Castillo,Laredo United South,74.98,210.92,138.35,210.92,560.19,Single-ply,SBD,M
Boys,74.84,2,Daniel Wells,Laredo Nixon,74.39,190.51,108.86,190.51,489.88,Single-ply,SBD,M
Boys,74.84,3,Eduardo Salinas,Laredo Cigarroa,74.03,183.7,111.13,190.51,485.34,Single-ply,SBD,M
Boys,82.1,4,Santiago Ochoa,Laredo United South,74.93,197.31,83.91,188.24,469.47,Single-ply,SBD,M
Boys,74.84,5,Carlos Ramirez,Laredo Alexander,70.76,158.76,115.67,183.7,458.13,Single-ply,SBD,M
Boys,74.84,6,Mark Morales,Bruni,74.57,185.97,90.72,172.37,449.06,Single-ply,SBD,M
Boys,74.84,7,Jesse Cruz,Roma,72.85,158.76,106.59,174.63,439.98,Single-ply,SBD,M
Boys,74.84,8,Cruz Garcia,Roma,73.21,176.9,102.06,154.22,433.18,Single-ply,SBD,M
Boys,74.84,9,Angel Espinoza,Laredo Cigarroa,68.67,163.29,83.91,161.03,408.23,Single-ply,SBD,M
Boys,74.84,10,John Trevino,Hebbronville,71.03,136.08,77.11,165.56,378.75,Single-ply,SBD,M
Boys,74.84,11,Aaron Cisneros,Laredo Nixon,73.39,142.88,79.38,142.88,365.14,Single-ply,SBD,M
Boys,74.84,12,Jesus Cantu,Laredo Johnson,74.03,108.86,77.11,124.74,310.71,Single-ply,SBD,M
Boys,74.84,13,Jose Cerda,Laredo Cigarroa,71.85,90.72,83.91,111.13,285.76,Single-ply,SBD,M
Boys,74.84,DQ,Angel Cabrerra,Laredo Martin,74.84,,,,,Single-ply,SBD,M
Boys,74.84,DQ,Oscar Cabello,Laredo Alexander,74.84,,,,,Single-ply,SBD,M
Boys,82.1,1,Jerry Ayala,Laredo Johnson,81.19,185.97,111.13,201.85,498.95,Single-ply,SBD,M
Boys,82.1,2,Jose de la Rosa,Roma,80.01,190.51,106.59,199.58,496.68,Single-ply,SBD,M
Boys,82.1,3,Alfredo Ibarra,Laredo United,79.47,204.12,90.72,185.97,480.81,Single-ply,SBD,M
Boys,82.1,4,Frank Rios,Roma,80.29,158.76,115.67,183.7,458.13,Single-ply,SBD,M
Boys,89.81,5,Jorge González,Laredo United South,82.19,156.49,95.25,188.24,439.98,Single-ply,SBD,M
Boys,82.1,6,Joe Castillo,Laredo Johnson,78.56,154.22,88.45,176.9,419.57,Single-ply,SBD,M
Boys,82.1,7,Alfredo Mancillas,Laredo United,79.92,136.08,111.13,151.95,399.16,Single-ply,SBD,M
Boys,82.1,8,Eliseo Arredondo,Laredo Cigarroa,76.66,88.45,61.23,136.08,285.76,Single-ply,SBD,M
Boys,99.79,1,Noe Ortega,Laredo United South,89.86,258.55,122.47,217.72,598.74,Single-ply,SBD,M
Boys,89.81,2,Daryl Garcia,Bruni,83.01,181.44,111.13,204.12,496.68,Single-ply,SBD,M
Boys,89.81,3,Lauro Banda,Laredo Nixon,84.28,185.97,117.93,188.24,492.15,Single-ply,SBD,M
Boys,89.81,4,Pete Tejada,Bruni,85.73,183.7,111.13,185.97,480.81,Single-ply,SBD,M
Boys,89.81,5,Ej Canales,Hebbronville,89.54,172.37,99.79,201.85,474,Single-ply,SBD,M
Boys,89.81,6,Cliff Salinas,Roma,88.27,176.9,104.33,190.51,471.74,Single-ply,SBD,M
Boys,89.81,7,Joseph Garcia,Laredo Nixon,87.91,158.76,104.33,204.12,467.2,Single-ply,SBD,M
Boys,89.81,8,Matt Rodriguez,Laredo United,85.91,181.44,102.06,170.1,453.59,Single-ply,SBD,M
Boys,89.81,9,Esteban Arredondo,Hebbronville,88.36,158.76,95.25,192.78,446.79,Single-ply,SBD,M
Boys,89.81,10,Ely Guzman,Roma,88,158.76,102.06,181.44,442.25,Single-ply,SBD,M
Boys,89.81,11,Arman Khaledi,Laredo Alexander,86.45,147.42,90.72,170.1,408.23,Single-ply,SBD,M
Boys,89.81,12,Leo Lira,Bruni,87.54,124.74,86.18,154.22,365.14,Single-ply,SBD,M
Boys,89.81,DQ,Eric Taboada,Laredo Cigarroa,89.36,,,,,Single-ply,SBD,M
Boys,89.81,DQ,Danny Sanchez,Laredo United South,84.37,,,,,Single-ply,SBD,M
Boys,109.77,1,Jerry Nino,Laredo Martin,99.88,233.6,156.49,226.8,616.89,Single-ply,SBD,M
Boys,99.79,2,Ricky Lopez,Laredo United South,93.08,222.26,131.54,229.06,582.87,Single-ply,SBD,M
Boys,99.79,3,George Gonzalez,Laredo United South,94.26,224.53,108.86,226.8,560.19,Single-ply,SBD,M
Boys,99.79,4,Ivan Pina,Roma,97.16,224.53,129.27,206.38,560.19,Single-ply,SBD,M
Boys,99.79,5,Erick Aguirre,Roma,95.71,210.92,133.81,199.58,544.31,Single-ply,SBD,M
Boys,99.79,6,Carlos Muñoz,Laredo Nixon,94.71,179.17,92.99,199.58,471.74,Single-ply,SBD,M
Boys,99.79,7,Jose Coreas,Laredo Cigarroa,95.35,185.97,92.99,188.24,467.2,Single-ply,SBD,M
Boys,99.79,8,Kevin Lujan,Laredo United,92.9,181.44,102.06,172.37,455.86,Single-ply,SBD,M
Boys,99.79,9,Victor Godinez,Laredo Alexander,91.9,151.95,104.33,188.24,444.52,Single-ply,SBD,M
Boys,99.79,10,Eddie Alvarez,Laredo Martin,98.61,170.1,83.91,161.03,415.04,Single-ply,SBD,M
Boys,99.79,11,Ricardo Sanchez,Laredo Johnson,92.8,156.49,97.52,149.69,403.7,Single-ply,SBD,M
Boys,99.79,DQ,Kevin Castro,Laredo Nixon,94.17,,,,,Single-ply,SBD,M
Boys,99.79,DQ,Alonzo Villareal,Laredo Alexander,97.43,,,,,Single-ply,SBD,M
Boys,99.79,DQ,Roger Camero,Laredo United South,99.79,,,,,Single-ply,SBD,M
Boys,109.77,1,Freddy Chavarria,Laredo Martin,105.41,272.16,161.03,217.72,650.91,Single-ply,SBD,M
Boys,124.74,2,Rafael Vasquez,Laredo United South,109.95,249.48,136.08,226.8,612.35,Single-ply,SBD,M
Boys,109.77,3,Juan Saenz,Roma,107.86,238.14,115.67,201.85,555.65,Single-ply,SBD,M
Boys,109.77,4,Jorge Martinez,Laredo United South,101.15,206.38,120.2,219.99,546.58,Single-ply,SBD,M
Boys,109.77,5,Victor Martinez,Laredo Martin,109.5,222.26,122.47,197.31,542.04,Single-ply,SBD,M
Boys,109.77,6,Michael Dominguez,Hebbronville,107.32,204.12,115.67,215.46,535.24,Single-ply,SBD,M
Boys,109.77,7,Benji Mota,Laredo Alexander,108.95,174.63,106.59,215.46,496.68,Single-ply,SBD,M
Boys,109.77,8,Jaime Cardona,Laredo Nixon,109.32,210.92,92.99,190.51,494.42,Single-ply,SBD,M
Boys,109.77,9,Sergio Barron,Roma,108.32,201.85,117.93,167.83,487.61,Single-ply,SBD,M
Boys,109.77,10,Antonio Saavedra,Laredo Johnson,103.87,149.69,97.52,151.95,399.16,Single-ply,SBD,M
Boys,109.77,DQ,Efrain Valle,Laredo Johnson,100.61,170.1,,,,Single-ply,SBD,M
Boys,124.74,1,Kevin Vela,Bruni,110.95,240.4,133.81,222.26,596.47,Single-ply,SBD,M
Boys,124.74,2,Alex Cruz,Laredo Nixon,119.2,249.48,102.06,208.65,560.19,Single-ply,SBD,M
Boys,124.74,3,Eric Morales,Roma,120.2,183.7,111.13,215.46,510.29,Single-ply,SBD,M
Boys,124.74+,4,Arturo Velasquez,Roma,124.96,192.78,113.4,174.63,480.81,Single-ply,SBD,M
Boys,124.74,5,Martin Lara,Laredo Alexander,112.31,174.63,117.93,183.7,476.27,Single-ply,SBD,M
Boys,124.74,6,Rolly Garza,Hebbronville,120.2,185.97,97.52,192.78,476.27,Single-ply,SBD,M
Boys,124.74,DQ,Tony Garcia,Hebbronville,124.74,,,,,Single-ply,SBD,M
Boys,124.74+,1,Carlos Gomez,Laredo Martin,129.36,226.8,149.69,231.33,607.81,Single-ply,SBD,M
Boys,124.74+,2,Rudy Martinez,Laredo Nixon,125.19,229.06,117.93,213.19,560.19,Single-ply,SBD,M
Boys,124.74+,3,Edward Garza,Laredo Johnson,145.6,204.12,129.27,188.24,521.63,Single-ply,SBD,M
Boys,124.74+,4,Benito Vega,Laredo United South,129.82,208.65,83.91,208.65,501.22,Single-ply,SBD,M
Boys,124.74+,5,JR Sandoval,Laredo United,130,208.65,86.18,192.78,487.61,Single-ply,SBD,M
Boys,124.74+,6,Gerardo Cadena,Laredo Cigarroa,164.2,151.95,86.18,158.76,396.89,Single-ply,SBD,M
Boys,124.74+,7,Samuel Alarcon,Laredo Johnson,172.27,151.95,81.65,136.08,369.68,Single-ply,SBD,M
