Division,WeightClassKg,Place,Name,Team,BodyweightKg,Best3SquatKg,Best3BenchKg,Best3DeadliftKg,TotalKg,Equipment,Event,Sex
Boys,51.71,1,Ivan Navarro,Corsicana Mildred,51.53,115.67,56.7,136.08,308.44,Single-ply,SBD,M
Boys,51.71,2,Jaquay Brown,Milford,50.44,113.4,65.77,108.86,288.03,Single-ply,SBD,M
Boys,51.71,3,Austin Carter,Rio Vista,50.35,108.86,61.23,115.67,285.76,Single-ply,SBD,M
Boys,55.79,1,Ezra Zepeda,Red Oak Life,55.7,129.27,70.31,158.76,358.34,Single-ply,SBD,M
Boys,59.87,2,Roberto Oropeza,Rice,55.88,133.81,72.57,136.08,342.46,Single-ply,SBD,M
Boys,55.79,3,Austin Peppers,Rice,52.8,113.4,61.23,124.74,299.37,Single-ply,SBD,M
Boys,67.13,1,Codie Pair,Rice,60.06,142.88,106.59,158.76,408.23,Single-ply,SBD,M
Boys,59.87,2,Max Snodgrass,Blooming Grove,59.69,138.35,86.18,167.83,392.36,Single-ply,SBD,M
Boys,59.87,3,Colton Edmons,Teague,56.52,133.81,77.11,136.08,347,Single-ply,SBD,M
Boys,67.13,4,Adan Payne,Rice,60.06,115.67,61.23,120.2,297.1,Single-ply,SBD,M
Boys,59.87,5,Skylar Johnson,Rio Vista,59.78,97.52,65.77,90.72,254.01,Single-ply,SBD,M
Boys,59.87,DQ,Xavier Scott,Red Oak Life,58.97,,,,,Single-ply,SBD,M
Boys,67.13,1,David Calixtro,Teague,65.14,213.19,102.06,213.19,528.44,Single-ply,SBD,M
Boys,67.13,2,Colton Monroe,Blooming Grove,62.6,133.81,79.38,188.24,401.43,Single-ply,SBD,M
Boys,67.13,3,Tristin LaChapple,Rice,62.96,163.29,95.25,136.08,394.63,Single-ply,SBD,M
Boys,67.13,4,Ben Nicholson,Blooming Grove,64.32,161.03,79.38,151.95,392.36,Single-ply,SBD,M
Boys,67.13,5,Osvaldo Solis,Rice,65.05,158.76,79.38,154.22,392.36,Single-ply,SBD,M
Boys,67.13,6,Eric Navarro,Corsicana Mildred,66.22,136.08,70.31,154.22,360.61,Single-ply,SBD,M
Boys,67.13,7,Hauden Zarate,Centerville,66.04,113.4,83.91,149.69,347,Single-ply,SBD,M
Boys,67.13,8,Trevor Morgan,Red Oak Life,66.59,122.47,81.65,138.35,342.46,Single-ply,SBD,M
Boys,67.13,9,Logan Sprabary,Milford,65.32,131.54,79.38,129.27,340.19,Single-ply,SBD,M
Boys,67.13,10,Brady Barnett,Rio Vista,65.77,113.4,61.23,136.08,310.71,Single-ply,SBD,M
Boys,67.13,DQ,Tristian Nichols,Blooming Grove,63.05,108.86,,113.4,,Single-ply,SBD,M
Boys,74.84,1,Dalton Wassinger,Blooming Grove,72.48,172.37,99.79,158.76,430.91,Single-ply,SBD,M
Boys,74.84,2,Shane Sibley,Red Oak Life,71.58,158.76,83.91,185.97,428.64,Single-ply,SBD,M
Boys,74.84,3,Trent Holt,Centerville,68.31,138.35,102.06,149.69,390.09,Single-ply,SBD,M
Boys,74.84,4,Mason Alcaraz,Red Oak Life,73.84,145.15,79.38,163.29,387.82,Single-ply,SBD,M
Boys,74.84,5,Jason Smith,Teague,71.12,147.42,70.31,161.03,378.75,Single-ply,SBD,M
Boys,82.1,6,José Pérez,Teague,74.93,140.61,61.23,145.15,347,Single-ply,SBD,M
Boys,74.84,7,Adrian Cooper,Red Oak Life,67.49,122.47,77.11,140.61,340.19,Single-ply,SBD,M
Boys,74.84,DQ,Cort Harris,Centerville,69.31,113.4,,,,Single-ply,SBD,M
Boys,82.1,1,Gaige Thomas,Red Oak Life,78.93,215.46,120.2,215.46,551.11,Single-ply,SBD,M
Boys,82.1,2,Jeremy Ballard,Corsicana Mildred,77.66,204.12,97.52,199.58,501.22,Single-ply,SBD,M
Boys,82.1,3,Chris Atchley,Rice,77.66,190.51,99.79,190.51,480.81,Single-ply,SBD,M
Boys,82.1,4,Blake Reeves,Centerville,76.48,163.29,102.06,163.29,428.64,Single-ply,SBD,M
Boys,82.1,5,Chase Hamilton,Italy,76.84,163.29,102.06,158.76,424.11,Single-ply,SBD,M
Boys,82.1,6,Luis Alveraz,Rice,77.84,163.29,90.72,163.29,417.3,Single-ply,SBD,M
Boys,82.1,7,Mazen Subuh,Red Oak Life,79.47,133.81,79.38,136.08,349.27,Single-ply,SBD,M
Boys,82.1,8,Kyle Fortenberry,Italy,76.02,127.01,70.31,115.67,312.98,Single-ply,SBD,M
Boys,82.1,9,Marcques Roundtree,Blooming Grove,79.65,111.13,65.77,120.2,297.1,Single-ply,SBD,M
Boys,82.1,10,Kyle Harris,Centerville,77.2,102.06,68.04,124.74,294.84,Single-ply,SBD,M
Boys,82.1,11,Tyler Crawley,Italy,79.47,65.77,45.36,102.06,213.19,Single-ply,SBD,M
Boys,89.81,1,Ben Torres,Rice,88.72,226.8,133.81,195.04,555.65,Single-ply,SBD,M
Boys,89.81,2,Jody Bernal,Rice,87,199.58,140.61,208.65,548.85,Single-ply,SBD,M
Boys,89.81,3,Thomas Tilford,Scurry-Rosser,83.91,217.72,122.47,204.12,544.31,Single-ply,SBD,M
Boys,89.81,4,John Day,Scurry-Rosser,83.46,181.44,95.25,170.1,446.79,Single-ply,SBD,M
Boys,89.81,5,James Roach,Centerville,88.63,151.95,106.59,174.63,433.18,Single-ply,SBD,M
Boys,89.81,6,Jordan McQuistion,Rio Vista,86.36,149.69,86.18,163.29,399.16,Single-ply,SBD,M
Boys,89.81,DQ,Taner Tunstall,Teague,84.91,,,,,Single-ply,SBD,M
Boys,99.79,1,Ragan Henderson,Rice,99.25,251.74,149.69,278.96,680.39,Single-ply,SBD,M
Boys,99.79,2,Josh Freeman,Hubbard,93.44,238.14,127.01,204.12,569.26,Single-ply,SBD,M
Boys,99.79,3,Brandon Morris,Scurry-Rosser,97.7,217.72,113.4,213.19,544.31,Single-ply,SBD,M
Boys,99.79,4,Averil Royal,Red Oak Life,94.08,222.26,113.4,201.85,537.51,Single-ply,SBD,M
Boys,99.79,5,Ty Tunstall,Teague,94.08,204.12,113.4,208.65,526.17,Single-ply,SBD,M
Boys,99.79,6,Justin Smith,Rice,93.26,199.58,104.33,201.85,505.76,Single-ply,SBD,M
Boys,99.79,7,Quintin Weaver,Corsicana Mildred,93.98,163.29,117.93,195.04,476.27,Single-ply,SBD,M
Boys,109.77,8,Kurtis Parker,Centerville,99.97,172.37,104.33,172.37,449.06,Single-ply,SBD,M
Boys,99.79,9,Derrick McElreath,Rio Vista,95.07,158.76,99.79,158.76,417.3,Single-ply,SBD,M
Boys,99.79,10,Marc McCloud,Centerville,99.16,117.93,90.72,140.61,349.27,Single-ply,SBD,M
Boys,109.77,1,Danny Hanna,Corsicana Mildred,106.68,197.31,138.35,201.85,537.51,Single-ply,SBD,M
Boys,109.77,2,Billy Stephens,Rice,106.32,158.76,102.06,145.15,405.97,Single-ply,SBD,M
Boys,109.77,DQ,Tracey Hightower,Red Oak Life,105.14,204.12,102.06,,,Single-ply,SBD,M
Boys,124.74,1,Jose Diaz,Teague,110.68,226.8,120.2,219.99,566.99,Single-ply,SBD,M
Boys,124.74,2,Garrett Lane,Blooming Grove,124.38,172.37,138.35,170.1,480.81,Single-ply,SBD,M
Boys,124.74,3,Kelton Bales,Italy,116.21,188.24,86.18,179.17,453.59,Single-ply,SBD,M
Boys,124.74,4,Bryce Neilsen,Red Oak Life,112.04,127.01,77.11,131.54,335.66,Single-ply,SBD,M
Boys,124.74+,1,Alan Singleton,Milford,189.51,251.74,156.49,226.8,635.03,Single-ply,SBD,M
Boys,124.74+,2,Tyler Heard,Scurry-Rosser,145.38,249.48,154.22,197.31,601.01,Single-ply,SBD,M
Boys,124.74+,DQ,Beau Jenkins,Corsicana Mildred,125.92,219.99,183.7,,,Single-ply,SBD,M
