Division,WeightClassKg,Place,Name,Team,BodyweightKg,Best3SquatKg,Best3BenchKg,Best3DeadliftKg,TotalKg,Equipment,Event,Sex
Boys,51.71,1,Mario Hernandez,Friona,50.17,117.93,54.43,115.67,288.03,Single-ply,SBD,M
Boys,51.71,2,Keyvan Constantino,Whiteface,49.62,86.18,65.77,120.2,272.16,Single-ply,SBD,M
Boys,51.71,3,Derek Hatchett,Lamesa Klondike,42,68.04,38.56,86.18,192.78,Single-ply,SBD,M
Boys,51.71,DQ,Logan McIntire,Dimmitt,51.71,,,,,Single-ply,SBD,M
Boys,55.79,1,Bryan Tran,Amarillo Highland Park,55.07,145.15,74.84,151.95,371.95,Single-ply,SBD,M
Boys,55.79,2,Dakota Anaya,Perryton,55.34,124.74,63.5,149.69,337.93,Single-ply,SBD,M
Boys,55.79,3,Ezekiel Cuellar,Perryton,54.98,127.01,63.5,142.88,333.39,Single-ply,SBD,M
Boys,55.79,4,Brody Henery,Whiteface,55.43,113.4,72.57,108.86,294.84,Single-ply,SBD,M
Boys,55.79,5,Zach Walser,Canyon Randall,54.79,108.86,63.5,106.59,278.96,Single-ply,SBD,M
Boys,55.79,6,Jamie Mendoza,Whiteface,55.34,108.86,54.43,113.4,276.69,Single-ply,SBD,M
Boys,55.79,DQ,Estevan Gonzales,Dimmitt,55.79,,,,,Single-ply,SBD,M
Boys,67.13,1,Luis Trejo,Friona,59.96,174.63,104.33,170.1,449.06,Single-ply,SBD,M
Boys,59.87,2,Nathan Longoria,Springlake Earth,59.87,142.88,90.72,147.42,381.02,Single-ply,SBD,M
Boys,59.87,3,Alex Lugo,Perryton,59.78,136.08,83.91,158.76,378.75,Single-ply,SBD,M
Boys,59.87,4,Mark Marquez,Dimmitt,58.69,140.61,90.72,145.15,376.48,Single-ply,SBD,M
Boys,59.87,5,Miguel Vasquez,Farwell,58.88,140.61,88.45,142.88,371.95,Single-ply,SBD,M
Boys,67.13,6,Alex Licerio,Friona,60.1,117.93,68.04,124.74,310.71,Single-ply,SBD,M
Boys,59.87,7,Ceasar Luther,Perryton,58.51,111.13,70.31,124.74,306.17,Single-ply,SBD,M
Boys,67.13,8,Rocky Barrios,Friona,60.1,117.93,74.84,113.4,306.17,Single-ply,SBD,M
Boys,59.87,9,Rafael Castillo,Whiteface,58.24,106.59,56.7,115.67,278.96,Single-ply,SBD,M
Boys,59.87,DQ,Peter Arguijo,Dimmitt,59.87,,,,,Single-ply,SBD,M
Boys,59.87,DQ,Esai Gonzales,Dimmitt,59.87,,,,,Single-ply,SBD,M
Boys,59.87,DQ,Diego Rodriguez,Dimmitt,59.87,,,,,Single-ply,SBD,M
Boys,59.87,DQ,Terrin Campbell,Amarillo Highland Park,59.33,,,,,Single-ply,SBD,M
Boys,67.13,1,Peyton Ledbetter,Farwell,66.13,167.83,106.59,188.24,462.66,Single-ply,SBD,M
Boys,74.84,2,Juan Macias-Martinez,Friona,67.22,156.49,99.79,176.9,433.18,Single-ply,SBD,M
Boys,67.13,3,Kaiden Summerville,Perryton,63.41,165.56,92.99,158.76,417.3,Single-ply,SBD,M
Boys,67.13,4,Marcus Molina,Lamesa Klondike,65.14,142.88,83.91,156.49,383.29,Single-ply,SBD,M
Boys,67.13,5,Brad Scott,Canyon Randall,65.41,136.08,86.18,156.49,378.75,Single-ply,SBD,M
Boys,67.13,6,Jeremiah Salinas,Lamesa Klondike,62.96,136.08,74.84,151.95,362.87,Single-ply,SBD,M
Boys,67.13,7,Jorge Martinez,Dimmitt,65.41,129.27,72.57,158.76,360.61,Single-ply,SBD,M
Boys,67.13,8,Abraham Navarro,Dimmitt,65.14,90.72,56.7,79.38,226.8,Single-ply,SBD,M
Boys,67.13,DQ,Alex Pena,Dimmitt,67.13,,,,,Single-ply,SBD,M
Boys,74.84,1,Tate Richards,Springlake Earth,74.66,213.19,158.76,222.26,594.21,Single-ply,SBD,M
Boys,74.84,2,Marcus Ruff,Whiteface,74.84,219.99,131.54,226.8,578.33,Single-ply,SBD,M
Boys,74.84,3,Fabian Honesto,Whiteface,74.03,204.12,102.06,199.58,505.76,Single-ply,SBD,M
Boys,74.84,4,Michael Key,Lamesa Klondike,74.39,183.7,99.79,206.38,489.88,Single-ply,SBD,M
Boys,74.84,5,Aldo Ramirez,Perryton,73.94,195.04,99.79,181.44,476.27,Single-ply,SBD,M
Boys,74.84,6,Julio Sanchez,Perryton,73.48,158.76,104.33,163.29,426.38,Single-ply,SBD,M
Boys,74.84,7,Alvaro Gardea,Friona,73.3,158.76,83.91,167.83,410.5,Single-ply,SBD,M
Boys,74.84,8,Lupe Gonzales,Dimmitt,73.57,117.93,88.45,142.88,349.27,Single-ply,SBD,M
Boys,74.84,DQ,Michael DeLeon,Springlake Earth,74.84,,,,,Single-ply,SBD,M
Boys,74.84,DQ,Julio Maldonado,Springlake Earth,74.84,,,,,Single-ply,SBD,M
Boys,82.1,1,Blaine McGregor,Amarillo Highland Park,81.19,190.51,124.74,197.31,512.56,Single-ply,SBD,M
Boys,82.1,2,Cutter Paris,Canyon Randall,80.56,188.24,108.86,183.7,480.81,Single-ply,SBD,M
Boys,82.1,3,Joel Cigarroa,Friona,79.92,204.12,108.86,165.56,478.54,Single-ply,SBD,M
Boys,82.1,4,Colton Hubbard,Canyon Randall,81.19,172.37,99.79,176.9,449.06,Single-ply,SBD,M
Boys,82.1,5,Omar Soto,Farwell,80.47,151.95,92.99,185.97,430.91,Single-ply,SBD,M
Boys,82.1,6,Miguel Olivas,Perryton,75.93,147.42,88.45,176.9,412.77,Single-ply,SBD,M
Boys,82.1,DQ,Rene Rodriguez,Friona,79.11,215.46,124.74,,,Single-ply,SBD,M
Boys,82.1,DQ,Evan Gomez,Whiteface,82.01,147.42,124.74,,,Single-ply,SBD,M
Boys,89.81,1,Courtney Gravely,Amarillo Highland Park,88.45,204.12,145.15,226.8,576.06,Single-ply,SBD,M
Boys,89.81,2,Juan Samarron,Friona,86.73,204.12,120.2,204.12,528.44,Single-ply,SBD,M
Boys,89.81,3,Leo Montana,Whiteface,89.58,172.37,104.33,185.97,462.66,Single-ply,SBD,M
Boys,89.81,4,Luis Rodriguez,Friona,88.63,190.51,79.38,145.15,415.04,Single-ply,SBD,M
Boys,89.81,5,Guillermo Quintana,Friona,87.91,151.95,86.18,156.49,394.63,Single-ply,SBD,M
Boys,89.81,6,Tano Castillo,Whiteface,89.54,154.22,81.65,149.69,385.55,Single-ply,SBD,M
Boys,89.81,7,Pj Bordayo,Whiteface,83.91,142.88,88.45,147.42,378.75,Single-ply,SBD,M
Boys,89.81,8,Cade Barkowsky,Lamesa Klondike,88.81,138.35,79.38,145.15,362.87,Single-ply,SBD,M
Boys,89.81,9,Obed Lopez,Perryton,83.46,102.06,79.38,147.42,328.85,Single-ply,SBD,M
Boys,99.79,1,Tristan Hernandez,Dimmitt,99.34,208.65,124.74,213.19,546.58,Single-ply,SBD,M
Boys,99.79,2,Mikey Hernandez,Canyon Randall,90.9,199.58,129.27,197.31,526.17,Single-ply,SBD,M
Boys,99.79,3,Andrew Vasquez,Perryton,98.61,226.8,113.4,183.7,523.9,Single-ply,SBD,M
Boys,99.79,4,Eric Vela,Dimmitt,99.43,188.24,136.08,188.24,512.56,Single-ply,SBD,M
Boys,99.79,5,Issac Summerlin,Friona,90.08,158.76,72.57,142.88,374.21,Single-ply,SBD,M
Boys,109.77,1,Zach Hoffman,Canyon Randall,107.86,226.8,167.83,215.46,610.08,Single-ply,SBD,M
Boys,109.77,2,Gavin Flores,Dimmitt,105.87,233.6,133.81,224.53,591.94,Single-ply,SBD,M
Boys,109.77,3,Scott Martin,Dimmitt,107.95,226.8,120.2,240.4,587.4,Single-ply,SBD,M
Boys,109.77,4,Lj Rodriguez,Dimmitt,102.87,224.53,122.47,231.33,578.33,Single-ply,SBD,M
Boys,109.77,5,Gustavo Navarrete,Perryton,107.05,208.65,117.93,215.46,542.04,Single-ply,SBD,M
Boys,109.77,6,Miguel Davila,Friona,103.51,158.76,90.72,124.74,374.21,Single-ply,SBD,M
Boys,124.74,1,Marcus Sandoval,Springlake Earth,122.92,258.55,181.44,204.12,644.1,Single-ply,SBD,M
Boys,124.74,2,Keith Kalbas,Farwell,120.93,208.65,133.81,222.26,564.72,Single-ply,SBD,M
Boys,124.74+,1,Edgar Guerrero,Friona,138.25,328.85,185.97,294.84,809.66,Single-ply,SBD,M
Boys,124.74+,2,Santos Jackson,Dimmitt,145.6,258.55,120.2,231.33,610.08,Single-ply,SBD,M
Boys,124.74+,3,Justin Perez,Farwell,126.01,181.44,124.74,185.97,492.15,Single-ply,SBD,M
Boys,124.74+,4,Price Cooper,Lamesa Klondike,125.65,188.24,106.59,183.7,478.54,Single-ply,SBD,M
