Division,WeightClassKg,Place,Name,Team,BodyweightKg,Best3SquatKg,Best3BenchKg,Best3DeadliftKg,TotalKg,Equipment,Event,Sex
Boys,51.71,1,Trent Garza,Deweyville,50.8,83.91,47.63,102.06,233.6,Single-ply,SBD,M
Boys,51.71,DQ,Matthew Cruz,Hull-Daisetta,51.71,,,,,Single-ply,SBD,M
Boys,55.79,1,Colten Smith,Kountze,55.79,133.81,65.77,158.76,358.34,Single-ply,SBD,M
Boys,55.79,2,Gavin Robles,Kountze,54.88,108.86,70.31,122.47,301.64,Single-ply,SBD,M
Boys,55.79,3,Darin Lavergne,Deweyville,54.88,102.06,56.7,97.52,256.28,Single-ply,SBD,M
Boys,55.79,4,Jonathan White,High Island,52.62,77.11,47.63,106.59,231.33,Single-ply,SBD,M
Boys,59.87,1,Hunter Smart,Kountze,56.7,136.08,81.65,158.76,376.48,Single-ply,SBD,M
Boys,59.87,2,Luke Martin,High Island,56.25,131.54,92.99,124.74,349.27,Single-ply,SBD,M
Boys,59.87,3,Sam Collier,Saratoga West Hardin,59.87,115.67,68.04,158.76,342.46,Single-ply,SBD,M
Boys,59.87,4,Dakota Buxton,Deweyville,58.06,115.67,83.91,138.35,337.93,Single-ply,SBD,M
Boys,59.87,5,Billy Roeling,Hull-Daisetta,58.97,111.13,61.23,138.35,310.71,Single-ply,SBD,M
Boys,59.87,6,Christopher Darrell,High Island,59.87,102.06,65.77,124.74,292.57,Single-ply,SBD,M
Boys,59.87,7,Matthew Smith,Hull-Daisetta,59.87,97.52,56.7,131.54,285.76,Single-ply,SBD,M
Boys,67.13,1,Triston Gordon,Deweyville,64.41,142.88,92.99,165.56,401.43,Single-ply,SBD,M
Boys,67.13,2,Martin Doucet,Hull-Daisetta,65.54,129.27,92.99,163.29,385.55,Single-ply,SBD,M
Boys,67.13,3,Joe Young,Saratoga West Hardin,62.14,124.74,65.77,163.29,353.8,Single-ply,SBD,M
Boys,67.13,4,Caleb Deberge,Hull-Daisetta,63.28,108.86,61.23,145.15,315.25,Single-ply,SBD,M
Boys,67.13,5,Seth Mounts,Kountze,60.15,111.13,72.57,129.27,312.98,Single-ply,SBD,M
Boys,67.13,6,Daniel Dennis,Hull-Daisetta,65.09,111.13,61.23,136.08,308.44,Single-ply,SBD,M
Boys,67.13,7,Travis Hanks,Kountze,64.41,97.52,,,97.52,Single-ply,S,M
Boys,74.84,1,Shedric Deblanc,Hull-Daisetta,74.8,170.1,120.2,190.51,480.81,Single-ply,SBD,M
Boys,74.84,2,Trevor Knox,Deweyville,68.49,136.08,102.06,158.76,396.89,Single-ply,SBD,M
Boys,74.84,3,Austin Brewer,Hull-Daisetta,72.57,117.93,74.84,154.22,347,Single-ply,SBD,M
Boys,74.84,4,Tylor Schnarrs,Hull-Daisetta,74.84,120.2,68.04,149.69,337.93,Single-ply,SBD,M
Boys,74.84,DQ,David Blake,Kountze,73.21,,,,,Single-ply,SBD,M
Boys,82.1,1,Brian Adams,Saratoga West Hardin,82.1,158.76,102.06,174.63,435.45,Single-ply,SBD,M
Boys,82.1,2,Jordan Gary,Deweyville,75.75,142.88,108.86,170.1,421.84,Single-ply,SBD,M
Boys,82.1,3,Cj Schley,High Island,82.1,149.69,86.18,158.76,394.63,Single-ply,SBD,M
Boys,82.1,4,Rodney Richerson,Deweyville,78.02,136.08,99.79,151.95,387.82,Single-ply,SBD,M
Boys,89.81,1,Jesse Basham,Saratoga West Hardin,83.91,145.15,79.38,142.88,367.41,Single-ply,SBD,M
Boys,89.81,2,Zack Roth,Kountze,84.82,120.2,70.31,147.42,337.93,Single-ply,SBD,M
Boys,99.79,1,Jonathan Walters,Kountze,96.34,147.42,88.45,158.76,394.63,Single-ply,SBD,M
Boys,99.79,2,Daniel Madden,Saratoga West Hardin,96.62,129.27,72.57,163.29,365.14,Single-ply,SBD,M
Boys,109.77,1,John Erwin,Kountze,103.15,149.69,102.06,163.29,415.04,Single-ply,SBD,M
Boys,109.77,2,Anthony Wimmer,Deweyville,107.5,161.03,86.18,167.83,415.04,Single-ply,SBD,M
Boys,109.77,3,Gary Baker,Kountze,107.32,97.52,70.31,133.81,301.64,Single-ply,SBD,M
Boys,109.77,4,Trevor Budro,Hull-Daisetta,109.77,136.08,83.91,,219.99,Single-ply,SB,M
Boys,124.74,1,Collin Chesson,Saratoga West Hardin,119.29,238.14,147.42,229.06,614.62,Single-ply,SBD,M
Boys,124.74,2,Dalton Marsh,Deweyville,117.93,188.24,113.4,192.78,494.42,Single-ply,SBD,M
Boys,124.74,3,Caleb Atkins,Kountze,116.57,172.37,117.93,183.7,474,Single-ply,SBD,M
Boys,124.74,4,Chance Hickman,Saratoga West Hardin,116.57,181.44,106.59,181.44,469.47,Single-ply,SBD,M
Boys,124.74,5,Dakota Ford,Hull-Daisetta,112.49,156.49,102.06,165.56,424.11,Single-ply,SBD,M
Boys,124.74+,1,Ben Carpenter,Deweyville,130.18,185.97,104.33,188.24,478.54,Single-ply,SBD,M
Boys,124.74+,2,Joshua Trevino,Deweyville,128.37,158.76,102.06,163.29,424.11,Single-ply,SBD,M
