Division,WeightClassKg,Place,Name,Team,BodyweightKg,Best3SquatKg,Best3BenchKg,Best3DeadliftKg,TotalKg,Equipment,Event,Sex
Boys,51.71,1,Josh Nowlin,San Antonio East Central,51.26,174.63,95.25,165.56,435.45,Single-ply,SBD,M
Boys,51.71,2,Angel Bermudez,Poteet,50.62,138.35,88.45,142.88,369.68,Single-ply,SBD,M
Boys,51.71,3,Jorge Saldana,Natalia,49.35,127.01,72.57,149.69,349.27,Single-ply,SBD,M
Boys,51.71,4,Uriel Solorzano,Jourdanton,51.26,124.74,63.5,120.2,308.44,Single-ply,SBD,M
Boys,51.71,5,Devin Medina,Kenedy,51.53,117.93,70.31,120.2,308.44,Single-ply,SBD,M
Boys,51.71,6,Oziel Padilla,Natalia,51.26,113.4,56.7,127.01,297.1,Single-ply,SBD,M
Boys,51.71,7,John Dexter,Bandera,50.71,83.91,65.77,86.18,235.87,Single-ply,SBD,M
Boys,51.71,DQ,Justin Gutirrez,Crystal City,51.44,106.59,,,,Single-ply,SBD,M
Boys,51.71,DQ,Rudy Rios,Devine,50.26,,,,,Single-ply,SBD,M
Boys,51.71,DQ,Alan Terrazas,Devine,45.72,106.59,,,,Single-ply,SBD,M
Boys,55.79,1,Ricky Guerra,Poteet,55.79,174.63,113.4,181.44,469.47,Single-ply,SBD,M
Boys,55.79,2,Albert Alvarez,Jourdanton,54.34,136.08,83.91,129.27,349.27,Single-ply,SBD,M
Boys,55.79,3,Parth Patel,Kenedy,54.88,120.2,81.65,129.27,331.12,Single-ply,SBD,M
Boys,55.79,4,Jermaine Mendiola,Somerset,53.34,142.88,65.77,113.4,322.05,Single-ply,SBD,M
Boys,55.79,5,Javier Flores,Crystal City,54.16,111.13,83.91,124.74,319.78,Single-ply,SBD,M
Boys,55.79,6,Sebastian Estrada,Somerset,55.52,122.47,61.23,136.08,319.78,Single-ply,SBD,M
Boys,55.79,7,Colton Rodriguez,Jourdanton,53.25,136.08,63.5,117.93,317.51,Single-ply,SBD,M
Boys,55.79,8,Victor Monsevias,Kenedy,55.07,108.86,65.77,142.88,317.51,Single-ply,SBD,M
Boys,55.79,9,Wesley Lover,Karnes City,54.61,115.67,72.57,124.74,312.98,Single-ply,SBD,M
Boys,55.79,10,Zach Harding,Castroville Medina Valley,54.16,111.13,56.7,117.93,285.76,Single-ply,SBD,M
Boys,55.79,DQ,Keenan Mata,Crystal City,54.25,90.72,,,,Single-ply,SBD,M
Boys,55.79,DQ,R Elizondo,Pearsall,53.34,,,,,Single-ply,SBD,M
Boys,59.87,DQ,Tyler Crank,San Antonio East Central,55.88,131.54,,,,Single-ply,SBD,M
Boys,59.87,1,Sawyer Yandell,Devine,59.24,204.12,99.79,210.92,514.83,Single-ply,SBD,M
Boys,59.87,2,Alan Espinosa,Dilley,59.87,176.9,90.72,185.97,453.59,Single-ply,SBD,M
Boys,59.87,3,Adam Austin,Del Rio,58.69,142.88,92.99,190.51,426.38,Single-ply,SBD,M
Boys,59.87,4,Mauricio Galarza,San Antonio East Central,59.15,156.49,92.99,156.49,405.97,Single-ply,SBD,M
Boys,59.87,5,Landon Camacho,Pleasanton,58.69,145.15,97.52,142.88,385.55,Single-ply,SBD,M
Boys,67.13,6,Sid Alcoser,Somerset,59.96,151.95,77.11,151.95,381.02,Single-ply,SBD,M
Boys,59.87,7,Cody Trivino,Devine,56.34,127.01,77.11,158.76,362.87,Single-ply,SBD,M
Boys,59.87,8,Isaac Lopez,Jourdanton,59.24,142.88,83.91,124.74,351.53,Single-ply,SBD,M
Boys,59.87,9,Joe Guerrero,Devine,58.6,113.4,77.11,147.42,337.93,Single-ply,SBD,M
Boys,59.87,10,Devin McMahan,Stockdale,57.24,108.86,79.38,142.88,331.12,Single-ply,SBD,M
Boys,59.87,11,Robert Morin,Karnes City,59.87,104.33,79.38,142.88,326.59,Single-ply,SBD,M
Boys,59.87,12,Jacob Hinojosa,Kenedy,59.33,113.4,68.04,138.35,319.78,Single-ply,SBD,M
Boys,59.87,13,Robert Rendon,Crystal City,57.52,113.4,63.5,127.01,303.91,Single-ply,SBD,M
Boys,59.87,14,Joaquin Munoz,Stockdale,58.88,90.72,68.04,142.88,301.64,Single-ply,SBD,M
Boys,59.87,15,Noah Rodriguez,Kenedy,57.52,90.72,65.77,106.59,263.08,Single-ply,SBD,M
Boys,59.87,16,Auston Garza,Somerset,56.88,54.43,52.16,122.47,229.06,Single-ply,SBD,M
Boys,59.87,17,Carlos Ramirez,Natalia,59.15,65.77,40.82,77.11,183.7,Single-ply,SBD,M
Boys,59.87,DQ,Enrique Medrano,Crystal City,59.87,,,,,Single-ply,SBD,M
Boys,67.13,1,Elvis Benitez,San Antonio East Central,65.86,217.72,131.54,195.04,544.31,Single-ply,SBD,M
Boys,74.84,2,Matt Valadez,Stockdale,67.36,204.12,120.2,219.99,544.31,Single-ply,SBD,M
Boys,67.13,3,Zachary Ornelas,Pearsall,66.04,204.12,88.45,208.65,501.22,Single-ply,SBD,M
Boys,67.13,4,Ronald Sanchez,Poteet,67.13,185.97,106.59,185.97,478.54,Single-ply,SBD,M
Boys,67.13,5,Josh Ramos,Somerset,66.86,199.58,88.45,183.7,471.74,Single-ply,SBD,M
Boys,67.13,6,Chris Aguilar,San Antonio Memorial,61.6,156.49,95.25,192.78,444.52,Single-ply,SBD,M
Boys,67.13,7,Alfredo Ramos,San Antonio Memorial,66.22,181.44,88.45,174.63,444.52,Single-ply,SBD,M
Boys,67.13,8,Ozzy Gonzalez,Somerset,66.68,176.9,81.65,172.37,430.91,Single-ply,SBD,M
Boys,67.13,9,Tyler Gould,Pleasanton,65.86,161.03,88.45,161.03,410.5,Single-ply,SBD,M
Boys,67.13,10,Jose Flores,San Antonio Kennedy,63.59,136.08,92.99,158.76,387.82,Single-ply,SBD,M
Boys,67.13,11,Blake Galvan,Odem,66.77,142.88,83.91,158.76,385.55,Single-ply,SBD,M
Boys,67.13,12,Oscar de Leon,Somerset,61.05,136.08,88.45,158.76,383.29,Single-ply,SBD,M
Boys,67.13,13,Isac Alvarez,Crystal City,64.77,136.08,77.11,158.76,371.95,Single-ply,SBD,M
Boys,67.13,14,Fabian Garza,Dilley,65.59,147.42,83.91,136.08,367.41,Single-ply,SBD,M
Boys,67.13,15,Jj Aguinaga,Lytle,66.22,136.08,72.57,145.15,353.8,Single-ply,SBD,M
Boys,67.13,16,Jadran Ramirez,Kenedy,62.41,122.47,79.38,149.69,351.53,Single-ply,SBD,M
Boys,67.13,17,Wyatt Scheff,Devine,60.51,124.74,72.57,142.88,340.19,Single-ply,SBD,M
Boys,67.13,18,Aaron Realme,Pearsall,61.87,124.74,72.57,120.2,317.51,Single-ply,SBD,M
Boys,67.13,19,Nathan Ramos,Jourdanton,63.78,104.33,61.23,147.42,312.98,Single-ply,SBD,M
Boys,67.13,20,Jonathan Edwards,Pleasanton,64.86,102.06,56.7,138.35,297.1,Single-ply,SBD,M
Boys,67.13,DQ,Kris Guzman,Poteet,64.23,,,,,Single-ply,SBD,M
Boys,67.13,DQ,Alex Paredas,Natalia,66.77,,,,,Single-ply,SBD,M
Boys,67.13,DQ,Eliseo Cuevas,San Antonio Memorial,62.87,,,,,Single-ply,SBD,M
Boys,67.13,DQ,Darion McMahan,Stockdale,66.59,,,,,Single-ply,SBD,M
Boys,74.84,1,Dustin Toscano,San Antonio East Central,72.21,254.01,142.88,231.33,628.23,Single-ply,SBD,M
Boys,82.1,2,Pedro Molina,Somerset,75.07,244.94,129.27,244.94,619.15,Single-ply,SBD,M
Boys,74.84,3,John Valdez,Somerset,74.66,222.26,127.01,174.63,523.9,Single-ply,SBD,M
Boys,74.84,4,Logan Pennycook,Del Rio,74.21,174.63,113.4,208.65,496.68,Single-ply,SBD,M
Boys,74.84,5,David Puente,Crystal City,72.85,163.29,108.86,181.44,453.59,Single-ply,SBD,M
Boys,74.84,6,Josh Moss,Del Rio,73.3,170.1,104.33,179.17,453.59,Single-ply,SBD,M
Boys,74.84,7,John Santos #1,Lytle,74.21,179.17,92.99,181.44,453.59,Single-ply,SBD,M
Boys,74.84,8,Joseph Ortiz,Jourdanton,71.03,174.63,104.33,170.1,449.06,Single-ply,SBD,M
Boys,74.84,9,Demitri Molina,Somerset,74.39,158.76,90.72,181.44,430.91,Single-ply,SBD,M
Boys,74.84,10,Mark Gonzales,San Antonio Memorial,74.12,156.49,88.45,181.44,426.38,Single-ply,SBD,M
Boys,74.84,11,Leroy Torres,Castroville Medina Valley,70.94,158.76,99.79,165.56,424.11,Single-ply,SBD,M
Boys,74.84,12,Johnathan Stoufflet,Bandera,71.12,147.42,90.72,176.9,415.04,Single-ply,SBD,M
Boys,74.84,13,Zeke Hinojosa,Pearsall,73.12,158.76,83.91,170.1,412.77,Single-ply,SBD,M
Boys,74.84,14,Diego Hernandez,Lytle,70.4,154.22,95.25,158.76,408.23,Single-ply,SBD,M
Boys,74.84,15,Steven Nicholson,Natalia,73.84,149.69,74.84,161.03,385.55,Single-ply,SBD,M
Boys,74.84,16,Angel Flores,Kenedy,68.49,106.59,63.5,129.27,299.37,Single-ply,SBD,M
Boys,74.84,17,Oscar de Luna,San Antonio Memorial,74.66,117.93,47.63,111.13,276.69,Single-ply,SBD,M
Boys,74.84,18,James Richards,Del Rio,74.57,70.31,70.31,104.33,244.94,Single-ply,SBD,M
Boys,74.84,DQ,Nathan Salazar,Somerset,69.13,,,,,Single-ply,SBD,M
Boys,82.1,1,Matt Ritch,San Antonio East Central,80.1,272.16,172.37,226.8,671.32,Single-ply,SBD,M
Boys,82.1,2,Michael Davis,San Antonio East Central,80.74,249.48,127.01,226.8,603.28,Single-ply,SBD,M
Boys,82.1,3,Jon Ventura,Pearsall,81.83,217.72,127.01,231.33,576.06,Single-ply,SBD,M
Boys,82.1,4,Zach Candela,Odem,79.02,195.04,124.74,208.65,528.44,Single-ply,SBD,M
Boys,82.1,5,Conner McLaughlin,Stockdale,81.01,183.7,115.67,226.8,526.17,Single-ply,SBD,M
Boys,82.1,6,Micheal Chavez,Devine,79.74,201.85,124.74,192.78,519.36,Single-ply,SBD,M
Boys,82.1,7,Christopher Vinton,Pearsall,78.65,204.12,124.74,183.7,512.56,Single-ply,SBD,M
Boys,82.1,8,Thomas Trevino,Pleasanton,79.92,195.04,111.13,183.7,489.88,Single-ply,SBD,M
Boys,82.1,9,Dylan Aguinaga,Lytle,78.74,183.7,106.59,195.04,485.34,Single-ply,SBD,M
Boys,82.1,10,Francisco Martinez,Poteet,76.84,181.44,122.47,176.9,480.81,Single-ply,SBD,M
Boys,82.1,11,Nick Quintanilla,Karnes City,77.02,181.44,99.79,181.44,462.66,Single-ply,SBD,M
Boys,82.1,12,Steven Sartuche,Devine,76.57,161.03,108.86,188.24,458.13,Single-ply,SBD,M
Boys,82.1,13,Joshua Guerra,Castroville Medina Valley,79.56,147.42,97.52,183.7,428.64,Single-ply,SBD,M
Boys,82.1,14,Landon Ventura,Bandera,80.1,149.69,104.33,158.76,412.77,Single-ply,SBD,M
Boys,82.1,15,Thomas Rodriguez,Somerset,80.65,161.03,77.11,163.29,401.43,Single-ply,SBD,M
Boys,82.1,16,Andrew Villar,San Antonio Memorial,75.75,138.35,83.91,158.76,381.02,Single-ply,SBD,M
Boys,82.1,17,Steve Medrano,Dilley,77.38,142.88,68.04,149.69,360.61,Single-ply,SBD,M
Boys,82.1,18,Isiah Garcia,Del Rio,78.65,127.01,83.91,142.88,353.8,Single-ply,SBD,M
Boys,82.1,19,Phillip Aguero,Somerset,76.66,81.65,38.56,90.72,210.92,Single-ply,SBD,M
Boys,82.1,DQ,Alex Aguero,Jourdanton,79.38,185.97,,,,Single-ply,SBD,M
Boys,89.81,1,Justin Quesada,Somerset,87.27,240.4,149.69,213.19,603.28,Single-ply,SBD,M
Boys,89.81,2,Caid Frankowiack,San Antonio East Central,86,242.67,124.74,222.26,589.67,Single-ply,SBD,M
Boys,89.81,3,Chris Toenes,Bandera,87.45,197.31,124.74,199.58,521.63,Single-ply,SBD,M
Boys,89.81,4,Justin Laque,Castroville Medina Valley,86.27,183.7,136.08,192.78,512.56,Single-ply,SBD,M
Boys,89.81,5,David Bernal,Pleasanton,89.09,204.12,111.13,190.51,505.76,Single-ply,SBD,M
Boys,89.81,6,Nich Andr,Bandera,88.36,183.7,120.2,195.04,498.95,Single-ply,SBD,M
Boys,89.81,7,Daniel Ramirez,San Antonio Kennedy,82.74,190.51,111.13,185.97,487.61,Single-ply,SBD,M
Boys,89.81,8,Silverio Trejo,Pearsall,83.64,183.7,111.13,192.78,487.61,Single-ply,SBD,M
Boys,89.81,9,David Nieto,Pearsall,83.37,183.7,102.06,154.22,439.98,Single-ply,SBD,M
Boys,89.81,10,Juan Perez,Lytle,85.82,167.83,97.52,163.29,428.64,Single-ply,SBD,M
Boys,89.81,11,Isaac Robles #3,Castroville Medina Valley,84.64,142.88,111.13,158.76,412.77,Single-ply,SBD,M
Boys,89.81,12,Joshua Cuevas,Pearsall,86,145.15,77.11,140.61,362.87,Single-ply,SBD,M
Boys,89.81,13,Caesar Urbano,Del Rio,89.45,140.61,70.31,127.01,337.93,Single-ply,SBD,M
Boys,99.79,1,Santos Dominguez,San Antonio East Central,98.25,294.84,183.7,265.35,743.89,Single-ply,SBD,M
Boys,99.79,2,Carlos Carrillo,Lytle,90.54,233.6,138.35,226.8,598.74,Single-ply,SBD,M
Boys,99.79,3,Weston Block,Karnes City,99.34,231.33,140.61,224.53,596.47,Single-ply,SBD,M
Boys,99.79,4,Izzy Hay,Bandera,99.43,213.19,151.95,201.85,566.99,Single-ply,SBD,M
Boys,99.79,5,Juan Landa,Castroville Medina Valley,98.61,219.99,133.81,204.12,557.92,Single-ply,SBD,M
Boys,99.79,6,Austin Block,Karnes City,99.7,219.99,124.74,210.92,555.65,Single-ply,SBD,M
Boys,99.79,7,Joey Mendez,San Antonio Memorial,96.89,226.8,113.4,195.04,535.24,Single-ply,SBD,M
Boys,99.79,8,JD Benavidez,Odem,90.54,226.8,120.2,176.9,523.9,Single-ply,SBD,M
Boys,99.79,9,Fabian Huerta,Crystal City,92.08,199.58,113.4,208.65,521.63,Single-ply,SBD,M
Boys,99.79,10,Julian Valavidino,Bandera,95.16,172.37,120.2,197.31,489.88,Single-ply,SBD,M
Boys,99.79,11,Jesus Piliado,Somerset,94.62,210.92,92.99,183.7,487.61,Single-ply,SBD,M
Boys,99.79,12,Armando Martinez,Lytle,91.99,161.03,104.33,204.12,469.47,Single-ply,SBD,M
Boys,99.79,13,Rudy Pena,San Antonio Kennedy,91.08,181.44,97.52,183.7,462.66,Single-ply,SBD,M
Boys,99.79,14,Adrian Valdez,Del Rio,98.52,174.63,99.79,183.7,458.13,Single-ply,SBD,M
Boys,99.79,15,Gerald Garcia,Pleasanton,99.61,174.63,111.13,172.37,458.13,Single-ply,SBD,M
Boys,99.79,16,Ruben Molina,Dilley,97.89,190.51,92.99,172.37,455.86,Single-ply,SBD,M
Boys,99.79,17,Bryce Sandoval,Poteet,98.16,170.1,115.67,158.76,444.52,Single-ply,SBD,M
Boys,99.79,18,Lance Huerta,Natalia,94.53,165.56,97.52,167.83,430.91,Single-ply,SBD,M
Boys,99.79,19,Robert Hinojosa,San Antonio Kennedy,96.34,142.88,68.04,183.7,394.63,Single-ply,SBD,M
Boys,99.79,20,Nick Casanova,Karnes City,90.63,142.88,83.91,158.76,385.55,Single-ply,SBD,M
Boys,99.79,21,Robert Cervantes,Dilley,91.26,142.88,97.52,142.88,383.29,Single-ply,SBD,M
Boys,99.79,22,Christian Silvas,Crystal City,95.98,131.54,104.33,142.88,378.75,Single-ply,SBD,M
Boys,99.79,DQ,Zach Zavala,Crystal City,99.79,,,,,Single-ply,SBD,M
Boys,109.77,1,Sal Marines,Somerset,106.05,317.51,149.69,272.16,739.36,Single-ply,SBD,M
Boys,109.77,2,Chris McCumber,San Antonio East Central,103.6,231.33,183.7,226.8,641.83,Single-ply,SBD,M
Boys,109.77,3,Justin Lomas,Crystal City,103.42,258.55,124.74,217.72,601.01,Single-ply,SBD,M
Boys,109.77,4,Leo Perez,Devine,102.97,249.48,140.61,208.65,598.74,Single-ply,SBD,M
Boys,109.77,5,Mark Cerda,Somerset,108.68,226.8,127.01,229.06,582.87,Single-ply,SBD,M
Boys,109.77,6,Sammy Jasso,Odem,101.97,226.8,142.88,204.12,573.79,Single-ply,SBD,M
Boys,109.77,7,Joe Cantu,Lytle,104.96,226.8,111.13,210.92,548.85,Single-ply,SBD,M
Boys,109.77,8,William Olson,Jourdanton,107.59,217.72,131.54,188.24,537.51,Single-ply,SBD,M
Boys,109.77,9,Darren Garcia,Crystal City,106.78,215.46,111.13,192.78,519.36,Single-ply,SBD,M
Boys,109.77,10,Jacob Ybarra,Somerset,107.59,210.92,120.2,183.7,514.83,Single-ply,SBD,M
Boys,109.77,11,Jeremy Ybarra,San Antonio Kennedy,108.14,183.7,117.93,195.04,496.68,Single-ply,SBD,M
Boys,109.77,12,Nick Guzman,Karnes City,104.24,174.63,124.74,195.04,494.42,Single-ply,SBD,M
Boys,109.77,13,Joshua Macat,Lytle,109.77,195.04,104.33,181.44,480.81,Single-ply,SBD,M
Boys,109.77,14,Manny Leija,Pleasanton,102.33,183.7,111.13,183.7,478.54,Single-ply,SBD,M
Boys,109.77,15,Joe Perez,Odem,108.05,190.51,102.06,181.44,474,Single-ply,SBD,M
Boys,109.77,16,Joey Sanchez,Somerset,100.61,172.37,97.52,179.17,449.06,Single-ply,SBD,M
Boys,109.77,17,Robert Steninle,Castroville Medina Valley,100.24,183.7,90.72,170.1,444.52,Single-ply,SBD,M
Boys,124.74,18,Robert Garza,San Antonio Kennedy,109.95,183.7,90.72,158.76,433.18,Single-ply,SBD,M
Boys,109.77,19,Martin Mendez,San Antonio Memorial,100.88,142.88,95.25,183.7,421.84,Single-ply,SBD,M
Boys,109.77,20,Rd McCarrell,Jourdanton,108.59,142.88,113.4,142.88,399.16,Single-ply,SBD,M
Boys,109.77,21,Jose Coronado,San Antonio Memorial,105.23,122.47,68.04,127.01,317.51,Single-ply,SBD,M
Boys,109.77,DQ,Matt Garcia,Poteet,105.87,192.78,88.45,,,Single-ply,SBD,M
Boys,124.74,1,Eddie Rodriguez,San Antonio Memorial,115.94,256.28,183.7,226.8,666.78,Single-ply,SBD,M
Boys,124.74,2,Gabriel Garza,Somerset,120.38,272.16,163.29,213.19,648.64,Single-ply,SBD,M
Boys,124.74,3,Israel Aguero,Jourdanton,110.5,251.74,161.03,233.6,646.37,Single-ply,SBD,M
Boys,124.74,4,Zach Monreal,Devine,116.39,235.87,149.69,249.48,635.03,Single-ply,SBD,M
Boys,124.74,5,Bj Frieda,Somerset,112.31,249.48,129.27,215.46,594.21,Single-ply,SBD,M
Boys,124.74,6,Adrian Contreras,Poteet,124.74,226.8,129.27,215.46,571.53,Single-ply,SBD,M
Boys,124.74,7,Bryce Dowds,Bandera,115.85,226.8,138.35,199.58,564.72,Single-ply,SBD,M
Boys,124.74,8,JohnPaul Lugo,Jourdanton,120.84,217.72,117.93,213.19,548.85,Single-ply,SBD,M
Boys,124.74,9,Julius Gonzalez,Dilley,123.01,231.33,102.06,195.04,528.44,Single-ply,SBD,M
Boys,124.74,10,Michael Garza,Crystal City,120.2,215.46,113.4,172.37,501.22,Single-ply,SBD,M
Boys,124.74,11,Joe Tovar,Somerset,112.94,204.12,113.4,181.44,498.95,Single-ply,SBD,M
Boys,124.74,12,Brandon Hernandez,Lytle,124.47,192.78,99.79,204.12,496.68,Single-ply,SBD,M
Boys,124.74,13,Nathan Hernandez,Kenedy,122.83,181.44,104.33,174.63,460.4,Single-ply,SBD,M
Boys,124.74,14,Andre Hernandez,Natalia,120.84,170.1,92.99,167.83,430.91,Single-ply,SBD,M
Boys,124.74,15,Damien Cantu,San Antonio Kennedy,113.04,142.88,95.25,185.97,424.11,Single-ply,SBD,M
Boys,124.74,16,Brandon Williams,Del Rio,116.75,142.88,97.52,158.76,399.16,Single-ply,SBD,M
Boys,124.74,17,Ray Navarro,Natalia,124.38,170.1,72.57,156.49,399.16,Single-ply,SBD,M
Boys,124.74,18,Jon Lara,Natalia,119.93,163.29,74.84,151.95,390.09,Single-ply,SBD,M
Boys,124.74,19,Daniel Ramirez,Somerset,114.94,158.76,83.91,133.81,376.48,Single-ply,SBD,M
Boys,124.74,20,Hernan Veloz,Del Rio,115.03,136.08,79.38,142.88,358.34,Single-ply,SBD,M
Boys,124.74,21,Gil Torres,San Antonio Memorial,110.77,131.54,81.65,136.08,349.27,Single-ply,SBD,M
Boys,124.74,DQ,Paulino Bosquez,San Antonio Kennedy,124.74,,,,,Single-ply,SBD,M
Boys,124.74,DQ,Joe Reschman,Somerset,124.74,,,,,Single-ply,SBD,M
Boys,124.74,DQ,Refugio Faz,Somerset,116.03,192.78,,,,Single-ply,SBD,M
Boys,124.74,DQ,Zach Torres,Somerset,120.2,181.44,,,,Single-ply,SBD,M
Boys,124.74,DQ,Andres Garzes,San Antonio Memorial,112.49,145.15,,,,Single-ply,SBD,M
Boys,124.74,DQ,Michael Balderas,Poteet,124.74,181.44,86.18,,,Single-ply,SBD,M
Boys,124.74,DQ,Alec Gonzales,San Antonio East Central,123.74,244.94,165.56,231.33,,Single-ply,SBD,M
Boys,124.74+,1,Nick O'Bryant,Castroville Medina Valley,134.17,290.3,163.29,258.55,712.14,Single-ply,SBD,M
Boys,124.74+,2,Mark Alaron,San Antonio East Central,141.16,272.16,199.58,235.87,707.6,Single-ply,SBD,M
Boys,124.74+,3,Michael Reyes,Natalia,148.78,303.91,149.69,249.48,703.07,Single-ply,SBD,M
Boys,124.74+,4,Andy Valladolid,Somerset,138.62,272.16,138.35,204.12,614.62,Single-ply,SBD,M
Boys,124.74+,5,Trent Enriquez,Karnes City,127.1,226.8,131.54,199.58,557.92,Single-ply,SBD,M
Boys,124.74+,6,Josh Silva,Somerset,128.19,208.65,124.74,183.7,517.1,Single-ply,SBD,M
Boys,124.74+,7,Rene Olveda,Kenedy,148.14,188.24,138.35,181.44,508.02,Single-ply,SBD,M
Boys,124.74+,8,Chris Frank,Del Rio,135.62,165.56,142.88,183.7,492.15,Single-ply,SBD,M
Boys,124.74+,9,James Cooksey,Kenedy,131.45,192.78,99.79,190.51,483.08,Single-ply,SBD,M
Boys,124.74+,10,Robby Gutierrez,Kenedy,135.9,181.44,86.18,174.63,442.25,Single-ply,SBD,M
Boys,124.74+,11,Moses Leon,Somerset,154.13,181.44,88.45,151.95,421.84,Single-ply,SBD,M
Boys,124.74+,12,Jay Sandavol,San Antonio Memorial,147.24,145.15,99.79,163.29,408.23,Single-ply,SBD,M
Boys,124.74+,13,Julian Martinez,Pearsall,141.79,127.01,77.11,129.27,333.39,Single-ply,SBD,M
Boys,124.74+,14,Christian Soria,Somerset,139.89,113.4,83.91,127.01,324.32,Single-ply,SBD,M
Boys,124.74+,15,Chris Cobb,Somerset,130.27,99.79,54.43,90.72,244.94,Single-ply,SBD,M
Boys,124.74+,DQ,Michael Romero,Somerset,125.19,,,,,Single-ply,SBD,M
Boys,124.74+,DQ,Ronnie Lucio,Poteet,126.82,235.87,,,,Single-ply,SBD,M
Boys,124.74+,DQ,Joe Aguero,Somerset,131.18,333.39,154.22,,,Single-ply,SBD,M
Boys,,NS,Brandon Galvan,Odem,,,,,,Single-ply,SBD,M
Boys,,NS,Joe Garcia,Odem,,,,,,Single-ply,SBD,M
Boys,,NS,Isiah Isiah,Odem,,,,,,Single-ply,SBD,M
