Place,Name,Sex,Event,Division,WeightClassKg,Equipment,BirthYear,Team,State,BodyweightKg,Squat1Kg,Squat2Kg,Squat3Kg,Best3SquatKg,Bench1Kg,Bench2Kg,Bench3Kg,Best3BenchKg,Deadlift1Kg,Deadlift2Kg,Deadlift3Kg,Best3DeadliftKg,TotalKg
1,Jessie Medlin,F,B,FR-M1,84+,Raw,1977,,OR,121.1,,,,,25,30,-32.5,30,,,,,30
1,Lisa Brandt,F,SBD,FR-M1,63,Raw,1969,Ironside Powerlifting,OR,62.8,65,75,77.5,77.5,-32.5,35,-40,35,87.5,100,-105,100,212.5
1,Siri Hoogen,F,SBD,FR-M1,84,Raw,1974,Ironside Powerlifting,OR,83.3,100,110,115,115,65,70,72.5,72.5,122.5,135,140,140,327.5
2,Jodi Snider,F,SBD,FR-M1,84,Raw,1978,Team Phoinix,OR,77.6,80,90,97.5,97.5,52.5,57.5,60,60,122.5,135,145,145,302.5
1,Diederah Cowan,F,SBD,FR-M2,84+,Raw,1963,,WA,107.1,80,82.5,-85,82.5,45,47.5,50,50,110,115,122.5,122.5,255
1,Andreanna Smith,F,SBD,FR-O,57,Raw,1984,,OR,55,80,85,90,90,47.5,50,55,55,112.5,117.5,120,120,265
2,Brooke Rooney,F,SBD,FR-O,57,Raw,1990,Ironside Powerlifting,OR,52.9,90,92.5,-95,92.5,52.5,55,-57.5,55,100,102.5,-105,102.5,250
1,Stuti Fernandes,F,SBD,FR-O,63,Raw,1989,,OR,61.4,82.5,87.5,-95,87.5,50,52.5,55,55,120,125,130,130,272.5
1,Gretchen Vietmeier,F,SBD,FR-O,72,Raw,1991,,OR,67.6,120,132.5,-137.5,132.5,60,-65,-65,60,122.5,132.5,137.5,137.5,330
2,Amanda Jones,F,SBD,FR-O,72,Raw,1988,Ironside Powerlifting,OR,70.5,105,115,120,120,55,60,65,65,115,122.5,127.5,127.5,312.5
1,Hoa Nguyen,F,SBD,FR-O,84,Raw,1983,Ironside Powerlifting,OR,80,-100,107.5,117.5,117.5,50,57.5,-62.5,57.5,115,122.5,-130,122.5,297.5
2,Renee Dversdal,F,SBD,FR-O,84,Raw,1980,,OR,79.6,97.5,-105,112.5,112.5,55,57.5,-62.5,57.5,117.5,125,-137.5,125,295
3,Rachel Bouffard,F,SBD,FR-O,84,Raw,1990,Ironside Powerlifting,OR,82.4,80,87.5,92.5,92.5,60,-65,65,65,117.5,130,137.5,137.5,295
4,Angeline Deluca,F,SBD,FR-O,84,Raw,1992,Ironside Powerlifting,OR,76.5,80,90,97.5,97.5,42.5,47.5,52.5,52.5,102.5,115,122.5,122.5,272.5
5,Stefanie Burks,F,SBD,FR-O,84,Raw,1990,,WA,82.5,67.5,72.5,80,80,37.5,-42.5,42.5,42.5,102.5,112.5,120,120,242.5
6,Megan Panagopoulos,F,SBD,FR-O,84,Raw,1987,,OR,78.1,-72.5,77.5,85,85,-40,45,-52.5,45,92.5,100,107.5,107.5,237.5
1,Olivia Simpson,F,SBD,FR-O,84+,Raw,1991,,OR,131.8,127.5,140,145,145,67.5,72.5,-77.5,72.5,162.5,170,182.5,182.5,400
2,Kenda Branch,F,SBD,FR-O,84+,Raw,1981,Ironside Training,OR,105.4,102.5,105,112.5,112.5,85,-95,100,100,95,107.5,117.5,117.5,330
1,Havvy Ehrich,F,SBD,FR-T2,72,Raw,2002,,OR,66.5,120,125,-130,125,87.5,90,92.5,92.5,150,155,165,165,382.5
1,Evin Sam,M,SBD,MR-Jr,93,Raw,1995,,OR,84.6,152.5,160,167.5,167.5,100,-107.5,107.5,107.5,185,197.5,207.5,207.5,482.5
2,Iran Zarate,M,SBD,MR-Jr,93,Raw,1996,Ironside Training,OR,84.7,152.5,157.5,165,165,107.5,110,-115,110,-175,-185,185,185,460
1,Sergio Olmos Zaragoza,M,SBD,MR-Jr,120+,Raw,1996,Ironside Powerlifting,OR,153.4,82.5,90,105,105,80,85,90,90,122.5,132.5,-147.5,132.5,327.5
1,John Mackinnon,M,SBD,MR-O,74,Raw,1991,Ironside Powerlifting,OR,73.3,150,165,175,175,102.5,112.5,120,120,212.5,227.5,-230,227.5,522.5
2,William St John,M,SBD,MR-O,74,Raw,1991,,OR,73.8,162.5,170,175,175,-102.5,107.5,112.5,112.5,192.5,200,207.5,207.5,495
1,Karl Peffer,M,SBD,MR-O,83,Raw,1991,,OR,78.6,160,172.5,180,180,112.5,120,127.5,127.5,160,170,182.5,182.5,490
1,Nikhil Karulkar,M,SBD,MR-O,93,Raw,1986,Ironside Training,WA,90.8,195,205,215,215,120,132.5,-137.5,132.5,187.5,197.5,205,205,552.5
2,Quincy Harris,M,SBD,MR-O,93,Raw,1990,Ironside Powerlifting,OR,91.3,170,175,185,185,145,152.5,-160,152.5,170,185,200,200,537.5
3,Chester Kennedy,M,SBD,MR-O,93,Raw,1986,Ironside Powerlifting,OR,91.6,167.5,175,182.5,182.5,95,97.5,102.5,102.5,172.5,180,197.5,197.5,482.5
4,Jesse Crew,M,SBD,MR-O,93,Raw,1988,Ironside Powerlifting,OR,90.4,140,150,157.5,157.5,-100,107.5,112.5,112.5,162.5,185,197.5,197.5,467.5
5,Jahan Djalali,M,SBD,MR-O,93,Raw,1989,Ironside Powerlifting,OR,84.7,90,97.5,105,105,47.5,55,-60,55,110,115,125,125,285
1,Adam Carroll,M,SBD,MR-O,105,Raw,1991,Ironside Powerlifting,OR,93.7,177.5,185,187.5,187.5,130,135,-137.5,135,205,210,220,220,542.5
1,Josh Pfefferkorn,M,SBD,MR-O,120+,Raw,1980,Ironside Powerlifting,OR,121.3,187.5,205,220,220,117.5,-125,130,130,215,235,247.5,247.5,597.5
1,Fagen Hoffman,M,SBD,MR-T2,66,Raw,2001,,OR,64.8,125,132.5,-137.5,132.5,77.5,-82.5,82.5,82.5,167.5,-175,-175,167.5,382.5
1,Antonio Guajardo,M,SBD,MR-T3,120+,Raw,1999,,OR,129.3,182.5,190,195,195,105,115,-120,115,182.5,190,195,195,505
1,Declan Crowley,M,SBD,MR-Y1,44,Raw,2009,,WA,40.5,20,25,30,30,20,-25,-25,20,50,55,-57.5,55,105
