Division,WeightClassKg,Place,Name,Team,BodyweightKg,Best3SquatKg,Best3BenchKg,Best3DeadliftKg,TotalKg,Equipment,Event,Sex
Boys,51.71,1,Isaiah Robinson,Waco Midway,51.35,142.88,77.11,156.49,376.48,Single-ply,SBD,M
Boys,51.71,2,Justin Davis,Buda Hays,49.71,131.54,90.72,149.69,371.95,Single-ply,SBD,M
Boys,51.71,3,Emmanuel Avina,Buda Hays,51.44,142.88,70.31,147.42,360.61,Single-ply,SBD,M
Boys,51.71,4,Chris Vivero,Bryan,50.89,131.54,68.04,158.76,358.34,Single-ply,SBD,M
Boys,51.71,5,JoRey Gonzales,Austin Bowie,51.17,120.2,81.65,149.69,351.53,Single-ply,SBD,M
Boys,51.71,6,Josh Ramirez,Kyle Lehman,51.71,122.47,79.38,147.42,349.27,Single-ply,SBD,M
Boys,55.79,7,Luis Mena,Del Valle,51.8,104.33,63.5,138.35,306.17,Single-ply,SBD,M
Boys,51.71,8,Samuel Ortega,Hutto,50.98,108.86,63.5,124.74,297.1,Single-ply,SBD,M
Boys,55.79,9,David Longoria,Austin Westlake,51.89,102.06,65.77,124.74,292.57,Single-ply,SBD,M
Boys,51.71,DQ,Creighton McFarlin,Dripping Springs,51.71,136.08,,,,Single-ply,SBD,M
Boys,55.79,1,Thomas Mascorro,San Marcos,53.98,163.29,102.06,185.97,451.32,Single-ply,SBD,M
Boys,55.79,2,Jonathan Johnson,Copperas Cove,55.7,142.88,81.65,188.24,412.77,Single-ply,SBD,M
Boys,55.79,3,Clint Lott,Waco Midway,55.61,154.22,79.38,176.9,410.5,Single-ply,SBD,M
Boys,55.79,4,Tyler Sevcik,College Station A&M Cons,55.25,140.61,95.25,158.76,394.63,Single-ply,SBD,M
Boys,59.87,5,Pete Contreras,Belton,55.88,149.69,90.72,140.61,381.02,Single-ply,SBD,M
Boys,59.87,6,Joseph Lendo,Leander,55.88,136.08,83.91,151.95,371.95,Single-ply,SBD,M
Boys,55.79,7,Celestino Hernandez,Del Valle,55.43,149.69,70.31,145.15,365.14,Single-ply,SBD,M
Boys,55.79,DQ,Marquis Wilson,Elgin,54.61,136.08,79.38,,,Single-ply,SBD,M
Boys,55.79,DQ,Josh Fantauzzi,Buda Hays,55.34,181.44,,,,Single-ply,SBD,M
Boys,67.13,1,Brandon Alford,Kyle Lehman,59.96,192.78,117.93,229.06,539.77,Single-ply,SBD,M
Boys,59.87,2,Chris Jackson,Lockhart,59.42,158.76,102.06,192.78,453.59,Single-ply,SBD,M
Boys,59.87,3,Forrest Warren,Georgetown,58.24,192.78,83.91,174.63,451.32,Single-ply,SBD,M
Boys,59.87,4,Maleek Jacobs,Austin Westlake,59.06,158.76,83.91,206.38,449.06,Single-ply,SBD,M
Boys,59.87,5,Jarrett Burford,Dripping Springs,58.79,156.49,99.79,181.44,437.72,Single-ply,SBD,M
Boys,59.87,6,Dominic Packer,Austin Lake Travis,58.97,170.1,83.91,179.17,433.18,Single-ply,SBD,M
Boys,59.87,7,Chase Porter,Burleson,59.87,149.69,99.79,170.1,419.57,Single-ply,SBD,M
Boys,59.87,8,Alvin Martinez,Del Valle,59.69,161.03,79.38,176.9,417.3,Single-ply,SBD,M
Boys,59.87,9,Tyson Eno,Belton,59.87,140.61,102.06,165.56,408.23,Single-ply,SBD,M
Boys,59.87,10,Albert Cortez,Bryan,59.15,158.76,68.04,174.63,401.43,Single-ply,SBD,M
Boys,67.13,1,Zerrick Merchant,College Station A&M Cons,65.86,229.06,133.81,254.01,616.89,Single-ply,SBD,M
Boys,67.13,2,Eddie Suarez,San Marcos,67.13,231.33,124.74,224.53,580.6,Single-ply,SBD,M
Boys,67.13,3,Jared Clark,Burleson,66.77,197.31,111.13,199.58,508.02,Single-ply,SBD,M
Boys,67.13,4,Fisher Sutterfield,Austin Bowie,65.86,183.7,122.47,199.58,505.76,Single-ply,SBD,M
Boys,67.13,5,Brandon Jackson,College Station A&M Cons,65.95,192.78,113.4,195.04,501.22,Single-ply,SBD,M
Boys,67.13,6,Matt Maldonado,Del Valle,65.77,185.97,115.67,197.31,498.95,Single-ply,SBD,M
Boys,67.13,7,Ryan Arnold,Georgetown,65.95,206.38,99.79,188.24,494.42,Single-ply,SBD,M
Boys,74.84,8,Connor Cross,Dripping Springs,67.27,215.46,97.52,181.44,494.42,Single-ply,SBD,M
Boys,67.13,9,Robert Martinez,Belton,66.32,165.56,95.25,217.72,478.54,Single-ply,SBD,M
Boys,67.13,DQ,Antwan Coleman,Waco University,66.41,217.72,117.93,,,Single-ply,SBD,M
Boys,74.84,1,Marucs Orzabal,College Station A&M Cons,72.94,215.46,129.27,231.33,576.06,Single-ply,SBD,M
Boys,74.84,2,Stephen St John,Belton,74.21,222.26,120.2,231.33,573.79,Single-ply,SBD,M
Boys,74.84,3,Hayden Eskew,Buda Hays,74.75,213.19,147.42,210.92,571.53,Single-ply,SBD,M
Boys,74.84,4,Raul Nava,Georgetown,72.85,217.72,122.47,197.31,537.51,Single-ply,SBD,M
Boys,74.84,5,Caleb Schneebeli,Bryan Rudder,74.03,192.78,117.93,226.8,537.51,Single-ply,SBD,M
Boys,74.84,6,David Wren,Dripping Springs,74.03,195.04,120.2,215.46,530.7,Single-ply,SBD,M
Boys,74.84,7,Erik Estrada,Hutto,73.75,197.31,108.86,222.26,528.44,Single-ply,SBD,M
Boys,74.84,8,Case D'Herde,Waco Midway,73.03,179.17,117.93,226.8,523.9,Single-ply,SBD,M
Boys,74.84,9,Taylor Hough,Buda Hays,70.67,192.78,117.93,199.58,510.29,Single-ply,SBD,M
Boys,74.84,DQ,Pete Quintero,Bryan,72.03,,,,,Single-ply,SBD,M
Boys,89.81,1,Omar Pereyra,Dripping Springs,82.28,260.82,136.08,235.87,632.76,Single-ply,SBD,M
Boys,82.1,2,Joe Waithaka,College Station A&M Cons,80.47,238.14,149.69,238.14,625.96,Single-ply,SBD,M
Boys,82.1,3,Hunter Matlock,Austin Bowie,79.47,219.99,140.61,215.46,576.06,Single-ply,SBD,M
Boys,89.81,4,Zach Foreman,Dripping Springs,82.15,199.58,133.81,235.87,569.26,Single-ply,SBD,M
Boys,82.1,5,Mark Trevino,Kyle Lehman,81.28,206.38,142.88,213.19,562.45,Single-ply,SBD,M
Boys,82.1,6,Kelly McBride,Del Valle,80.83,204.12,122.47,217.72,544.31,Single-ply,SBD,M
Boys,82.1,7,Devin Patterson,Belton,81.56,183.7,120.2,215.46,519.36,Single-ply,SBD,M
Boys,82.1,8,Vontrell Grant,Cleburne,78.47,185.97,120.2,197.31,503.49,Single-ply,SBD,M
Boys,82.1,DQ,Auston Ellis,Bryan Rudder,81.65,231.33,,,,Single-ply,SBD,M
Boys,89.81,DQ,Jj Johnson,Manor,82.33,192.78,120.2,,,Single-ply,SBD,M
Boys,89.81,1,Leo Castro,Elgin,89.27,249.48,181.44,288.03,718.94,Single-ply,SBD,M
Boys,89.81,2,DJ Levias,College Station A&M Cons,88.09,281.23,154.22,272.16,707.6,Single-ply,SBD,M
Boys,99.79,3,Mason Tham,Cedar Park Vista Ridge,90.04,254.01,145.15,240.4,639.57,Single-ply,SBD,M
Boys,89.81,4,KJ Evans,Joshua,85.55,244.94,151.95,238.14,635.03,Single-ply,SBD,M
Boys,99.79,5,Marlin O'Neal,Dripping Springs,89.86,238.14,136.08,260.82,635.03,Single-ply,SBD,M
Boys,89.81,6,Zach Haler,Cleburne,85.73,235.87,145.15,229.06,610.08,Single-ply,SBD,M
Boys,89.81,7,Chris Carnes,Burleson,88,215.46,147.42,235.87,598.74,Single-ply,SBD,M
Boys,89.81,8,Jerikhoal Alvarez,Temple,87.18,219.99,145.15,226.8,591.94,Single-ply,SBD,M
Boys,89.81,9,Josh Whitworth,Joshua,88.63,204.12,127.01,235.87,566.99,Single-ply,SBD,M
Boys,89.81,10,Michael Clovston,College Station A&M Cons,88.09,222.26,120.2,215.46,557.92,Single-ply,SBD,M
Boys,99.79,1,Ethan Martin,Kyle Lehman,92.53,244.94,142.88,263.08,650.91,Single-ply,SBD,M
Boys,99.79,2,Luis Garcia,College Station A&M Cons,92.99,249.48,151.95,242.67,644.1,Single-ply,SBD,M
Boys,99.79,3,Leron Hutto,San Marcos,96.52,254.01,113.4,276.69,644.1,Single-ply,SBD,M
Boys,99.79,4,Daniel Minor,Buda Hays,92.9,260.82,149.69,231.33,641.83,Single-ply,SBD,M
Boys,99.79,5,Demarkes Mathis,Temple,98.79,226.8,145.15,249.48,621.42,Single-ply,SBD,M
Boys,99.79,6,Drew Peterson,Dripping Springs,94.08,231.33,147.42,240.4,619.15,Single-ply,SBD,M
Boys,99.79,7,Cameron Chamberlin,Burleson,94.62,249.48,151.95,215.46,616.89,Single-ply,SBD,M
Boys,99.79,8,Addison Parish,Burleson,98.07,238.14,140.61,238.14,616.89,Single-ply,SBD,M
Boys,99.79,9,Rihl Dougherty,Dripping Springs,96.84,226.8,154.22,226.8,607.81,Single-ply,SBD,M
Boys,99.79,DQ,Ryan Stinson,Belton,96.71,,,,,Single-ply,SBD,M
Boys,109.77,1,Greg Garrett,Waco Midway,107.05,274.42,188.24,231.33,694,Single-ply,SBD,M
Boys,109.77,2,Avrelio Garcia,Lockhart,108.86,267.62,158.76,242.67,669.05,Single-ply,SBD,M
Boys,109.77,3,Johnny Jones,Elgin,108.95,278.96,158.76,231.33,669.05,Single-ply,SBD,M
Boys,109.77,4,Wyatt Smith,College Station A&M Cons,106.59,272.16,149.69,235.87,657.71,Single-ply,SBD,M
Boys,109.77,5,Hunter Heins,Burleson,108.77,238.14,142.88,249.48,630.49,Single-ply,SBD,M
Boys,109.77,6,Lorenzo Martinez,Georgetown,104.69,242.67,133.81,233.6,610.08,Single-ply,SBD,M
Boys,109.77,7,Andy Flores,Pflugerville Hendrickson,104.05,249.48,133.81,215.46,598.74,Single-ply,SBD,M
Boys,109.77,8,Cruz Banda,Kyle Lehman,104.6,222.26,142.88,217.72,582.87,Single-ply,SBD,M
Boys,109.77,9,Kyle Kavanaugh,College Station A&M Cons,109.04,249.48,124.74,204.12,578.33,Single-ply,SBD,M
Boys,109.77,DQ,James Thornburg,Cleburne,107.77,,,,,Single-ply,SBD,M
Boys,124.74,1,Clayton Anderson,Elgin,111.31,283.5,183.7,272.16,739.36,Single-ply,SBD,M
Boys,124.74,2,Ray Sedwick,Lockhart,123.2,290.3,167.83,260.82,718.94,Single-ply,SBD,M
Boys,124.74,3,Michael Cadena,Bryan,120.75,290.3,167.83,258.55,716.68,Single-ply,SBD,M
Boys,124.74,4,Dillon Rogers,Georgetown,113.4,272.16,174.63,226.8,673.58,Single-ply,SBD,M
Boys,124.74,5,Tyler Preston,Georgetown,115.94,251.74,151.95,240.4,644.1,Single-ply,SBD,M
Boys,124.74,6,Kyle Parkinson,Cleburne,120.2,258.55,151.95,233.6,644.1,Single-ply,SBD,M
Boys,124.74,7,Ray Jones,Copperas Cove,110.59,240.4,149.69,226.8,616.89,Single-ply,SBD,M
Boys,124.74,8,Donshay Johnson,Temple,116.39,254.01,136.08,226.8,616.89,Single-ply,SBD,M
Boys,124.74,9,Anthony Carvajal,Waco,117.57,254.01,120.2,222.26,596.47,Single-ply,SBD,M
Boys,124.74,DQ,Joseph Pilgrim,Granbury,111.67,240.4,,,,Single-ply,SBD,M
Boys,124.74+,1,Andrew Billings,Waco,135.62,306.17,208.65,292.57,807.39,Single-ply,SBD,M
Boys,124.74+,2,Ben Hughes,Waco University,137.89,294.84,163.29,288.03,746.16,Single-ply,SBD,M
Boys,124.74+,3,Nick Sunday,Waco,173.27,317.51,188.24,240.4,746.16,Single-ply,SBD,M
Boys,124.74+,4,Davontae Moore,Temple,135.44,288.03,158.76,226.8,673.58,Single-ply,SBD,M
Boys,124.74+,5,Keith Lewis,Bryan,127.37,265.35,158.76,244.94,669.05,Single-ply,SBD,M
Boys,124.74+,6,Dylan Baldeschwiler,Burleson,133.72,254.01,181.44,224.53,659.98,Single-ply,SBD,M
Boys,124.74+,7,Bobby Limon,Kyle Lehman,135.71,244.94,163.29,249.48,657.71,Single-ply,SBD,M
Boys,124.74+,8,Freddie Johnson,Temple,139.43,265.35,133.81,249.48,648.64,Single-ply,SBD,M
Boys,124.74+,9,Jacob Shanks,Elgin,145.97,231.33,156.49,251.74,639.57,Single-ply,SBD,M
Boys,124.74+,10,Edvardo Cassio,Cleburne,133.36,260.82,161.03,204.12,625.96,Single-ply,SBD,M
