Division,WeightClassKg,Place,Name,Team,BodyweightKg,Best3SquatKg,Best3BenchKg,Best3DeadliftKg,TotalKg,Equipment,Event,Sex
Boys,51.71,1,Renier Reyes,Decatur,51.62,142.88,90.72,149.69,383.29,Single-ply,SBD,M
Boys,51.71,2,Callon Yarbrough,Iowa Park,51.07,117.93,54.43,117.93,290.3,Single-ply,SBD,M
Boys,51.71,3,Blake Rogers,Wichita Falls Rider,42,106.59,49.9,106.59,263.08,Single-ply,SBD,M
Boys,51.71,4,Matthew Thomas,Decatur,51.26,97.52,52.16,113.4,263.08,Single-ply,SBD,M
Boys,51.71,5,Ransom McDonald,Archer City,51.26,83.91,52.16,79.38,215.46,Single-ply,SBD,M
Boys,51.71,DQ,Don Todd,Iowa Park,50.98,,,,,Single-ply,SBD,M
Boys,55.79,1,Ignacio Salas,Whitesboro,55.7,149.69,95.25,158.76,403.7,Single-ply,SBD,M
Boys,55.79,2,Conner Jacobs,Whitesboro,54.43,113.4,70.31,138.35,322.05,Single-ply,SBD,M
Boys,55.79,NS,Garrett Upshaw,Decatur,,,,,,Single-ply,SBD,M
Boys,55.79,DQ,Stephen Harris,Burkburnett,54.98,,,,,Single-ply,SBD,M
Boys,59.87,1,Manuel Labrada,Whitesboro,59.78,156.49,92.99,167.83,417.3,Single-ply,SBD,M
Boys,59.87,2,Asher Contreras,Whitesboro,58.15,147.42,83.91,172.37,403.7,Single-ply,SBD,M
Boys,59.87,3,Casey Fung,Iowa Park,59.51,138.35,97.52,154.22,390.09,Single-ply,SBD,M
Boys,59.87,4,Manuel Rodriguez,Decatur,58.51,147.42,86.18,154.22,387.82,Single-ply,SBD,M
Boys,59.87,5,Dalton Gross,Decatur,58.51,140.61,90.72,142.88,374.21,Single-ply,SBD,M
Boys,59.87,6,John Machtolff,Archer City,59.06,131.54,86.18,124.74,342.46,Single-ply,SBD,M
Boys,59.87,7,Angkenan Phannet,Wichita Falls,57.06,113.4,81.65,136.08,331.12,Single-ply,SBD,M
Boys,59.87,8,Landon Polvado,Burkburnett,56.79,104.33,61.23,115.67,281.23,Single-ply,SBD,M
Boys,67.13,1,Tuan Hoang,Wichita Falls City View,66.32,226.8,106.59,226.8,560.19,Single-ply,SBD,M
Boys,67.13,2,Michael Trinh,Wichita Falls,66.86,176.9,102.06,201.85,480.81,Single-ply,SBD,M
Boys,67.13,3,Chris Graham,Wichita Falls City View,66.5,181.44,92.99,204.12,478.54,Single-ply,SBD,M
Boys,67.13,4,Cayden Wright,Burkburnett,63.96,181.44,104.33,181.44,467.2,Single-ply,SBD,M
Boys,67.13,5,Joey Savel,Iowa Park,65.86,174.63,92.99,174.63,442.25,Single-ply,SBD,M
Boys,67.13,6,Christopher Laxamana,Wichita Falls Hirschi,65.23,181.44,81.65,170.1,433.18,Single-ply,SBD,M
Boys,67.13,7,Andrew Tanguma,Wichita Falls,66.77,163.29,90.72,176.9,430.91,Single-ply,SBD,M
Boys,67.13,8,Brian Jackson,Seymour,60.33,158.76,92.99,149.69,401.43,Single-ply,SBD,M
Boys,67.13,9,Kason Major,Burkburnett,64.95,138.35,74.84,145.15,358.34,Single-ply,SBD,M
Boys,67.13,10,Cody Sauceda,Wichita Falls,64.05,113.4,79.38,149.69,342.46,Single-ply,SBD,M
Boys,67.13,11,Diego Marmelljo,Wichita Falls,66.13,102.06,63.5,136.08,301.64,Single-ply,SBD,M
Boys,67.13,DQ,Tre Byrd,Wichita Falls Rider,66.95,,,,,Single-ply,SBD,M
Boys,74.84,1,Carson Stevens,Iowa Park,73.03,195.04,115.67,188.24,498.95,Single-ply,SBD,M
Boys,74.84,2,Peyton Smith,Haskell,73.12,179.17,104.33,181.44,464.93,Single-ply,SBD,M
Boys,74.84,3,Coleman Bledsoe,Wichita Falls Rider,73.21,170.1,111.13,170.1,451.32,Single-ply,SBD,M
Boys,74.84,4,Bobby Copeland,Wichita Falls City View,73.3,161.03,83.91,192.78,437.72,Single-ply,SBD,M
Boys,74.84,5,Thomas Arnold,Seymour,70.4,142.88,83.91,161.03,387.82,Single-ply,SBD,M
Boys,74.84,6,Brian DeLaRosa,Archer City,73.75,136.08,88.45,142.88,367.41,Single-ply,SBD,M
Boys,74.84,7,Joseph Quintero,Seymour,71.12,113.4,102.06,129.27,344.73,Single-ply,SBD,M
Boys,74.84,NS,De'Andre Casemere,Burkburnett,,,,,,Single-ply,SBD,M
Boys,74.84,DQ,Mason Duke,Burkburnett,74.84,,,,,Single-ply,SBD,M
Boys,74.84,DQ,Brandon Hernandez,Iowa Park,74.84,,,,,Single-ply,SBD,M
Boys,74.84,DQ,Matt Eich,Wichita Falls Rider,74.48,,,,,Single-ply,SBD,M
Boys,82.1,1,Travis Swenson,Henrietta,81.47,197.31,142.88,208.65,548.85,Single-ply,SBD,M
Boys,82.1,2,Chance Bledsoe,Wichita Falls Rider,79.65,215.46,111.13,204.12,530.7,Single-ply,SBD,M
Boys,82.1,3,Nolan Jackson,Wichita Falls City View,79.56,217.72,102.06,204.12,523.9,Single-ply,SBD,M
Boys,82.1,4,Crafton Lindenborn,Wichita Falls City View,81.01,183.7,124.74,210.92,519.36,Single-ply,SBD,M
Boys,82.1,5,Reese Cannon,Decatur,81.19,195.04,115.67,201.85,512.56,Single-ply,SBD,M
Boys,82.1,6,Justin Browning,Archer City,79.38,158.76,102.06,176.9,437.72,Single-ply,SBD,M
Boys,82.1,7,Jakub Stockinger,Burkburnett,82.01,151.95,102.06,172.37,426.38,Single-ply,SBD,M
Boys,82.1,8,Rene Lerma,Wichita Falls City View,82.1,165.56,90.72,113.4,369.68,Single-ply,SBD,M
Boys,82.1,9,Mason Downey,Burkburnett,77.11,124.74,68.04,136.08,328.85,Single-ply,SBD,M
Boys,89.81,1,Markos Morales,Whitesboro,86.18,215.46,124.74,233.6,573.79,Single-ply,SBD,M
Boys,89.81,2,Nathan Selman,Decatur,84.64,235.87,117.93,204.12,557.92,Single-ply,SBD,M
Boys,89.81,3,Austin Phillips,Iowa Park,87.63,210.92,136.08,192.78,539.77,Single-ply,SBD,M
Boys,89.81,4,Kaymin Flick,Decatur,84.28,204.12,131.54,201.85,537.51,Single-ply,SBD,M
Boys,89.81,5,Tristan Perez,Wichita Falls Hirschi,87.54,208.65,120.2,195.04,523.9,Single-ply,SBD,M
Boys,89.81,6,Garrett Kemp,Whitesboro,83.19,185.97,115.67,217.72,519.36,Single-ply,SBD,M
Boys,89.81,7,Jadon Stringfellow,Burkburnett,85.82,208.65,113.4,197.31,519.36,Single-ply,SBD,M
Boys,89.81,8,Chris Nabors,Wichita Falls City View,87.09,204.12,111.13,192.78,508.02,Single-ply,SBD,M
Boys,89.81,9,Shawn Howell,Roby,86.09,201.85,97.52,188.24,487.61,Single-ply,SBD,M
Boys,89.81,10,Caleb Wright,Haskell,83.01,183.7,92.99,183.7,460.4,Single-ply,SBD,M
Boys,89.81,11,Gunner Valverde,Wichita Falls Hirschi,85.73,142.88,113.4,181.44,437.72,Single-ply,SBD,M
Boys,89.81,NS,Graham Ledbetter,Whitesboro,,,,,,Single-ply,SBD,M
Boys,99.79,1,Fred Fleeks,Wichita Falls Hirschi,91.08,226.8,122.47,199.58,548.85,Single-ply,SBD,M
Boys,99.79,2,Julian Garcia,Wichita Falls City View,96.71,217.72,102.06,181.44,501.22,Single-ply,SBD,M
Boys,99.79,3,Jacob Esparza,Wichita Falls,99.43,195.04,102.06,190.51,487.61,Single-ply,SBD,M
Boys,99.79,4,Cameron Amador,Wichita Falls Rider,99.34,185.97,90.72,172.37,449.06,Single-ply,SBD,M
Boys,99.79,5,Hayden Meng,Burkburnett,96.52,170.1,88.45,181.44,439.98,Single-ply,SBD,M
Boys,109.77,1,Jimmy Tran,Wichita Falls,105.6,317.51,158.76,254.01,730.28,Single-ply,SBD,M
Boys,109.77,2,Makkedah Brown,Wichita Falls,106.05,254.01,138.35,226.8,619.15,Single-ply,SBD,M
Boys,109.77,3,Austin Adkins,Baird,108.32,204.12,136.08,213.19,553.38,Single-ply,SBD,M
Boys,109.77,4,Chase Stafford,Archer City,105.6,217.72,113.4,219.99,551.11,Single-ply,SBD,M
Boys,109.77,5,Cooper Duke,Burkburnett,103.06,195.04,90.72,219.99,505.76,Single-ply,SBD,M
Boys,109.77,6,Cameron Hudson,Wichita Falls City View,101.97,185.97,106.59,181.44,474,Single-ply,SBD,M
Boys,109.77,7,Cameron Dandridge,Wichita Falls City View,105.23,181.44,142.88,147.42,471.74,Single-ply,SBD,M
Boys,109.77,8,Seth Morales,Wichita Falls,103.78,136.08,83.91,179.17,399.16,Single-ply,SBD,M
Boys,109.77,NS,Tanner Young,Whitesboro,,,,,,Single-ply,SBD,M
Boys,124.74,1,Jayden Parsons,Iowa Park,121.02,249.48,122.47,208.65,580.6,Single-ply,SBD,M
Boys,124.74,2,Ayden Mast,Decatur,112.94,229.06,131.54,204.12,564.72,Single-ply,SBD,M
Boys,124.74,3,Tyler Carper,Baird,118.02,219.99,136.08,195.04,551.11,Single-ply,SBD,M
Boys,124.74,4,Conner Partridge,Wichita Falls Rider,110.31,226.8,113.4,185.97,526.17,Single-ply,SBD,M
Boys,124.74,5,Zane Myracle,Archer City,113.49,190.51,113.4,181.44,485.34,Single-ply,SBD,M
Boys,124.74,6,D'Artanyion Hernandez,Wichita Falls Hirschi,111.13,170.1,102.06,174.63,446.79,Single-ply,SBD,M
Boys,124.74,7,Brady Baird,Wichita Falls City View,110.4,206.38,83.91,154.22,444.52,Single-ply,SBD,M
Boys,124.74,DQ,Ethan Boren,Wichita Falls Hirschi,114.12,188.24,108.86,,,Single-ply,SBD,M
Boys,124.74+,1,Josh Ward,Baird,166.47,226.8,136.08,181.44,544.31,Single-ply,SBD,M
Boys,124.74+,2,Ray Rios,Wichita Falls Hirschi,125.92,195.04,108.86,185.97,489.88,Single-ply,SBD,M
Boys,124.74+,3,Cruz Alaniz,Burkburnett,137.98,185.97,104.33,147.42,437.72,Single-ply,SBD,M
Boys,124.74+,4,Ethan Moulton,Iowa Park,135.71,181.44,92.99,158.76,433.18,Single-ply,SBD,M
Boys,124.74+,NS,Marc Guerra,Burkburnett,,,,,,Single-ply,SBD,M
