Division,WeightClassKg,Place,Name,Team,BodyweightKg,Best3SquatKg,Best3BenchKg,Best3DeadliftKg,TotalKg,Equipment,Event,Sex
Boys,51.71,1,Justin Davis,Buda Hays,49.9,133.81,92.99,142.88,369.68,Single-ply,SBD,M
Boys,51.71,2,Rigo Franco,Poth,50.8,92.99,63.5,102.06,258.55,Single-ply,SBD,M
Boys,51.71,3,Jonathan Bencomo,San Marcos,49.71,83.91,43.09,90.72,217.72,Single-ply,SBD,M
Boys,51.71,DQ,Brian Villarreal,Geronimo Navarro,48.53,90.72,52.16,,,Single-ply,SBD,M
Boys,55.79,1,Thomas Mascorro,San Marcos,54.34,158.76,129.27,176.9,464.93,Single-ply,SBD,M
Boys,55.79,2,Josh Estrada,Gonzales,55.16,138.35,92.99,156.49,387.82,Single-ply,SBD,M
Boys,55.79,DQ,Nate Alvarado,Buda Hays,55.7,154.22,,,,Single-ply,SBD,M
Boys,59.87,1,Zachary Trujillo,Universal City Randolph,59.78,138.35,88.45,161.03,387.82,Single-ply,SBD,M
Boys,59.87,2,Tyler Wells,Gonzales,58.97,142.88,77.11,158.76,378.75,Single-ply,SBD,M
Boys,59.87,3,Jeffrey Johnson,Seguin,59.87,124.74,88.45,161.03,374.21,Single-ply,SBD,M
Boys,59.87,4,Courtney Anderson,San Marcos,58.97,136.08,63.5,136.08,335.66,Single-ply,SBD,M
Boys,59.87,5,Dalton Couch,Gonzales,59.15,129.27,70.31,133.81,333.39,Single-ply,SBD,M
Boys,59.87,6,Hunter Luscombe,Sealy,59.87,120.2,63.5,111.13,294.84,Single-ply,SBD,M
Boys,59.87,7,Ryan Clark,Universal City Randolph,59.06,70.31,52.16,108.86,231.33,Single-ply,SBD,M
Boys,59.87,8,Anthony Lopez,Universal City Randolph,58.97,83.91,61.23,83.91,229.06,Single-ply,SBD,M
Boys,59.87,DQ,James Meyer,Poth,58.06,,,,,Single-ply,SBD,M
Boys,59.87,DQ,Josh Fantauzzi,Buda Hays,58.51,,,,,Single-ply,SBD,M
Boys,67.13,1,Evan DeLeon,Geronimo Navarro,65.77,161.03,92.99,190.51,444.52,Single-ply,SBD,M
Boys,74.84,2,Mason Salinas,Buda Hays,67.36,161.03,97.52,158.76,417.3,Single-ply,SBD,M
Boys,67.13,3,Josh Oldag,Sealy,63.96,158.76,111.13,140.61,410.5,Single-ply,SBD,M
Boys,67.13,4,Alan Johns,Poth,65.5,113.4,113.4,136.08,362.87,Single-ply,SBD,M
Boys,67.13,5,Justin Fish,Poth,61.14,117.93,79.38,138.35,335.66,Single-ply,SBD,M
Boys,67.13,6,Justin Alesander,Universal City Randolph,63.23,108.86,83.91,136.08,328.85,Single-ply,SBD,M
Boys,67.13,7,Brandon De Los Santos,Poth,64.41,113.4,72.57,122.47,308.44,Single-ply,SBD,M
Boys,67.13,8,Marshall Gutierrez,Lockhart,67.13,97.52,61.23,131.54,290.3,Single-ply,SBD,M
Boys,67.13,DQ,Hunter Jansky,Poth,65.68,113.4,,,,Single-ply,SBD,M
Boys,67.13,DQ,Albian Leyva,San Marcos,61.05,83.91,65.77,,,Single-ply,SBD,M
Boys,67.13,DQ,Anthony McKnight,Seguin,61.78,,,,,Single-ply,SBD,M
Boys,67.13,DQ,De'Andre High-Walls,Seguin,67.13,,,,,Single-ply,SBD,M
Boys,74.84,1,Jacob Rodriguez,Geronimo Navarro,74.84,165.56,106.59,181.44,453.59,Single-ply,SBD,M
Boys,74.84,2,Chrisian Hosley,Universal City Randolph,69.22,142.88,102.06,161.03,405.97,Single-ply,SBD,M
Boys,74.84,3,Austin Isaac,Geronimo Navarro,74.84,154.22,92.99,158.76,405.97,Single-ply,SBD,M
Boys,74.84,4,George Olivo,Gonzales,73.84,147.42,106.59,149.69,403.7,Single-ply,SBD,M
Boys,74.84,5,Joel Juarez,Lockhart,71.85,122.47,77.11,165.56,365.14,Single-ply,SBD,M
Boys,74.84,6,Gunner Brown,Lockhart,74.75,122.47,83.91,158.76,365.14,Single-ply,SBD,M
Boys,74.84,7,Brock Gonzales,Universal City Randolph,71.49,104.33,68.04,151.95,324.32,Single-ply,SBD,M
Boys,74.84,8,Dillon Catchings,Gonzales,67.77,111.13,74.84,124.74,310.71,Single-ply,SBD,M
Boys,74.84,9,Mateo Coronado,Poth,70.13,117.93,65.77,124.74,308.44,Single-ply,SBD,M
Boys,74.84,10,Alex Harding,Universal City Randolph,73.03,113.4,61.23,124.74,299.37,Single-ply,SBD,M
Boys,74.84,11,Joel Hinojosa,San Marcos,70.31,113.4,61.23,115.67,290.3,Single-ply,SBD,M
Boys,74.84,DQ,Robert Hernandez,San Marcos,72.85,136.08,90.72,,,Single-ply,SBD,M
Boys,74.84,DQ,Matt Swanson,Universal City Randolph,73.48,,,,,Single-ply,SBD,M
Boys,82.1,1,Hayden Eskew,Buda Hays,79.74,204.12,147.42,226.8,578.33,Single-ply,SBD,M
Boys,82.1,2,DJ Gonzales,Gonzales,78.47,206.38,106.59,199.58,512.56,Single-ply,SBD,M
Boys,82.1,3,Devin Jennings,Buda Hays,77.93,170.1,117.93,199.58,487.61,Single-ply,SBD,M
Boys,82.1,4,Jay Leal,Geronimo Navarro,78.65,183.7,108.86,190.51,483.08,Single-ply,SBD,M
Boys,82.1,5,Jamison Smolka,Poth,76.02,165.56,115.67,176.9,458.13,Single-ply,SBD,M
Boys,82.1,6,Justin Hatfield,Geronimo Navarro,82.1,165.56,102.06,190.51,458.13,Single-ply,SBD,M
Boys,82.1,7,Jacob Flores,San Marcos,80.74,149.69,127.01,176.9,453.59,Single-ply,SBD,M
Boys,82.1,8,Eddie Gonzalez,Gonzales,78.65,174.63,92.99,174.63,442.25,Single-ply,SBD,M
Boys,82.1,9,Alex Avalos,Sealy,79.47,165.56,117.93,147.42,430.91,Single-ply,SBD,M
Boys,82.1,10,Clark Flinn,Geronimo Navarro,82.1,158.76,108.86,151.95,419.57,Single-ply,SBD,M
Boys,82.1,11,Marcos Johnson,Lockhart,81.56,142.88,88.45,176.9,408.23,Single-ply,SBD,M
Boys,82.1,12,Cole Brust,Universal City Randolph,81.83,124.74,79.38,151.95,356.07,Single-ply,SBD,M
Boys,82.1,DQ,Juan Solis,Buda Hays,82.1,,,,,Single-ply,SBD,M
Boys,99.79,1,Jacob Almaguer,Seguin,90.04,215.46,122.47,222.26,560.19,Single-ply,SBD,M
Boys,89.81,2,JT Miller,Gonzales,89.45,176.9,97.52,190.51,464.93,Single-ply,SBD,M
Boys,89.81,3,Bryan London,Universal City Randolph,86.91,142.88,102.06,183.7,428.64,Single-ply,SBD,M
Boys,89.81,DQ,Tanner Brown,Lockhart,86.55,181.44,,,,Single-ply,SBD,M
Boys,89.81,DQ,Steven Cardenas,Seguin,87.09,165.56,,,,Single-ply,SBD,M
Boys,99.79,1,Elijah Tienda,Lockhart,99.34,226.8,122.47,224.53,573.79,Single-ply,SBD,M
Boys,99.79,2,Elias Villalobos,San Marcos,96.34,208.65,111.13,208.65,528.44,Single-ply,SBD,M
Boys,99.79,3,Curtis Hawkins,Lockhart,95.71,215.46,122.47,188.24,526.17,Single-ply,SBD,M
Boys,99.79,4,Kolby Janek,Poth,97.89,192.78,138.35,181.44,512.56,Single-ply,SBD,M
Boys,99.79,5,Joshua Mercado,San Marcos,90.9,170.1,113.4,197.31,480.81,Single-ply,SBD,M
Boys,99.79,6,William Linder,Buda Hays,90.13,174.63,115.67,183.7,474,Single-ply,SBD,M
Boys,99.79,7,Ryan Farrell,Universal City Randolph,93.08,165.56,122.47,183.7,471.74,Single-ply,SBD,M
Boys,99.79,8,Conner Roe,Geronimo Navarro,97.52,170.1,129.27,167.83,467.2,Single-ply,SBD,M
Boys,99.79,9,Anthony Casares,Gonzales,96.98,158.76,92.99,156.49,408.23,Single-ply,SBD,M
Boys,109.77,1,Pj Hall,Seguin,109.77,294.84,158.76,278.96,732.55,Single-ply,SBD,M
Boys,109.77,2,Levi Mair,Lockhart,104.24,215.46,140.61,217.72,573.79,Single-ply,SBD,M
Boys,109.77,3,Bailey Rhoads,Buda Hays,107.05,226.8,111.13,233.6,571.53,Single-ply,SBD,M
Boys,109.77,4,Khalid Schuler,Seguin,109.59,233.6,133.81,181.44,548.85,Single-ply,SBD,M
Boys,109.77,5,Cesar Juarez,Geronimo Navarro,108.86,217.72,120.2,208.65,546.58,Single-ply,SBD,M
Boys,109.77,6,Grant Schlaht,Lockhart,103.51,201.85,115.67,174.63,492.15,Single-ply,SBD,M
Boys,109.77,7,Brian Dolezal,Gonzales,107.77,167.83,120.2,201.85,489.88,Single-ply,SBD,M
Boys,109.77,8,Kurt Bollinger,Sealy,106.96,158.76,104.33,145.15,408.23,Single-ply,SBD,M
Boys,124.74,1,Rivonte Chizer,Seguin,122.92,233.6,147.42,204.12,585.13,Single-ply,SBD,M
Boys,124.74,2,Kaleb Quintanilla,Seguin,122.74,195.04,133.81,192.78,521.63,Single-ply,SBD,M
Boys,124.74,3,Levi Snider,Gonzales,117.12,192.78,117.93,192.78,503.49,Single-ply,SBD,M
Boys,124.74,DQ,Jesse Benavides,San Marcos,116.12,215.46,,,,Single-ply,SBD,M
Boys,124.74+,1,Ray Sedwick,Lockhart,130.36,272.16,190.51,226.8,689.46,Single-ply,SBD,M
Boys,124.74+,2,Ryne Lehman,Lockhart,146.24,231.33,183.7,226.8,641.83,Single-ply,SBD,M
Boys,124.74+,3,Isaiah Bosquez,San Marcos,134.17,190.51,106.59,170.1,467.2,Single-ply,SBD,M
