Sex,Equipment,Division,WeightClassKg,Name,BodyweightKg,Best3SquatKg,Best3BenchKg,Bench4Kg,Best3DeadliftKg,TotalKg,Event,Place
F,Wraps,Amateur Open,48,Jamie Silver,47.08,97.52,34.02,,102.06,233.6,SBD,1
F,Wraps,Amateur Open,56,Linda Guthrie,53.98,74.84,54.43,,108.86,238.14,SBD,1
F,Wraps,Amateur Teen 18-19,56,Yelena Espinoza,55.61,102.06,58.97,,151.95,312.98,SBD,1
F,Wraps,Amateur Juniors 20-23,56,Colleen Courbron,54.16,113.4,47.63,,113.4,274.42,SBD,1
F,Wraps,Pro Open,60,Julia Ladewski,59.33,136.08,83.91,,158.76,378.75,SBD,1
F,Wraps,Amateur Juniors 20-23,67.5,Shannon Lynch,66.13,113.4,58.97,,145.15,317.51,SBD,1
F,Wraps,Amateur Open,67.5,April Doherty,65.77,79.38,45.36,,102.06,226.8,SBD,2
F,Wraps,Amateur Open,67.5,Jewel Alloway,67.22,74.84,38.56,,124.74,238.14,SBD,1
F,Wraps,Pro Open,67.5,Kaylan Ostrander,65.59,138.35,70.31,,167.83,376.48,SBD,1
F,Wraps,Military Amateur Open,75,Brandi Washington,69.76,111.13,72.57,,163.29,347,SBD,1
F,Wraps,Amateur Open,75,Katelyn Morytko,74.12,113.4,49.9,,142.88,306.17,SBD,2
F,Wraps,Amateur Open,75,Diana Bramble,73.39,83.91,49.9,,117.93,251.74,SBD,4
F,Wraps,Amateur Open,75,Christina Cope,73.48,127.01,54.43,,136.08,317.51,SBD,1
F,Wraps,Amateur Open,75,Megan Connelly,74.93,111.13,54.43,,138.35,303.91,SBD,3
F,Wraps,Amateur Juniors 20-23,82.5,Caitlin Walters,82.19,99.79,56.7,,122.47,278.96,SBD,1
F,Wraps,Amateur Open,100,Aranda Brown,98.79,147.42,63.5,,192.78,403.7,SBD,1
F,Wraps,Amateur Masters 45-49,110+,Susan Knause,112.49,120.2,65.77,,149.69,335.66,SBD,1
M,Wraps,Amateur Juniors 20-23,67.5,Connor Effinger,64.86,131.54,74.84,,174.63,381.02,SBD,1
M,Wraps,Amateur Open,67.5,Peter Giglio Jr,65.14,127.01,99.79,,149.69,376.48,SBD,2
M,Wraps,Amateur Open,67.5,Edward Kim,66.77,172.37,128.14,,217.72,518.23,SBD,1
M,Wraps,Amateur Teen 18-19,75,Ian Edmundson,71.94,133.81,97.52,,176.9,408.23,SBD,2
M,Wraps,Military Pro Open,75,John Battle,72.76,172.37,149.69,,204.12,526.17,SBD,1
M,Wraps,Amateur Submasters 33-39,75,Eric Anderson #3,72.03,190.51,131.54,,183.7,505.76,SBD,1
M,Wraps,Amateur Teen 14-15,75,Riley Johnson,69.49,165.56,117.93,122.47,172.37,455.86,SBD,1
M,Wraps,Amateur Teen 18-19,75,Austin James Brady,72.94,179.17,108.86,,213.19,501.22,SBD,1
M,Wraps,Amateur Juniors 20-23,82.5,John Zeitz III,80.38,215.46,142.88,,235.87,594.21,SBD,1
M,Wraps,Amateur Open,82.5,Hernan Leonardo Vargas,81.37,188.24,154.22,,247.21,589.67,SBD,1
M,Wraps,Military Amateur Open,82.5,Joshua Hannum,80.92,183.7,129.27,,229.06,542.04,SBD,1
M,Wraps,Amateur Juniors 20-23,82.5,Brandon Cintron,82.1,197.31,127.01,,226.8,551.11,SBD,2
M,Wraps,Amateur Open,82.5,Curtis Bryant,81.37,204.12,142.88,,213.19,560.19,SBD,3
M,Wraps,Amateur Open,82.5,Mike Shaffer,81.1,201.85,138.35,,247.21,587.4,SBD,2
M,Wraps,Amateur Open,90,Matt Summers,88.09,170.1,127.01,,215.46,512.56,SBD,2
M,Wraps,Pro Open,90,Robert Lewis,89.45,170.1,136.08,,192.78,498.95,SBD,4
M,Wraps,Amateur Open,90,Jason Painter,88.45,204.12,136.08,,226.8,566.99,SBD,1
M,Wraps,Police Amateur Open,90,Brandon Cuomo,87.63,217.72,149.69,,267.62,635.03,SBD,1
M,Wraps,Pro Open,90,Ryan Smith,89.27,219.99,129.27,,265.35,614.62,SBD,3
M,Wraps,Pro Open,90,Chad Whisman,89.63,260.82,136.08,,226.8,623.69,SBD,2
M,Wraps,Pro Open,90,Keith Steele Gavazzi,88.63,240.4,158.76,,288.03,687.19,SBD,1
M,Wraps,Amateur Open,100,Josh Jones,95.98,158.76,117.93,,215.46,492.15,SBD,5
M,Wraps,Amateur Open,100,David Baker #2,99.61,188.24,113.4,,226.8,528.44,SBD,3
M,Wraps,Amateur Open,100,Darrell Taylor,99.7,199.58,161.03,,229.06,589.67,SBD,2
M,Wraps,Military Pro Open,100,Daniel Killion,96.8,215.46,151.95,,274.42,641.83,SBD,1
M,Wraps,Amateur Juniors 20-23,100,Tyler Green,96.98,183.7,120.2,,247.21,551.11,SBD,1
M,Wraps,Amateur Open,100,Chris Bolesta,98.16,188.24,108.86,,229.06,526.17,SBD,4
M,Wraps,Amateur Open,100,Jason Wesley,97.75,217.72,142.88,,263.08,623.69,SBD,1
M,Wraps,Elite Open,100,Colin Ripley,98.97,317.51,165.56,,292.57,775.64,SBD,1
M,Wraps,Police Amateur Open,100,Chris Bolesta,98.16,188.24,108.86,,229.06,526.17,SBD,1
M,Wraps,Pro Juniors 20-23,100,Colin Ripley,98.97,317.51,165.56,,292.57,775.64,SBD,1
M,Wraps,Pro Masters 40-44,100,Bill Emmons,99.88,192.78,142.88,,281.23,616.89,SBD,1
M,Single-ply,Police Pro Open,100,David Marino,94.17,285.76,192.78,,249.48,728.02,SBD,1
M,Single-ply,Pro Open,100,David Marino,94.17,285.76,192.78,,249.48,728.02,SBD,1
M,Wraps,Military Amateur Open,110,Thomas Scibelli,106.32,233.6,145.15,,285.76,664.51,SBD,1
M,Wraps,Military Pro Masters 50+,110,Damon Senaha,106.96,154.22,104.33,,208.65,467.2,SBD,1
M,Wraps,Pro Masters 50-54,110,Damon Senaha,106.96,154.22,104.33,,208.65,467.2,SBD,1
M,Wraps,Pro Open,110,Daniel Fox,108.86,226.8,204.12,,306.17,737.09,SBD,2
M,Wraps,Military Pro Open,110,Joshua Horne,104.78,274.42,192.78,,274.42,741.62,SBD,1
M,Wraps,Pro Open,110,Josh Smith #3,109.59,408.23,233.6,,324.32,966.15,SBD,1
M,Wraps,Amateur Juniors 20-23,125,Zach Gallion,124.92,222.26,138.35,,272.16,632.76,SBD,1
M,Wraps,Military Pro Open,125,Mark Hummel,112.13,190.51,147.42,,210.92,548.85,SBD,1
M,Single-ply,Amateur Masters 60-64,125,Marvin Smith,119.57,147.42,106.59,,136.08,390.09,SBD,1
M,Wraps,Pro Open,140,Chris Westover,135.53,231.33,185.97,,249.48,666.78,SBD,1
M,Wraps,Pro Open,82.5,Andrew Sia,79.11,247.21,,,,247.21,S,1
M,Wraps,Amateur Open,110,Mark Chaffer,106.96,267.62,,,,267.62,S,1
M,Raw,Amateur Submasters 33-39,75,Jermaine D. Moore,74.66,,170.1,,,170.1,B,1
M,Raw,Military Pro Open,82.5,Matthew Reep,79.47,,185.97,,,185.97,B,1
M,Raw,Amateur Open,90,Joshua McFarlane,88.9,,181.44,,,181.44,B,1
M,Raw,Military Amateur Open,110,Garsevan Mkrtichian,106.14,,165.56,,272.16,437.72,BD,1
M,Raw,Military Amateur Open,110,Garsevan Mkrtichian,106.14,,165.56,,272.16,437.72,BD,2
F,Raw,Amateur Submasters 33-39,75,Brandi Washington,69.76,,,,163.29,163.29,D,1
M,Raw,Amateur Open,82.5,Mike Shaffer,81.1,,,,247.21,247.21,D,1
