Division,WeightClassKg,Place,Name,Team,BodyweightKg,Best3SquatKg,Best3BenchKg,Best3DeadliftKg,TotalKg,Equipment,Event,Sex
Boys,51.71,1,Ethan Payne,Bonham,49.53,104.33,47.63,111.13,263.08,Single-ply,SBD,M
Boys,55.79,2,Dalton Parfait,Bonham,51.94,88.45,49.9,117.93,256.28,Single-ply,SBD,M
Boys,51.71,3,Matt Howard,Celina,48.44,74.84,45.36,97.52,217.72,Single-ply,SBD,M
Boys,51.71,4,Lj Byork,Gainesville,45.45,40.82,27.22,79.38,147.42,Single-ply,SBD,M
Boys,55.79,1,Jacob Grubisa,Farmersville,55.7,147.42,56.7,161.03,365.14,Single-ply,SBD,M
Boys,55.79,2,Juan Salazar,Bonham,53.52,129.27,92.99,140.61,362.87,Single-ply,SBD,M
Boys,55.79,3,Alex Rushing,Whitewright,55.07,127.01,81.65,136.08,344.73,Single-ply,SBD,M
Boys,55.79,4,Ozawaldo Medina,Gainesville,55.61,136.08,68.04,136.08,340.19,Single-ply,SBD,M
Boys,55.79,5,Michael Slack,Whitewright,55.52,113.4,88.45,127.01,328.85,Single-ply,SBD,M
Boys,55.79,6,Ryan Holmen,Aubrey,55.79,104.33,70.31,127.01,301.64,Single-ply,SBD,M
Boys,55.79,7,Zach Brigandi,Little Elm,54.88,108.86,61.23,113.4,283.5,Single-ply,SBD,M
Boys,55.79,8,Dalton Waller,Princeton,53.98,102.06,56.7,113.4,272.16,Single-ply,SBD,M
Boys,55.79,9,Adrian Tostado,Sanger,55.25,102.06,54.43,99.79,256.28,Single-ply,SBD,M
Boys,55.79,10,Michael Ducharme,Nocona Prairie Valley,55.25,,72.57,106.59,179.17,Single-ply,BD,M
Boys,55.79,DQ,Colten Lillard,Gainesville,54.79,102.06,52.16,,,Single-ply,SBD,M
Boys,67.13,1,Cole Owens,Bonham,60.06,156.49,81.65,158.76,396.89,Single-ply,SBD,M
Boys,59.87,2,Fernando Salas,Farmersville,58.88,142.88,90.72,156.49,390.09,Single-ply,SBD,M
Boys,59.87,3,Lane Simpson,Bonham,59.51,138.35,83.91,163.29,385.55,Single-ply,SBD,M
Boys,59.87,4,Dalton Hill,Van Alstyne,59.06,122.47,72.57,147.42,342.46,Single-ply,SBD,M
Boys,59.87,5,Michael Hellman,Lindsay,56.79,124.74,77.11,136.08,337.93,Single-ply,SBD,M
Boys,59.87,6,Caleb Scott,Aubrey,58.6,122.47,74.84,140.61,337.93,Single-ply,SBD,M
Boys,59.87,7,Zach Wright,Van Alstyne,59.33,129.27,81.65,127.01,337.93,Single-ply,SBD,M
Boys,59.87,8,Johnathan Venable,Anna,58.24,127.01,79.38,129.27,335.66,Single-ply,SBD,M
Boys,59.87,9,Tyler Shipman,Collinsville,59.33,113.4,61.23,140.61,315.25,Single-ply,SBD,M
Boys,59.87,10,Chase Otto,Lindsay,57.24,124.74,61.23,124.74,310.71,Single-ply,SBD,M
Boys,67.13,11,Zak Franzeo,Sadler S & S Cons,60.06,111.13,54.43,136.08,301.64,Single-ply,SBD,M
Boys,67.13,DQ,Deiontay Cornelius,Little Elm,60.06,165.56,,,,Single-ply,SBD,M
Boys,59.87,DQ,Andrew Magedson,Leonard,59.69,,,,,Single-ply,SBD,M
Boys,67.13,1,Tyler Williams,Aubrey,66.68,188.24,106.59,192.78,487.61,Single-ply,SBD,M
Boys,67.13,2,Erik Torres,Celina,62.96,170.1,131.54,165.56,467.2,Single-ply,SBD,M
Boys,67.13,3,Daniel Hernandez,Princeton,63.14,156.49,79.38,167.83,403.7,Single-ply,SBD,M
Boys,67.13,4,Christian Contreras,Leonard,64.23,140.61,97.52,145.15,383.29,Single-ply,SBD,M
Boys,74.84,5,Phillip Mayfield,Princeton,67.22,142.88,74.84,154.22,371.95,Single-ply,SBD,M
Boys,67.13,6,Ryan Slagle,Pottsboro,64.86,145.15,83.91,136.08,365.14,Single-ply,SBD,M
Boys,74.84,7,Eric de la Cruz,Pottsboro,67.31,131.54,83.91,142.88,358.34,Single-ply,SBD,M
Boys,67.13,8,Gavin Brown,Sanger,67.13,142.88,72.57,136.08,351.53,Single-ply,SBD,M
Boys,74.84,9,Roy Goins,Little Elm,67.31,127.01,72.57,142.88,342.46,Single-ply,SBD,M
Boys,67.13,10,Charlie Martinez,Farmersville,61.05,122.47,79.38,133.81,335.66,Single-ply,SBD,M
Boys,67.13,11,Raul Rico,Gunter,66.41,120.2,72.57,142.88,335.66,Single-ply,SBD,M
Boys,67.13,12,Kamron Hansen,Whitewright,66.68,120.2,77.11,122.47,319.78,Single-ply,SBD,M
Boys,67.13,13,Derek Thacker,Valley View,62.41,122.47,61.23,117.93,301.64,Single-ply,SBD,M
Boys,67.13,14,Che Nipper,Pottsboro,66.22,97.52,54.43,102.06,254.01,Single-ply,SBD,M
Boys,67.13,DQ,Grant Carter,Sanger,64.77,172.37,122.47,,,Single-ply,SBD,M
Boys,67.13,DQ,Leo Sustaita,Gainesville,66.86,,,,,Single-ply,SBD,M
Boys,67.13,DQ,Mikey Hymel,Howe,64.32,,77.11,140.61,,Single-ply,SBD,M
Boys,67.13,DQ,Justin Schlegel,Nocona Prairie Valley,64.86,,54.43,127.01,,Single-ply,SBD,M
Boys,74.84,1,Ty Slaughter,Anna,72.57,247.21,147.42,244.94,639.57,Single-ply,SBD,M
Boys,74.84,2,Antonio Barragan,Anna,72.21,181.44,113.4,181.44,476.27,Single-ply,SBD,M
Boys,74.84,3,Jackson Havis,Sanger,73.12,172.37,113.4,181.44,467.2,Single-ply,SBD,M
Boys,74.84,4,Tyler Tarrence,Little Elm,70.22,181.44,97.52,183.7,462.66,Single-ply,SBD,M
Boys,74.84,5,Alejandro Vazquez,Little Elm,72.67,176.9,97.52,183.7,458.13,Single-ply,SBD,M
Boys,74.84,6,Dusty Burris,Princeton,72.12,158.76,106.59,174.63,439.98,Single-ply,SBD,M
Boys,74.84,7,Garrett Self,Collinsville,69.49,172.37,88.45,174.63,435.45,Single-ply,SBD,M
Boys,74.84,8,Rodrigo Castillo,Farmersville,68.86,158.76,83.91,190.51,433.18,Single-ply,SBD,M
Boys,74.84,9,Danny Compton,Whitesboro,71.85,158.76,97.52,170.1,426.38,Single-ply,SBD,M
Boys,74.84,10,Evan Wilson,Bonham,72.85,151.95,86.18,179.17,417.3,Single-ply,SBD,M
Boys,74.84,11,Ronnie Hart,Leonard,72.12,145.15,79.38,174.63,399.16,Single-ply,SBD,M
Boys,74.84,12,Drew Patterson,Celina,71.67,138.35,95.25,156.49,390.09,Single-ply,SBD,M
Boys,74.84,13,Noah Morris,Anna,74.3,138.35,70.31,181.44,390.09,Single-ply,SBD,M
Boys,74.84,14,Luis Betancourt,Gunter,74.84,136.08,95.25,154.22,385.55,Single-ply,SBD,M
Boys,74.84,15,Austin Mars,Anna,73.12,136.08,88.45,158.76,383.29,Single-ply,SBD,M
Boys,74.84,16,Joseph Villanuevd,Blue Ridge,72.48,136.08,83.91,161.03,381.02,Single-ply,SBD,M
Boys,74.84,17,Christian Hernandez,Callisburg,73.66,129.27,90.72,158.76,378.75,Single-ply,SBD,M
Boys,74.84,18,Jp Queen,Howe,72.12,138.35,86.18,147.42,371.95,Single-ply,SBD,M
Boys,74.84,19,Frank Castorena,Collinsville,67.77,145.15,65.77,156.49,367.41,Single-ply,SBD,M
Boys,74.84,20,Garrett Douglas,Van Alstyne,71.49,129.27,81.65,151.95,362.87,Single-ply,SBD,M
Boys,74.84,21,Dylan Moreau,Howe,68.4,129.27,79.38,147.42,356.07,Single-ply,SBD,M
Boys,74.84,22,Bailey McCoy,Muenster,73.21,131.54,70.31,136.08,337.93,Single-ply,SBD,M
Boys,74.84,23,Latigo Mantooth,Sadler S & S Cons,70.08,124.74,90.72,120.2,335.66,Single-ply,SBD,M
Boys,74.84,24,Colby Coley,Celina,67.86,111.13,70.31,149.69,331.12,Single-ply,SBD,M
Boys,82.1,25,Matthew Sudrez,Nocona Prairie Valley,75.02,115.67,68.04,136.08,319.78,Single-ply,SBD,M
Boys,74.84,26,Will Duke,Celina,68.49,111.13,70.31,124.74,306.17,Single-ply,SBD,M
Boys,74.84,DQ,Kolby Langham,Whitewright,69.67,,,,,Single-ply,SBD,M
Boys,82.1,1,Tanner Johnson,Whitesboro,75.84,238.14,113.4,238.14,589.67,Single-ply,SBD,M
Boys,82.1,2,Jake Haker,Van Alstyne,79.65,208.65,136.08,197.31,542.04,Single-ply,SBD,M
Boys,82.1,3,Jordan Fortner,Melissa,77.2,185.97,122.47,219.99,528.44,Single-ply,SBD,M
Boys,82.1,4,Preston Bluett,Princeton,76.57,197.31,97.52,192.78,487.61,Single-ply,SBD,M
Boys,82.1,5,Brandon Murphey,Whitesboro,81.01,195.04,106.59,185.97,487.61,Single-ply,SBD,M
Boys,82.1,6,Jose Betancourt,Gunter,78.83,170.1,102.06,183.7,455.86,Single-ply,SBD,M
Boys,82.1,7,Garrett Hunter,Gunter,79.56,161.03,113.4,181.44,455.86,Single-ply,SBD,M
Boys,89.81,8,Chon Hernandez,Gainesville,82.28,181.44,102.06,165.56,449.06,Single-ply,SBD,M
Boys,82.1,9,Trevor Buckaloo,Bonham,81.83,165.56,90.72,167.83,424.11,Single-ply,SBD,M
Boys,82.1,10,Tanner Young,Leonard,78.29,142.88,88.45,181.44,412.77,Single-ply,SBD,M
Boys,82.1,11,Jake Galbreath,Sanger,80.1,149.69,113.4,145.15,408.23,Single-ply,SBD,M
Boys,82.1,12,John Cooper,Whitewright,79.56,149.69,81.65,174.63,405.97,Single-ply,SBD,M
Boys,82.1,13,Zane Martinez,Pottsboro,81.65,158.76,81.65,163.29,403.7,Single-ply,SBD,M
Boys,82.1,14,Alec Kyle,Anna,78.56,145.15,97.52,158.76,401.43,Single-ply,SBD,M
Boys,89.81,15,Max Ochs,Pottsboro,82.19,151.95,86.18,151.95,390.09,Single-ply,SBD,M
Boys,82.1,16,Kyle Klemont,Muenster,81.74,149.69,95.25,140.61,385.55,Single-ply,SBD,M
Boys,82.1,17,Zane Kemp,Muenster,82.01,149.69,83.91,131.54,365.14,Single-ply,SBD,M
Boys,82.1,18,John Hill,Whitewright,79.38,131.54,92.99,136.08,360.61,Single-ply,SBD,M
Boys,82.1,19,Tyler Carter,Nocona Prairie Valley,79.65,113.4,77.11,136.08,326.59,Single-ply,SBD,M
Boys,82.1,20,Reece Miller,Bonham,81.47,161.03,92.99,,254.01,Single-ply,SB,M
Boys,82.1,21,Jace Greening,Celina,78.47,,90.72,149.69,240.4,Single-ply,BD,M
Boys,82.1,22,Blake Williams,Collinsville,81.47,113.4,,,113.4,Single-ply,S,M
Boys,82.1,DQ,Nicholas Rivera,Gunter,79.83,183.7,106.59,,,Single-ply,SB,M
Boys,82.1,DQ,Will Roane,Gunter,79.11,88.45,,,,Single-ply,S,M
Boys,82.1,DQ,Russ Morrow,Aubrey,76.2,,,,,Single-ply,S,M
Boys,82.1,DQ,Robert Phillips,Sanger,77.56,158.76,106.59,147.42,,Single-ply,SBD,M
Boys,89.81,1,Charles Ijioma,Little Elm,88.18,217.72,136.08,229.06,582.87,Single-ply,SBD,M
Boys,99.79,2,Chris de la Cruz,Pottsboro,89.9,208.65,136.08,213.19,557.92,Single-ply,SBD,M
Boys,99.79,3,Kevin Williams,Aubrey,89.9,204.12,142.88,206.38,553.38,Single-ply,SBD,M
Boys,89.81,4,Enrique Perez,Aubrey,86.36,188.24,127.01,192.78,508.02,Single-ply,SBD,M
Boys,89.81,5,Dalton Hess,Muenster,88.9,195.04,102.06,188.24,485.34,Single-ply,SBD,M
Boys,89.81,6,Jeremy Mansur,Anna,89.58,161.03,117.93,172.37,451.32,Single-ply,SBD,M
Boys,89.81,7,Parker Johnson,Collinsville,83.82,181.44,83.91,174.63,439.98,Single-ply,SBD,M
Boys,89.81,8,Jesse Allen,Collinsville,88.18,151.95,86.18,172.37,410.5,Single-ply,SBD,M
Boys,89.81,9,Preston Eaves,Leonard,88.72,151.95,90.72,161.03,403.7,Single-ply,SBD,M
Boys,89.81,10,Zach Rhone,Leonard,87.45,122.47,90.72,188.24,401.43,Single-ply,SBD,M
Boys,89.81,11,Blake Tredway,Anna,89.36,149.69,95.25,156.49,401.43,Single-ply,SBD,M
Boys,89.81,12,Mendle Kunkle,Pottsboro,88.81,151.95,83.91,149.69,385.55,Single-ply,SBD,M
Boys,89.81,13,Ryan Burnett,Leonard,89.72,149.69,86.18,149.69,385.55,Single-ply,SBD,M
Boys,89.81,14,Nick Osbourne,Pottsboro,84.28,138.35,88.45,147.42,374.21,Single-ply,SBD,M
Boys,89.81,15,Chris Tracy,Anna,83.46,115.67,90.72,142.88,349.27,Single-ply,SBD,M
Boys,89.81,16,Ross Brumley,Aubrey,89.81,,117.93,192.78,310.71,Single-ply,BD,M
Boys,89.81,17,Jose Mata,Callisburg,84.28,,90.72,165.56,256.28,Single-ply,BD,M
Boys,89.81,18,Drew Martin,Collinsville,87.36,156.49,99.79,,256.28,Single-ply,SB,M
Boys,89.81,19,Ryan Massey,Princeton,88.45,,90.72,158.76,249.48,Single-ply,BD,M
Boys,99.79,1,Keith Ngondo,Little Elm,95.44,294.84,133.81,267.62,696.26,Single-ply,SBD,M
Boys,99.79,2,Dylan Branson,Little Elm,96.89,244.94,129.27,206.38,580.6,Single-ply,SBD,M
Boys,99.79,3,Ruben Hernandez,Gainesville,97.61,215.46,136.08,204.12,555.65,Single-ply,SBD,M
Boys,99.79,4,Jonathan Havis,Sanger,96.98,206.38,129.27,201.85,537.51,Single-ply,SBD,M
Boys,99.79,5,Rey Lomas,Valley View,97.79,231.33,113.4,174.63,519.36,Single-ply,SBD,M
Boys,99.79,6,Daniel Paque,Celina,97.79,170.1,122.47,172.37,464.93,Single-ply,SBD,M
Boys,99.79,7,Landon Collum,Van Alstyne,98.88,156.49,88.45,172.37,417.3,Single-ply,SBD,M
Boys,99.79,8,Tyler Pickett,Howe,96.52,156.49,92.99,161.03,410.5,Single-ply,SBD,M
Boys,99.79,9,Alex Rangel,Celina,97.16,165.56,79.38,163.29,408.23,Single-ply,SBD,M
Boys,99.79,10,Kimball Daniels,Van Alstyne,97.61,142.88,95.25,158.76,396.89,Single-ply,SBD,M
Boys,99.79,11,Lane Theis,Farmersville,97.07,136.08,70.31,158.76,365.14,Single-ply,SBD,M
Boys,99.79,12,Eli Shinn,Farmersville,95.57,111.13,61.23,147.42,319.78,Single-ply,SBD,M
Boys,99.79,13,Angelo Gomez,Nocona Prairie Valley,98.61,,88.45,124.74,213.19,Single-ply,BD,M
Boys,109.77,1,Landon Hallmark,Little Elm,109.13,272.16,142.88,272.16,687.19,Single-ply,SBD,M
Boys,109.77,2,Garrett Grayson,Sanger,105.41,238.14,138.35,226.8,603.28,Single-ply,SBD,M
Boys,109.77,3,Calin Hardin,Gainesville,105.41,233.6,136.08,217.72,587.4,Single-ply,SBD,M
Boys,109.77,4,Ryan Langley,Sanger,108.59,238.14,151.95,195.04,585.13,Single-ply,SBD,M
Boys,109.77,5,Ethan Lawson,Sadler S & S Cons,108.95,210.92,154.22,215.46,580.6,Single-ply,SBD,M
Boys,109.77,6,Cason Riley,Leonard,102.15,204.12,131.54,217.72,553.38,Single-ply,SBD,M
Boys,109.77,7,Matt Bramer,Van Alstyne,106.59,224.53,136.08,192.78,553.38,Single-ply,SBD,M
Boys,109.77,8,Kelvin McKee,Little Elm,104.6,217.72,102.06,222.26,542.04,Single-ply,SBD,M
Boys,109.77,9,Kent Haskett,Whitewright,108.14,199.58,117.93,208.65,526.17,Single-ply,SBD,M
Boys,109.77,10,Nathan Ellison,Aubrey,105.96,165.56,111.13,204.12,480.81,Single-ply,SBD,M
Boys,109.77,11,Hudson Barnes,Leonard,109.13,172.37,122.47,181.44,476.27,Single-ply,SBD,M
Boys,109.77,12,Ian Mauldin,Leonard,100.97,174.63,99.79,181.44,455.86,Single-ply,SBD,M
Boys,109.77,13,Tristen Torres,Sadler S & S Cons,102.06,163.29,86.18,176.9,426.38,Single-ply,SBD,M
Boys,109.77,14,Max Castillo,Melissa,106.32,147.42,115.67,154.22,417.3,Single-ply,SBD,M
Boys,109.77,15,Javier Venegas,Valley View,100.52,172.37,81.65,142.88,396.89,Single-ply,SBD,M
Boys,109.77,16,Chris Suarez,Princeton,109.59,158.76,,185.97,344.73,Single-ply,SD,M
Boys,109.77,17,David Gray,Aubrey,109.13,190.51,120.2,,310.71,Single-ply,SB,M
Boys,109.77,18,Levi Henry,Callisburg,103.69,151.95,90.72,,242.67,Single-ply,SB,M
Boys,109.77,19,Kayl Powers,Collinsville,109.41,,113.4,,113.4,Single-ply,B,M
Boys,109.77,DQ,Asael Lagos,Gainesville,103.51,204.12,86.18,,,Single-ply,SB,M
Boys,109.77,DQ,Jamien Ruguliza,Princeton,102.87,154.22,,156.49,,Single-ply,SBD,M
Boys,109.77,DQ,Skyler Finnigan,Little Elm,107.5,197.31,104.33,197.31,,Single-ply,SBD,M
Boys,124.74,1,Tristan Robinson,Whitesboro,111.77,240.4,151.95,224.53,616.89,Single-ply,SBD,M
Boys,124.74,2,Damon Lippert,Sanger,124.19,204.12,147.42,181.44,532.97,Single-ply,SBD,M
Boys,124.74,3,Keylynn Rushing,Princeton,113.67,181.44,122.47,210.92,514.83,Single-ply,SBD,M
Boys,124.74,4,Travis Shouse,Anna,115.67,183.7,120.2,170.1,474,Single-ply,SBD,M
Boys,124.74,5,Justin Bates,Blue Ridge,115.48,124.74,79.38,136.08,340.19,Single-ply,SBD,M
Boys,124.74,DQ,Jonathan Smith,Aubrey,122.74,174.63,104.33,,,Single-ply,SBD,M
Boys,124.74,DQ,Ryan Folk,Van Alstyne,113.67,204.12,138.35,,,Single-ply,SBD,M
Boys,124.74,DQ,Sheldon Parkman,Gunter,113.85,269.89,,,,Single-ply,SBD,M
Boys,124.74,DQ,Austin Bearden,Howe,121.65,,70.31,158.76,,Single-ply,SBD,M
Boys,124.74,DQ,Russell Carey,Whitesboro,114.67,208.65,,,,Single-ply,SBD,M
Boys,124.74+,1,Manny Rodriguez,Gainesville,126.19,272.16,136.08,233.6,641.83,Single-ply,SBD,M
Boys,124.74+,2,Kasey Misenheimer,Whitesboro,130.54,244.94,149.69,233.6,628.23,Single-ply,SBD,M
Boys,124.74+,3,Dawson Medler,Pottsboro,129.36,249.48,151.95,204.12,605.55,Single-ply,SBD,M
Boys,124.74+,4,Max Gafford,Blue Ridge,155.4,201.85,124.74,206.38,532.97,Single-ply,SBD,M
Boys,124.74+,5,Hunter Ellender,Lindsay,126.82,215.46,102.06,183.7,501.22,Single-ply,SBD,M
Boys,124.74+,6,Dominic Little,Whitewright,132.54,208.65,90.72,151.95,451.32,Single-ply,SBD,M
Boys,124.74+,7,Derek Templemen,Princeton,133.27,,172.37,242.67,415.04,Single-ply,BD,M
Boys,124.74+,8,Mike Grimes,Princeton,154.86,183.7,127.01,,310.71,Single-ply,SB,M
Boys,124.74+,9,Tyler Loftin,Aubrey,132.18,181.44,,,181.44,Single-ply,S,M
