Division,WeightClassKg,Place,Name,Team,BodyweightKg,Best3SquatKg,Best3BenchKg,Best3DeadliftKg,TotalKg,Equipment,Event,Sex
Boys,51.71,1,Juan Trejo,Friona,51.44,188.24,86.18,167.83,442.25,Single-ply,SBD,M
Boys,51.71,2,Cody Henson,Abernathy,48.99,124.74,72.57,161.03,358.34,Single-ply,SBD,M
Boys,51.71,3,Nathan Flores,Friona,51.62,129.27,65.77,149.69,344.73,Single-ply,SBD,M
Boys,51.71,4,Derek Barron,Muleshoe,51.62,136.08,68.04,138.35,342.46,Single-ply,SBD,M
Boys,51.71,5,Germain Casares,Sunray,49.9,124.74,65.77,140.61,331.12,Single-ply,SBD,M
Boys,51.71,6,Lane Smith,Ozona,49.8,133.81,72.57,120.2,326.59,Single-ply,SBD,M
Boys,51.71,7,Payton Rhodes,Hart,50.62,108.86,65.77,117.93,292.57,Single-ply,SBD,M
Boys,51.71,8,Caden Rocha,Panhandle,50.08,120.2,58.97,111.13,290.3,Single-ply,SBD,M
Boys,51.71,9,Toby Crabb,Slaton,50.98,108.86,65.77,108.86,283.5,Single-ply,SBD,M
Boys,51.71,10,Robert Soliz,Sundown,51.71,102.06,65.77,113.4,281.23,Single-ply,SBD,M
Boys,51.71,NS,Alejandro Diaz,Hart,,,,,,Single-ply,SBD,M
Boys,51.71,DQ,Jaime Rios,Big Lake Reagan County,50.98,,,,,Single-ply,SBD,M
Boys,55.79,1,Raul Rey,Big Lake Reagan County,55.79,192.78,77.11,192.78,462.66,Single-ply,SBD,M
Boys,55.79,2,Pablo Mendoza,Sundown,55.07,142.88,86.18,176.9,405.97,Single-ply,SBD,M
Boys,55.79,3,Brennan Riker,Post,53.61,161.03,88.45,154.22,403.7,Single-ply,SBD,M
Boys,55.79,4,Tristen Thompson,Merkel,55.43,151.95,102.06,142.88,396.89,Single-ply,SBD,M
Boys,55.79,5,Tony Ortiz,Big Lake Reagan County,55.25,149.69,95.25,147.42,392.36,Single-ply,SBD,M
Boys,55.79,6,Zaniel Florez,Kermit,55.7,145.15,74.84,151.95,371.95,Single-ply,SBD,M
Boys,55.79,7,Preston Mann,Amarillo Highland Park,54.7,136.08,83.91,142.88,362.87,Single-ply,SBD,M
Boys,55.79,8,Angel Carranza,Friona,55.16,142.88,72.57,145.15,360.61,Single-ply,SBD,M
Boys,55.79,9,Carlos Perez,Sundown,55.52,129.27,79.38,142.88,351.53,Single-ply,SBD,M
Boys,55.79,10,Radek Spatz,Miles,55.7,133.81,72.57,136.08,342.46,Single-ply,SBD,M
Boys,55.79,DQ,Tay Tay Flowers,Slaton,54.98,,,,,Single-ply,SBD,M
Boys,55.79,DQ,Alex Castellanos,Sunray,54.79,,,,,Single-ply,SBD,M
Boys,59.87,1,Christian Teichelman,Childress,58.42,195.04,136.08,204.12,535.24,Single-ply,SBD,M
Boys,59.87,2,Josh Chavarin,Slaton,59.6,167.83,77.11,192.78,437.72,Single-ply,SBD,M
Boys,59.87,3,Ryan Garcia,Ralls,59.87,176.9,83.91,165.56,426.38,Single-ply,SBD,M
Boys,59.87,4,Lleyton Frazier,Tuscola Jim Ned,58.06,145.15,97.52,158.76,401.43,Single-ply,SBD,M
Boys,59.87,5,Sergio Gonzales,Big Lake Reagan County,58.79,156.49,77.11,161.03,394.63,Single-ply,SBD,M
Boys,59.87,6,Landen Simmons,Slaton,59.51,165.56,83.91,140.61,390.09,Single-ply,SBD,M
Boys,59.87,7,Kaleb Chacon,Merkel,59.78,145.15,81.65,161.03,387.82,Single-ply,SBD,M
Boys,59.87,8,Truman Richerson,Abernathy,59.87,142.88,81.65,149.69,374.21,Single-ply,SBD,M
Boys,59.87,DQ,Johnathan Vidal,Denver City,58.97,131.54,,,,Single-ply,SBD,M
Boys,59.87,DQ,Brian Jackson,Seymour,58.06,161.03,,,,Single-ply,SBD,M
Boys,59.87,DQ,Jonathen Padilla,Stanton,58.97,,,,,Single-ply,SBD,M
Boys,59.87,DQ,Chris Almaguer,Stanton,58.51,,,,,Single-ply,SBD,M
Boys,67.13,1,Robert Zavala,Ralls,67.13,217.72,124.74,217.72,560.19,Single-ply,SBD,M
Boys,67.13,2,Jeremiah Diaz,Friona,66.13,192.78,99.79,183.7,476.27,Single-ply,SBD,M
Boys,67.13,3,Cade Conway,Sundown,66.68,172.37,113.4,172.37,458.13,Single-ply,SBD,M
Boys,67.13,4,Walker Voyles,Vega,66.13,170.1,99.79,183.7,453.59,Single-ply,SBD,M
Boys,67.13,5,Riley Perry,Tuscola Jim Ned,61.6,167.83,111.13,170.1,449.06,Single-ply,SBD,M
Boys,67.13,6,Kade Tinsley,Bushland,63.96,158.76,95.25,192.78,446.79,Single-ply,SBD,M
Boys,67.13,7,Brady Tiemann,Vega,65.95,167.83,102.06,176.9,446.79,Single-ply,SBD,M
Boys,67.13,8,Cade Cramer,Mertzon Irion County,64.86,167.83,102.06,142.88,412.77,Single-ply,SBD,M
Boys,67.13,DQ,Marcus Perez,Ozona,67.13,,,,,Single-ply,SBD,M
Boys,67.13,DQ,Jose Dominguez,Ozona,64.14,183.7,,,,Single-ply,SBD,M
Boys,67.13,DQ,Riley Tiemann,Vega,66.04,161.03,,,,Single-ply,SBD,M
Boys,67.13,DQ,David Guerrero,Big Lake Reagan County,66.5,,,,,Single-ply,SBD,M
Boys,67.13,DQ,Ben Flores,Abernathy,65.68,167.83,92.99,,,Single-ply,SBD,M
Boys,74.84,1,Blake Hulse,Sundown,74.57,238.14,131.54,233.6,603.28,Single-ply,SBD,M
Boys,74.84,2,Aiden Fuentes,Ozona,74.84,231.33,113.4,219.99,564.72,Single-ply,SBD,M
Boys,74.84,3,Cody Castor,Childress,71.4,208.65,145.15,208.65,562.45,Single-ply,SBD,M
Boys,74.84,4,Alexander Herevia,Tahoka,73.84,219.99,129.27,204.12,553.38,Single-ply,SBD,M
Boys,74.84,5,Alex Carmona,Floydada,73.3,226.8,113.4,185.97,526.17,Single-ply,SBD,M
Boys,74.84,6,Aldo Vasquez,Olton,74.39,215.46,111.13,185.97,512.56,Single-ply,SBD,M
Boys,74.84,7,Richard Hoffman,Clyde,74.48,213.19,104.33,185.97,503.49,Single-ply,SBD,M
Boys,74.84,8,Payton Polk,Christoval,73.84,188.24,113.4,199.58,501.22,Single-ply,SBD,M
Boys,74.84,9,Malik Hamilton,Tahoka,71.4,199.58,95.25,199.58,494.42,Single-ply,SBD,M
Boys,74.84,10,Isiah Rocha,Slaton,74.75,190.51,102.06,197.31,489.88,Single-ply,SBD,M
Boys,74.84,11,Roger Palacios,Friona,72.85,195.04,102.06,183.7,480.81,Single-ply,SBD,M
Boys,74.84,12,Izaih Landa,Post,73.84,179.17,106.59,176.9,462.66,Single-ply,SBD,M
Boys,74.84,DQ,Frankie Villanueva,Eldorado,72.48,,,,,Single-ply,SBD,M
Boys,82.1,1,Juan Baez,Sonora,80.29,283.5,156.49,240.4,680.39,Single-ply,SBD,M
Boys,82.1,2,Kingsley Rodriguez,Seagraves,78.29,222.26,120.2,242.67,585.13,Single-ply,SBD,M
Boys,82.1,3,Juan Saucedo,Big Lake Reagan County,80.65,219.99,127.01,206.38,553.38,Single-ply,SBD,M
Boys,82.1,4,Andrew Herpeche,Miles,81.1,204.12,133.81,210.92,548.85,Single-ply,SBD,M
Boys,82.1,5,Christian DeLuna,Big Lake Reagan County,81.37,210.92,113.4,201.85,526.17,Single-ply,SBD,M
Boys,82.1,6,Issahia Valenzuela,Big Lake Reagan County,80.92,208.65,102.06,210.92,521.63,Single-ply,SBD,M
Boys,82.1,7,Julio Acevedo,Roby,82.01,222.26,102.06,195.04,519.36,Single-ply,SBD,M
Boys,82.1,8,Noel Perez,Big Lake Reagan County,81.19,213.19,106.59,190.51,510.29,Single-ply,SBD,M
Boys,82.1,9,Sergio Guerrero,Olton,81.65,199.58,108.86,185.97,494.42,Single-ply,SBD,M
Boys,82.1,10,Logan Terrel,Bushland,78.02,163.29,117.93,208.65,489.88,Single-ply,SBD,M
Boys,82.1,11,Silas Urrurita,Lockney,78.2,181.44,120.2,176.9,478.54,Single-ply,SBD,M
Boys,82.1,12,Kolby Griffin,Anson,80.74,179.17,97.52,197.31,474,Single-ply,SBD,M
Boys,82.1,NS,Mike Delefuente,Floydada,,,,,,Single-ply,SBD,M
Boys,89.81,1,Donovan Gomez,Clyde,87.36,249.48,158.76,229.06,637.3,Single-ply,SBD,M
Boys,89.81,2,Keegan Dobbs,Coahoma,88.27,235.87,127.01,226.8,589.67,Single-ply,SBD,M
Boys,89.81,3,Braxton Juardo,Shallowater,87.91,217.72,120.2,231.33,569.26,Single-ply,SBD,M
Boys,89.81,4,Blake Miller,Mertzon Irion County,88.81,197.31,158.76,206.38,562.45,Single-ply,SBD,M
Boys,89.81,5,Nico Ortiz,Big Lake Reagan County,88.99,213.19,136.08,210.92,560.19,Single-ply,SBD,M
Boys,89.81,6,Nicodemus Ayala,Tahoka,87.91,208.65,138.35,201.85,548.85,Single-ply,SBD,M
Boys,89.81,7,Kodee Warriner,Big Lake Reagan County,86.91,199.58,115.67,231.33,546.58,Single-ply,SBD,M
Boys,89.81,8,Gavin Richardson,Sundown,88.36,188.24,120.2,217.72,526.17,Single-ply,SBD,M
Boys,89.81,9,Jonathan Hernandez,Friona,89.27,190.51,131.54,192.78,514.83,Single-ply,SBD,M
Boys,89.81,10,Cole Boren,Post,89.09,208.65,124.74,174.63,508.02,Single-ply,SBD,M
Boys,89.81,11,Jonathan Golightly,Sundown,86.64,208.65,122.47,172.37,503.49,Single-ply,SBD,M
Boys,89.81,NS,Colton Marshall,Hawley,,,,,,Single-ply,SBD,M
Boys,89.81,DQ,Preston Love,Bushland,89.54,,,,,Single-ply,SBD,M
Boys,99.79,1,Tanner Schnoor,Hawley,98.61,254.01,140.61,276.69,671.32,Single-ply,SBD,M
Boys,99.79,2,Brady Herbst,Junction,99.06,233.6,174.63,224.53,632.76,Single-ply,SBD,M
Boys,99.79,3,Adam Velasco,Denver City,96.34,242.67,172.37,208.65,623.69,Single-ply,SBD,M
Boys,99.79,4,Hunter Wheeler,Sonora,96.8,244.94,129.27,229.06,603.28,Single-ply,SBD,M
Boys,99.79,5,Jesus Jaramillo,Friona,98.07,235.87,138.35,226.8,601.01,Single-ply,SBD,M
Boys,99.79,6,Thomas Ellifritz,Childress,98.07,254.01,136.08,201.85,591.94,Single-ply,SBD,M
Boys,99.79,7,Cardell Wickware,Floydada,98.79,226.8,161.03,204.12,591.94,Single-ply,SBD,M
Boys,99.79,8,Arthur Murillo,Tuscola Jim Ned,91.63,226.8,136.08,219.99,582.87,Single-ply,SBD,M
Boys,99.79,DQ,Emmanuel Camacho,Crane,98.34,,,,,Single-ply,SBD,M
Boys,99.79,DQ,Adolph Medina,Ballinger,98.52,217.72,,,,Single-ply,SBD,M
Boys,99.79,DQ,Ariel Jaramillo,Friona,97.25,238.14,,,,Single-ply,SBD,M
Boys,99.79,DQ,Colton Strickland,Hawley,94.98,,,,,Single-ply,SBD,M
Boys,109.77,1,Tristan Ortiz,Big Lake Reagan County,107.23,294.84,145.15,290.3,730.28,Single-ply,SBD,M
Boys,109.77,2,Gabriel Chavez,Olton,102.33,283.5,147.42,249.48,680.39,Single-ply,SBD,M
Boys,109.77,3,Bobby Zambrano,Coahoma,106.68,251.74,170.1,219.99,641.83,Single-ply,SBD,M
Boys,109.77,4,Jeremy L Hernandez,Sundown,101.24,238.14,140.61,235.87,614.62,Single-ply,SBD,M
Boys,109.77,5,Nathaniel Whitmore,Forsan,104.87,235.87,136.08,219.99,591.94,Single-ply,SBD,M
Boys,109.77,6,Elias Aguirre,Muleshoe,107.77,226.8,136.08,199.58,562.45,Single-ply,SBD,M
Boys,109.77,7,Alan Mendoza,Seagraves,101.51,215.46,129.27,206.38,551.11,Single-ply,SBD,M
Boys,109.77,8,Ivan Perez,Amarillo Highland Park,106.32,224.53,104.33,217.72,546.58,Single-ply,SBD,M
Boys,109.77,9,Kyle Lewis,Ozona,99.88,201.85,140.61,199.58,542.04,Single-ply,SBD,M
Boys,109.77,DQ,Ashton Smith,Stanton,101.06,,,,,Single-ply,SBD,M
Boys,109.77,DQ,Andrew Rodriguez,Bushland,99.88,,,,,Single-ply,SBD,M
Boys,109.77,DQ,Miguel Lara,Lockney,107.68,,,,,Single-ply,SBD,M
Boys,124.74,1,Kolter Willeford,Hawley,121.47,326.59,165.56,274.42,766.57,Single-ply,SBD,M
Boys,124.74,2,Bo Thompson,Hawley,119.29,249.48,219.99,240.4,709.87,Single-ply,SBD,M
Boys,124.74,3,Albert Arispe,Eldorado,116.66,260.82,142.88,256.28,659.98,Single-ply,SBD,M
Boys,124.74,4,Luke Williams,Merkel,115.58,249.48,149.69,256.28,655.44,Single-ply,SBD,M
Boys,124.74,5,Cody Mays,Vega,117.48,249.48,149.69,242.67,641.83,Single-ply,SBD,M
Boys,124.74,6,Andy Casias,Abernathy,114.4,260.82,140.61,226.8,628.23,Single-ply,SBD,M
Boys,124.74,7,Aaron Longoria,Quanah,120.56,249.48,145.15,213.19,607.81,Single-ply,SBD,M
Boys,124.74,8,Darius Pando,Kermit,111.77,240.4,122.47,219.99,582.87,Single-ply,SBD,M
Boys,124.74,9,Jayson Pagan,McCamey,110.86,242.67,129.27,197.31,569.26,Single-ply,SBD,M
Boys,124.74,10,Javier Olvera,Floydada,122.02,213.19,136.08,208.65,557.92,Single-ply,SBD,M
Boys,124.74,DQ,Tyler Carper,Baird,115.67,170.1,129.27,,,Single-ply,SBD,M
Boys,124.74,DQ,Jayden Hostetter,Ballinger,119.39,254.01,129.27,,,Single-ply,SBD,M
Boys,124.74+,1,David Schuman,Merkel,126.55,290.3,208.65,240.4,739.36,Single-ply,SBD,M
Boys,124.74+,2,Emiliano Hernandez,Eldorado,135.08,272.16,147.42,272.16,691.73,Single-ply,SBD,M
Boys,124.74+,3,Alexis Rosas,Crane,126.92,276.69,158.76,231.33,666.78,Single-ply,SBD,M
Boys,124.74+,4,Ralph Navarette,Crane,156.94,276.69,136.08,238.14,650.91,Single-ply,SBD,M
Boys,124.74+,5,Cameron Hastings,Sundown,147.78,272.16,158.76,204.12,635.03,Single-ply,SBD,M
Boys,124.74+,6,Brody Adams,Junction,140.89,247.21,167.83,217.72,632.76,Single-ply,SBD,M
Boys,124.74+,7,Dakota Nichols,Hawley,125.28,238.14,183.7,206.38,628.23,Single-ply,SBD,M
Boys,124.74+,8,Alejandro Gonzales,Coahoma,171.28,260.82,170.1,197.31,628.23,Single-ply,SBD,M
Boys,124.74+,9,Wesley Estridge,Big Lake Reagan County,130.18,272.16,145.15,199.58,616.89,Single-ply,SBD,M
Boys,124.74+,10,Raziel Burrola,Kermit,125.01,235.87,161.03,217.72,614.62,Single-ply,SBD,M
Boys,124.74+,11,Dominick Longoria,Seagraves,150.86,240.4,156.49,204.12,601.01,Single-ply,SBD,M
Boys,124.74+,12,Taye Perez,Post,131.18,226.8,127.01,235.87,589.67,Single-ply,SBD,M
