Division,WeightClassKg,Place,Name,Team,BodyweightKg,Best3SquatKg,Best3BenchKg,Best3DeadliftKg,TotalKg,Equipment,Event,Sex
Boys,51.71,1,Jose Garcia,Diboll,49.08,97.52,72.57,124.74,294.84,Single-ply,SBD,M
Boys,51.71,2,Keilinn Shelton,Carthage,48.99,104.33,54.43,97.52,256.28,Single-ply,SBD,M
Boys,55.79,3,Blake Parham,Mount Enterprise,51.89,97.52,45.36,111.13,254.01,Single-ply,SBD,M
Boys,51.71,4,Hairo Salazar,Center,51.57,83.91,49.9,113.4,247.21,Single-ply,SBD,M
Boys,51.71,5,Blake Dyer,Atlanta,49.62,79.38,58.97,106.59,244.94,Single-ply,SBD,M
Boys,59.87,1,Riley Slocum,Longview Pine Tree,55.88,136.08,70.31,147.42,353.8,Single-ply,SBD,M
Boys,59.87,2,Daniel Rodriguez,Center,55.84,102.06,70.31,138.35,310.71,Single-ply,SBD,M
Boys,59.87,1,Joe King,Center,59.15,147.42,83.91,181.44,412.77,Single-ply,SBD,M
Boys,59.87,2,Juston Clough,Carthage,57.52,136.08,81.65,172.37,390.09,Single-ply,SBD,M
Boys,59.87,3,Hunter Roberts,Atlanta,59.06,117.93,77.11,142.88,337.93,Single-ply,SBD,M
Boys,59.87,4,Fred Torres,Timpson,58.42,111.13,52.16,170.1,333.39,Single-ply,SBD,M
Boys,59.87,5,Dillion Hendricks,Timpson,59.15,102.06,61.23,163.29,326.59,Single-ply,SBD,M
Boys,59.87,6,River Studdard,San Augustine,59.24,120.2,61.23,138.35,319.78,Single-ply,SBD,M
Boys,67.13,7,Jesus Pricto,Diboll,60.06,122.47,56.7,133.81,312.98,Single-ply,SBD,M
Boys,59.87,8,Wesley Berry,Shelbyville,59.87,113.4,54.43,131.54,299.37,Single-ply,SBD,M
Boys,59.87,9,Jorge Bautista,Huntington,59.6,102.06,52.16,115.67,269.89,Single-ply,SBD,M
Boys,59.87,10,Zack Brown,Huntington,59.51,90.72,58.97,115.67,265.35,Single-ply,SBD,M
Boys,67.13,1,Kenny Buffin,Longview Pine Tree,67.04,172.37,111.13,213.19,496.68,Single-ply,SBD,M
Boys,74.84,2,Christian Allison,Carthage,67.22,185.97,108.86,192.78,487.61,Single-ply,SBD,M
Boys,67.13,3,Justin Johnson,Mount Enterprise,63.41,195.04,104.33,174.63,474,Single-ply,SBD,M
Boys,74.84,4,Funzell Coleman,Atlanta,67.31,165.56,102.06,188.24,455.86,Single-ply,SBD,M
Boys,67.13,5,Jamie Hubbard,Center,61.69,147.42,83.91,192.78,424.11,Single-ply,SBD,M
Boys,67.13,6,Marcus Piroutek,Longview Pine Tree,65.5,167.83,106.59,147.42,421.84,Single-ply,SBD,M
Boys,67.13,7,Gage Allen,Hallsville,66.5,163.29,97.52,161.03,421.84,Single-ply,SBD,M
Boys,67.13,8,Brennan Burnett,Huntington,65.86,142.88,90.72,185.97,419.57,Single-ply,SBD,M
Boys,67.13,9,JaChristopher Holman,San Augustine,67.13,151.95,106.59,158.76,417.3,Single-ply,SBD,M
Boys,67.13,10,Jd Land,Shelbyville,63.05,167.83,77.11,165.56,410.5,Single-ply,SBD,M
Boys,67.13,11,Micah Temeleton,Carthage,65.23,147.42,83.91,174.63,405.97,Single-ply,SBD,M
Boys,67.13,12,JaCarlos Hall,Center,62.32,147.42,90.72,154.22,392.36,Single-ply,SBD,M
Boys,74.84,13,Patrick Sanders,Mount Enterprise,67.31,142.88,88.45,156.49,387.82,Single-ply,SBD,M
Boys,67.13,14,Josh Hensarling,Woodville,67.04,145.15,77.11,163.29,385.55,Single-ply,SBD,M
Boys,67.13,15,Cole Hudspeth,Center,64.32,136.08,86.18,158.76,381.02,Single-ply,SBD,M
Boys,67.13,16,Drew Estrada,Diboll,65.32,124.74,74.84,140.61,340.19,Single-ply,SBD,M
Boys,67.13,17,Ty Cawley,Diboll,64.41,122.47,70.31,145.15,337.93,Single-ply,SBD,M
Boys,67.13,18,Sergio Ramos,Diboll,65.14,115.67,74.84,127.01,317.51,Single-ply,SBD,M
Boys,67.13,19,Nathan Henshaw,Beckville,61.23,104.33,68.04,140.61,312.98,Single-ply,SBD,M
Boys,67.13,20,Jonte Taylor,Huntington,62.05,104.33,70.31,124.74,299.37,Single-ply,SBD,M
Boys,67.13,21,Owen Curran,Timpson,63.14,102.06,56.7,111.13,269.89,Single-ply,SBD,M
Boys,67.13,DQ,Amanda Robles,Joaquin,64.05,170.1,95.25,,,Single-ply,SBD,M
Boys,67.13,DQ,Taylor Bundrick,Mount Enterprise,63.5,,,,,Single-ply,SBD,M
Boys,67.13,DQ,Levi Roberts,Atlanta,65.95,,,,,Single-ply,SBD,M
Boys,82.1,1,Garrett Stanley,Center,74.98,267.62,142.88,242.67,653.17,Single-ply,SBD,M
Boys,74.84,2,Alvin Battle,Atlanta,74.75,219.99,129.27,226.8,576.06,Single-ply,SBD,M
Boys,74.84,3,DeUndre Phillips,Tyler Chapel Hill,73.66,217.72,117.93,192.78,528.44,Single-ply,SBD,M
Boys,74.84,4,Cercharvic Berry,San Augustine,74.84,204.12,102.06,195.04,501.22,Single-ply,SBD,M
Boys,74.84,5,Hunter Moody,Huntington,73.94,208.65,102.06,167.83,478.54,Single-ply,SBD,M
Boys,74.84,6,Nate Belrose,Joaquin,72.48,183.7,106.59,183.7,474,Single-ply,SBD,M
Boys,74.84,7,Blair Fernandez,Hallsville,73.3,195.04,106.59,165.56,467.2,Single-ply,SBD,M
Boys,82.1,8,Cruz Renteria,Longview Pine Tree,75.02,181.44,90.72,181.44,453.59,Single-ply,SBD,M
Boys,74.84,9,Preston Bozeman,Huntington,73.3,158.76,97.52,188.24,444.52,Single-ply,SBD,M
Boys,74.84,10,Khalil Sneed,Hallsville,70.67,172.37,102.06,154.22,428.64,Single-ply,SBD,M
Boys,74.84,11,Ethan Colier,Huntington,73.39,142.88,111.13,174.63,428.64,Single-ply,SBD,M
Boys,74.84,12,Jonathan Brown #1,Carthage,74.66,158.76,97.52,172.37,428.64,Single-ply,SBD,M
Boys,74.84,13,Da'Lyn Gipson,Mount Enterprise,70.76,147.42,86.18,192.78,426.38,Single-ply,SBD,M
Boys,74.84,14,Case Chambliss,Joaquin,69.22,151.95,102.06,170.1,424.11,Single-ply,SBD,M
Boys,74.84,15,Jacob Jackson,Shelbyville,74.84,145.15,95.25,149.69,390.09,Single-ply,SBD,M
Boys,82.1,16,Adrian Johnson,Center,74.93,129.27,95.25,158.76,383.29,Single-ply,SBD,M
Boys,74.84,17,Mathew Wagner,Woodville,67.49,151.95,74.84,142.88,369.68,Single-ply,SBD,M
Boys,74.84,18,Jase Dixon,Beckville,68.86,127.01,72.57,142.88,342.46,Single-ply,SBD,M
Boys,74.84,19,Lane Jackson,Garrison,74.39,113.4,65.77,158.76,337.93,Single-ply,SBD,M
Boys,74.84,20,Tyler Trimble,Shelbyville,74.84,113.4,77.11,136.08,326.59,Single-ply,SBD,M
Boys,74.84,DQ,Cer'Charvis Berry,San Augustine,74.66,172.37,108.86,,,Single-ply,SBD,M
Boys,82.1,1,AJ Rose,Hallsville,81.19,210.92,154.22,192.78,557.92,Single-ply,SBD,M
Boys,82.1,2,Jesse Mumphrey,Tyler Chapel Hill,79.47,204.12,117.93,215.46,537.51,Single-ply,SBD,M
Boys,82.1,3,Tanner Evett,Huntington,80.47,197.31,131.54,185.97,514.83,Single-ply,SBD,M
Boys,82.1,4,Quay Ward,Longview Pine Tree,79.83,185.97,122.47,195.04,503.49,Single-ply,SBD,M
Boys,82.1,5,DeCorian Horton,Tyler Chapel Hill,79.29,181.44,115.67,188.24,485.34,Single-ply,SBD,M
Boys,82.1,6,Tekanya Redden,Longview Pine Tree,79.2,188.24,113.4,172.37,474,Single-ply,SBD,M
Boys,82.1,7,Stephen Rice,Huntington,82.1,176.9,111.13,181.44,469.47,Single-ply,SBD,M
Boys,82.1,8,Martin Leon,Timpson,77.56,188.24,83.91,192.78,464.93,Single-ply,SBD,M
Boys,82.1,9,Hunter Harper,Joaquin,81.47,185.97,77.11,176.9,439.98,Single-ply,SBD,M
Boys,82.1,10,Josh Hutchison,Longview Pine Tree,76.29,147.42,111.13,167.83,426.38,Single-ply,SBD,M
Boys,82.1,11,Terry Rollins,Hallsville,81.37,145.15,99.79,167.83,412.77,Single-ply,SBD,M
Boys,82.1,12,Tavorian Pellum,Carthage,76.11,133.81,99.79,158.76,392.36,Single-ply,SBD,M
Boys,82.1,13,Jacob Williams,Woodville,76.84,158.76,79.38,147.42,385.55,Single-ply,SBD,M
Boys,82.1,14,Christian Basey,Huntington,75.39,145.15,79.38,158.76,383.29,Single-ply,SBD,M
Boys,82.1,15,David Amburn,Shelbyville,82.1,136.08,77.11,158.76,371.95,Single-ply,SBD,M
Boys,82.1,16,Cheston Malone,Carthage,76.11,136.08,92.99,136.08,365.14,Single-ply,SBD,M
Boys,82.1,17,Hunter Holt,Joaquin,80.47,129.27,79.38,133.81,342.46,Single-ply,SBD,M
Boys,82.1,DQ,Brysein Cross,Tyler Chapel Hill,77.02,147.42,,,,Single-ply,SBD,M
Boys,82.1,DQ,Gustavo Loredo,Beckville,80.47,133.81,,,,Single-ply,SBD,M
Boys,89.81,1,Kiounis Williams,Center,88.45,258.55,136.08,267.62,662.24,Single-ply,SBD,M
Boys,89.81,2,Leo Meyers,Atlanta,87.54,226.8,145.15,213.19,585.13,Single-ply,SBD,M
Boys,89.81,3,Leo Rodriguez,Diboll,88.09,213.19,129.27,217.72,560.19,Single-ply,SBD,M
Boys,89.81,4,Cam Schulz,Atlanta,89.63,219.99,120.2,213.19,553.38,Single-ply,SBD,M
Boys,89.81,5,Wyatt Windham,Shelbyville,89.81,190.51,124.74,206.38,521.63,Single-ply,SBD,M
Boys,89.81,6,Seth Hensley,Henderson,88.81,183.7,97.52,231.33,512.56,Single-ply,SBD,M
Boys,89.81,7,Clayton Bullock,Diboll,86.18,188.24,120.2,188.24,496.68,Single-ply,SBD,M
Boys,89.81,8,Tony Burns,Mount Enterprise,85.64,185.97,131.54,172.37,489.88,Single-ply,SBD,M
Boys,89.81,9,Brody Laney,Tyler Chapel Hill,85.91,172.37,111.13,183.7,467.2,Single-ply,SBD,M
Boys,89.81,10,Jackson Maxey,Hallsville,87.91,172.37,111.13,172.37,455.86,Single-ply,SBD,M
Boys,89.81,11,Kingrey Sullins,Hallsville,87.45,183.7,95.25,174.63,453.59,Single-ply,SBD,M
Boys,89.81,12,James Marshall,Carthage,82.92,161.03,106.59,181.44,449.06,Single-ply,SBD,M
Boys,89.81,13,Dylan Hasson,Woodville,83.37,163.29,86.18,195.04,444.52,Single-ply,SBD,M
Boys,89.81,14,Jeremy Wagstatt,Timpson,84.37,156.49,92.99,181.44,430.91,Single-ply,SBD,M
Boys,89.81,15,Benjamin Louther,Diboll,86.18,163.29,90.72,172.37,426.38,Single-ply,SBD,M
Boys,89.81,16,Michael Burran,Beckville,87.09,161.03,97.52,167.83,426.38,Single-ply,SBD,M
Boys,89.81,17,Desavion Cvane,San Augustine,89.27,172.37,90.72,151.95,415.04,Single-ply,SBD,M
Boys,89.81,18,Alex Baker,Longview Pine Tree,85,149.69,99.79,163.29,412.77,Single-ply,SBD,M
Boys,89.81,19,Nathan Boutin,Henderson,84.91,142.88,97.52,170.1,410.5,Single-ply,SBD,M
Boys,89.81,20,Skylar McClelland,Hallsville,83.28,158.76,83.91,165.56,408.23,Single-ply,SBD,M
Boys,89.81,21,Trevor Rios,Shelbyville,83.91,142.88,86.18,158.76,387.82,Single-ply,SBD,M
Boys,89.81,22,Noah Smith,Longview Pine Tree,85.82,136.08,83.91,154.22,374.21,Single-ply,SBD,M
Boys,89.81,23,Stephen Upchurch,Timpson,88.9,111.13,65.77,120.2,297.1,Single-ply,SBD,M
Boys,89.81,DQ,Stephen Dominey,Huntington,87.27,163.29,,,,Single-ply,SBD,M
Boys,89.81,DQ,Jeremy McDaniel,Hallsville,83.73,161.03,,,,Single-ply,SBD,M
Boys,99.79,1,DeVincent Hoyt,Center,98.43,258.55,145.15,226.8,630.49,Single-ply,SBD,M
Boys,99.79,2,Jose Vallejo,Center,97.98,222.26,140.61,226.8,589.67,Single-ply,SBD,M
Boys,99.79,3,Adam Mason,Joaquin,97.98,226.8,120.2,215.46,562.45,Single-ply,SBD,M
Boys,99.79,4,Dexter Ward,Hallsville,91.35,195.04,142.88,195.04,532.97,Single-ply,SBD,M
Boys,99.79,5,Andrew Dawson,Tyler Chapel Hill,99.43,201.85,115.67,188.24,505.76,Single-ply,SBD,M
Boys,99.79,6,Jokory Sherow,Longview Pine Tree,98.52,204.12,111.13,185.97,501.22,Single-ply,SBD,M
Boys,99.79,7,Mark Nusbaum,Longview Pine Tree,91.35,181.44,95.25,181.44,458.13,Single-ply,SBD,M
Boys,99.79,8,Allen Williams,Woodville,93.44,181.44,88.45,165.56,435.45,Single-ply,SBD,M
Boys,99.79,9,Gilbert Perez,Carthage,91.72,167.83,97.52,163.29,428.64,Single-ply,SBD,M
Boys,99.79,10,Brandon Truemmer,Longview Pine Tree,95.16,167.83,86.18,165.56,419.57,Single-ply,SBD,M
Boys,99.79,11,Bryan Torres,Timpson,92.99,124.74,88.45,165.56,378.75,Single-ply,SBD,M
Boys,99.79,DQ,Dalton Wheless,Joaquin,95.98,170.1,92.99,,,Single-ply,SBD,M
Boys,99.79,DQ,Delenis Garrett,Tyler Chapel Hill,92.8,235.87,97.52,,,Single-ply,SBD,M
Boys,99.79,DQ,Chris Ferguson,Longview Pine Tree,90.9,222.26,131.54,,,Single-ply,SBD,M
Boys,99.79,DQ,Wes Little,Atlanta,98.25,195.04,102.06,,,Single-ply,SBD,M
Boys,99.79,DQ,Kieran Bunzel,Hallsville,91.35,151.95,81.65,,,Single-ply,SBD,M
Boys,109.77,1,Gonzalo Arreguin,Tyler Chapel Hill,104.51,235.87,170.1,233.6,639.57,Single-ply,SBD,M
Boys,109.77,2,Cole Davis,Atlanta,104.42,226.8,136.08,226.8,589.67,Single-ply,SBD,M
Boys,109.77,3,Dameon Kennedy,Tyler Chapel Hill,105.6,217.72,140.61,206.38,564.72,Single-ply,SBD,M
Boys,109.77,4,Esteban Garza,Center,106.14,217.72,145.15,199.58,562.45,Single-ply,SBD,M
Boys,109.77,5,Kalen Whitworth,Diboll,106.14,199.58,115.67,226.8,542.04,Single-ply,SBD,M
Boys,109.77,6,Jd Franklin,Tyler Chapel Hill,104.78,192.78,136.08,206.38,535.24,Single-ply,SBD,M
Boys,109.77,7,Jade Panaro,Atlanta,102.51,215.46,106.59,206.38,528.44,Single-ply,SBD,M
Boys,109.77,8,Weston Thomas,Henderson,108.59,204.12,108.86,199.58,512.56,Single-ply,SBD,M
Boys,109.77,9,Mikey Grubbs,Mount Enterprise,102.69,190.51,108.86,204.12,503.49,Single-ply,SBD,M
Boys,109.77,10,Branton Halcomb,Carthage,108.14,181.44,129.27,188.24,498.95,Single-ply,SBD,M
Boys,109.77,11,Trenton Thomas,Henderson,107.77,179.17,111.13,195.04,485.34,Single-ply,SBD,M
Boys,109.77,12,Damarcus Hubert,Diboll,109.13,158.76,120.2,201.85,480.81,Single-ply,SBD,M
Boys,109.77,13,Yvenskie Rushing,San Augustine,105.41,183.7,113.4,170.1,467.2,Single-ply,SBD,M
Boys,109.77,14,Thomas Chesire,Diboll,109.77,181.44,104.33,181.44,467.2,Single-ply,SBD,M
Boys,124.74,15,Trey Payne,Longview Pine Tree,110,181.44,108.86,172.37,462.66,Single-ply,SBD,M
Boys,109.77,16,Kj Mohl,Hallsville,100.97,181.44,106.59,172.37,460.4,Single-ply,SBD,M
Boys,109.77,17,Jeffrey Dover,Diboll,105.41,167.83,90.72,201.85,460.4,Single-ply,SBD,M
Boys,109.77,18,Jacob Falk,Garrison,100.43,111.13,70.31,122.47,303.91,Single-ply,SBD,M
Boys,109.77,DQ,Triston Morris,Beckville,105.14,,,,,Single-ply,SBD,M
Boys,124.74,1,Zach Verhalen,Center,110.68,244.94,151.95,233.6,630.49,Single-ply,SBD,M
Boys,124.74,2,Ivan Lopez,Diboll,124.01,208.65,115.67,192.78,517.1,Single-ply,SBD,M
Boys,124.74,3,Jasper Spurlock,Hallsville,113.49,195.04,127.01,192.78,514.83,Single-ply,SBD,M
Boys,124.74,4,Alex Buber,San Augustine,115.58,192.78,113.4,163.29,469.47,Single-ply,SBD,M
Boys,124.74,5,Brandon Carlson,Carthage,112.13,192.78,90.72,181.44,464.93,Single-ply,SBD,M
Boys,124.74,6,Caleb Ninemire,Beckville,122.65,181.44,92.99,163.29,437.72,Single-ply,SBD,M
Boys,124.74,7,Pedro Mendoza,Center,119.02,174.63,115.67,142.88,433.18,Single-ply,SBD,M
Boys,124.74,8,Nick Albert,Longview Pine Tree,114.03,158.76,95.25,142.88,396.89,Single-ply,SBD,M
Boys,124.74,DQ,William Mitchell,Longview Pine Tree,114.4,260.82,147.42,,,Single-ply,SBD,M
Boys,124.74,DQ,Thad Bevis,Tyler Chapel Hill,124.28,,,,,Single-ply,SBD,M
Boys,124.74+,1,Cordrae Brown,Joaquin,134.08,272.16,138.35,219.99,630.49,Single-ply,SBD,M
Boys,124.74+,2,Daniel Ogrodowicz,Woodville,131.72,238.14,129.27,222.26,589.67,Single-ply,SBD,M
Boys,124.74+,3,Trey Dear,Woodville,135.08,226.8,117.93,222.26,566.99,Single-ply,SBD,M
Boys,124.74+,4,Cassius McKee,Atlanta,127.46,231.33,124.74,208.65,564.72,Single-ply,SBD,M
Boys,124.74+,5,Patrick Easley,Pollok Central,125.46,197.31,136.08,197.31,530.7,Single-ply,SBD,M
Boys,124.74+,6,Ej Barnes,San Augustine,130.36,192.78,133.81,176.9,503.49,Single-ply,SBD,M
Boys,124.74+,7,Corey Hall,Hallsville,128.73,204.12,102.06,181.44,487.61,Single-ply,SBD,M
Boys,124.74+,8,Christian Jimenez,Carthage,140.61,190.51,92.99,192.78,476.27,Single-ply,SBD,M
Boys,124.74+,9,James Jones,Shelbyville,127.01,181.44,90.72,170.1,442.25,Single-ply,SBD,M
Boys,124.74+,10,Ruston Miller,Joaquin,132.09,161.03,77.11,165.56,403.7,Single-ply,SBD,M
Boys,124.74+,11,Andrew Lindsey,Shelbyville,136.08,142.88,77.11,142.88,362.87,Single-ply,SBD,M
